<svg width="110" height="110" viewBox="0 0 110 110" fill="none" xmlns="http://www.w3.org/2000/svg">
<circle cx="55" cy="55" r="55" fill="#2E3148"/>
<circle cx="54.9999" cy="54.9996" r="31.9136" fill="#1B1E36"/>
<path fill-rule="evenodd" clip-rule="evenodd" d="M44.3621 55.1134C44.3621 28.5502 49.1761 7.0166 55.113 7.0166C61.0499 7.0166 65.864 28.5502 65.864 55.1134C65.864 81.6767 61.0499 103.21 55.113 103.21C49.1761 103.21 44.3621 81.6767 44.3621 55.1134ZM54.4975 100.722C54.4975 100.722 55.1764 101.401 55.8553 100.496C55.8553 100.496 59.0444 97.7776 61.3214 84.8768C61.3214 84.8768 64.2795 67.9016 63.8268 52.737C63.8268 52.737 64.2795 35.309 59.2798 16.7494C59.2798 16.7494 57.5867 10.7672 55.568 9.33672C55.2319 9.09772 54.7727 9.13484 54.4794 9.42472C53.0881 10.8006 48.9997 16.998 46.7521 43.2326C46.7521 43.2326 45.6139 76.2779 50.3962 91.6686C50.3962 91.6686 51.7633 97.5541 54.4975 100.722Z" fill="#6F7390"/>
<path fill-rule="evenodd" clip-rule="evenodd" d="M49.7516 45.786C72.8037 32.5676 93.8757 26.0265 96.8316 31.178C99.7854 36.3274 83.5247 51.22 60.4727 64.4385C37.4206 77.657 16.3464 84.1958 13.3927 79.0465C10.439 73.8972 26.6996 59.0045 49.7516 45.786ZM15.2438 77.2672C15.2438 77.2672 14.9881 78.1973 16.1198 78.3399H16.1202C16.1202 78.3399 20.0631 79.7545 32.387 75.3136C32.387 75.3136 48.5834 69.4356 61.512 61.4936C61.512 61.4936 76.8552 53.2119 90.4565 39.634C90.4565 39.634 94.8138 35.19 95.0399 32.726C95.0829 32.3143 94.8226 31.9317 94.424 31.8204C92.543 31.3026 85.1281 30.834 61.2563 41.9404C61.2563 41.9404 32.0245 57.3972 21.0496 69.205C21.0496 69.205 16.632 73.3199 15.2438 77.2672Z" fill="#6F7390"/>
<path fill-rule="evenodd" clip-rule="evenodd" d="M60.5154 45.8012C83.4865 59.1191 99.7062 74.08 96.7274 79.2179C93.7512 84.365 72.7082 77.7425 49.7239 64.4246C26.7397 51.1067 10.5226 36.1546 13.4987 31.0079C16.4749 25.8613 37.5443 32.4833 60.5154 45.8012ZM15.9614 31.6987C15.9614 31.6987 15.0326 31.95 15.4726 32.9932L15.4757 33.0047C15.4757 33.0047 16.2289 37.1217 26.2557 45.564C26.2557 45.564 39.4513 56.6388 52.796 63.8363C52.796 63.8363 67.6482 72.9597 86.2193 77.9392C86.2193 77.9392 92.2447 79.4739 94.4944 78.4439C94.8706 78.2733 95.0693 77.8567 94.9652 77.457C94.4693 75.5694 91.1605 68.9197 69.586 53.8228C69.586 53.8228 41.5646 36.2703 25.85 32.6918C25.85 32.6918 20.0737 30.9221 15.9614 31.6987Z" fill="#6F7390"/>
<circle cx="55" cy="55.0002" r="5.6584" fill="#B7B9C8"/>
<ellipse cx="78.1994" cy="33.271" rx="3.28196" ry="3.39504" fill="#B7B9C8"/>
<ellipse cx="24.3312" cy="44.815" rx="3.28196" ry="3.39504" fill="#B7B9C8"/>
<ellipse cx="48.323" cy="86.4605" rx="3.28196" ry="3.39504" fill="#B7B9C8"/>
</svg>
