{
  "version": 2,
  "env": {
    "ON_VERCEL": "true",
    "BASE_URL": "https://thorchain-sites-thorchain-org-v2.aminazgol.vercel.app"
  },
  "builds": [
    {
      "src": "api/**/*.js",
      "use": "@now/node"
    },
    {
      "src": "nuxt.config.js",
      "use": "@nuxtjs/vercel-builder",
      "config": {
        "serverFiles": [
          "locales/**",
          "utils/**"
          ]
      }
    }
  ],
  "routes": [
    {  "src": "/api/(.*)", "dest": "api/rest.js" },
    { "src": "/api", "dest": "api/rest.js" },
    { "src": "/(.*)", "dest": "$1" }
]
}