<svg width="189" height="88" viewBox="0 0 189 88" fill="none" xmlns="http://www.w3.org/2000/svg">
<rect width="189" height="88" rx="12" fill="#000B12"/>
<mask id="mask0" mask-type="alpha" maskUnits="userSpaceOnUse" x="0" y="0" width="189" height="88">
<rect width="189" height="88" rx="12" fill="white"/>
</mask>
<g mask="url(#mask0)">
<path d="M14.6364 13.3445C15.6092 13.7301 16.0867 14.8381 15.7045 15.8136L11.5909 26.2929C11.2087 27.2684 10.1058 27.7454 9.133 27.3597L7.36331 26.6547C6.39055 26.269 5.91301 25.1611 6.29522 24.1856L10.4088 13.7062C10.791 12.7307 11.894 12.2538 12.8667 12.6394L14.6364 13.3445Z" fill="#23DCC8"/>
<path d="M3.51135 73.1126C4.40126 73.0052 5.27393 73.8079 5.45764 74.8905L7.4009 86.5459C7.58461 87.6285 7.00217 88.5947 6.11226 88.7021L4.48879 88.8869C3.59888 88.9943 2.72621 88.1917 2.5425 87.109L0.599238 75.4536C0.41553 74.371 0.997962 73.4048 1.88788 73.2974L3.51135 73.1126Z" fill="#23DCC8"/>
<path d="M60.4159 7.08728C61.4714 6.76554 62.5909 7.36075 62.9127 8.41624C63.2344 9.47173 62.6392 10.5913 61.5837 10.913C60.5282 11.2348 59.4086 10.6395 59.0869 9.58406C58.7652 8.52857 59.3604 7.40902 60.4159 7.08728Z" fill="#23DCC8"/>
<path d="M31.4159 70.0873C32.4714 69.7655 33.5909 70.3608 33.9127 71.4162C34.2344 72.4717 33.6392 73.5913 32.5837 73.913C31.5282 74.2348 30.4086 73.6395 30.0869 72.5841C29.7619 71.5165 30.3604 70.409 31.4159 70.0873Z" fill="#23DCC8"/>
<path d="M84.4159 60.0873C85.4714 59.7655 86.5909 60.3608 86.9127 61.4162C87.2344 62.4717 86.6392 63.5913 85.5837 63.913C84.5282 64.2348 83.4086 63.6395 83.0869 62.5841C82.7652 61.5286 83.3604 60.409 84.4159 60.0873Z" fill="#23DCC8"/>
<path d="M11.4159 43.0873C12.4714 42.7655 13.5909 43.3608 13.9127 44.4162C14.2344 45.4717 13.6392 46.5913 12.5837 46.913C11.5282 47.2348 10.4086 46.6395 10.0869 45.5841C9.76517 44.5286 10.3604 43.409 11.4159 43.0873Z" fill="#23DCC8"/>
<path d="M44.4761 52.0701C45.5386 51.7724 46.6411 52.3986 46.9299 53.4765C47.2276 54.539 46.6013 55.6414 45.5234 55.9303C44.4608 56.228 43.3584 55.6017 43.0696 54.5238C42.784 53.4581 43.4102 52.3556 44.4761 52.0701Z" fill="#23DCC8"/>
<path d="M42.4761 40.0701C43.5386 39.7724 44.6411 40.3986 44.9299 41.4765C45.2276 42.539 44.6013 43.6414 43.5234 43.9303C42.4608 44.228 41.3584 43.6017 41.0696 42.5238C40.784 41.4581 41.4102 40.3556 42.4761 40.0701Z" fill="#23DCC8"/>
<path fill-rule="evenodd" clip-rule="evenodd" d="M137.982 151.052L116.096 156.928L69.1641 -17.8697L91.0498 -23.7459L155.555 -6.98077L162.013 17.0744L151.256 56.8444L205.827 132.837L182.542 139.088L127.89 61.8598L140.893 12.4816L97.7587 1.24796L137.982 151.052Z" stroke="#23DCC8"/>
<path fill-rule="evenodd" clip-rule="evenodd" d="M137.982 151.052L116.096 156.928L69.1641 -17.8697L91.0498 -23.7459L155.555 -6.98077L162.013 17.0744L151.256 56.8444L205.827 132.837L182.542 139.088L127.89 61.8598L140.893 12.4816L97.7587 1.24796L137.982 151.052Z" fill="#23DCC8" stroke="#23DCC8"/>
<circle cx="126" cy="63.9999" r="180" transform="rotate(-15 126 63.9999)" stroke="#23DCC8" stroke-width="6.881"/>
<path d="M302.134 48.4173L291.087 47.1411L232.678 62.3873L218.61 79.7344C215.995 102.688 201.551 116.399 201.551 116.399L158.884 61.8237L160.576 55.4918L169.552 16.1498L165.654 15.0524L158.812 -10.4836L128.05 -17.8535L124.608 -30.6992C162.138 -31.3188 203.328 -7.23949 214.103 23.8114C214.103 23.8114 217.063 31.7764 218.064 36.3157L230.168 42.5207" stroke="#23DCC8" stroke-width="0.5"/>
<path d="M298.887 30.2924L287.154 27.4732L237.97 40.6522L224.708 32.97C223.671 30.2961 219.223 21.3117 219.223 21.3117C201.716 -16.2977 163.196 -39.7189 122.113 -38.292" stroke="#23DCC8" stroke-width="0.5"/>
<path d="M303.665 62.487L293.432 61.0815L240.192 75.3472L229.614 94.1482C221.689 123.658 201.948 149.109 174.373 163.382" stroke="#23DCC8" stroke-width="0.5159"/>
<path d="M298.758 24.3089L284.601 21.3319L243.792 32.2666L231.386 25.0726C230.28 21.74 229.516 20.8379 229.516 20.8379C210.269 -20.5159 167.484 -45.9728 122.242 -43.3096" stroke="#23DCC8" stroke-width="0.5"/>
<path d="M295.942 15.7053L284.021 13.4347L246.94 23.3704L232.681 15.087C210.591 -32.432 159.264 -60.1807 107.059 -51.7051L108.703 -45.5664L108.91 -44.7949" stroke="#23DCC8" stroke-width="0.5"/>
<path d="M297.34 9.73093L286.13 6.53497L251.166 15.9035L236.676 5.77091C210.745 -43.0062 155.771 -70.477 100.66 -59.7314L104.409 -45.7395" stroke="#23DCC8" stroke-width="0.5127"/>
<path d="M199.39 67.1962L200.404 70.9809L228.005 63.2741L215.963 76.552C215.963 76.552 212.248 98.1883 201.538 108.273L168.518 65.3574" stroke="#23DCC8" stroke-width="0.5"/>
<path d="M64.2654 39.4641C64.4727 40.2376 64.0309 41.0259 63.2998 41.2218L58.2531 42.5741C57.5119 42.7727 56.7424 42.2975 56.538 41.5347L55.7346 38.5363C55.5274 37.7628 55.9691 36.9744 56.7002 36.7785L61.7469 35.4263C62.4882 35.2277 63.2576 35.7029 63.462 36.4657L64.2654 39.4641Z" fill="#23DCC8"/>
<path d="M67.2654 46.4641C67.4727 47.2376 67.0309 48.0259 66.2998 48.2218L61.2531 49.5741C60.5119 49.7727 59.7424 49.2975 59.538 48.5347L58.7346 45.5363C58.5274 44.7628 58.9691 43.9744 59.7002 43.7785L64.7469 42.4263C65.4882 42.2277 66.2576 42.7029 66.462 43.4657L67.2654 46.4641Z" fill="#23DCC8"/>
<path d="M166.484 59.6198C166.238 60.5716 165.242 61.1677 164.281 60.937L155.24 58.8292C154.269 58.6013 153.672 57.6372 153.922 56.6961L154.515 54.3799C154.762 53.4281 155.758 52.832 156.719 53.0627L165.759 55.1705C166.731 55.3984 167.328 56.3624 167.078 57.3036L166.484 59.6198Z" fill="#23DCC8"/>
<path d="M168.484 50.6189C168.237 51.5715 167.242 52.168 166.281 51.9367L157.242 49.8349C156.27 49.6066 155.673 48.6413 155.923 47.6993L156.515 45.3808C156.762 44.4282 157.758 43.8317 158.719 44.063L167.758 46.1648C168.73 46.3931 169.327 47.3584 169.077 48.3004L168.484 50.6189Z" fill="#23DCC8"/>
<path d="M170.484 43.6189C170.237 44.5715 169.242 45.168 168.281 44.9367L159.242 42.8349C158.27 42.6066 157.673 41.6413 157.923 40.6993L158.515 38.3808C158.762 37.4282 159.758 36.8317 160.719 37.063L169.758 39.1648C170.73 39.3931 171.327 40.3584 171.077 41.3004L170.484 43.6189Z" fill="#23DCC8"/>
<path d="M67.173 40.9339C66.8438 39.7515 67.4679 38.5143 68.5762 38.204L76.1107 36.0781C77.2074 35.7709 78.3912 36.4835 78.7238 37.6784L78.8274 38.0653C79.1567 39.2477 78.5326 40.4849 77.4243 40.7952L69.8897 42.9211C68.7931 43.2283 67.6092 42.5157 67.2767 41.3208L67.173 40.9339Z" fill="#23DCC8"/>
<path d="M171.858 24.6446C171.689 25.3721 170.958 25.8161 170.241 25.636L166.279 24.6269C165.562 24.4468 165.119 23.6976 165.288 22.9701L166.142 19.356C166.311 18.6285 167.042 18.1845 167.759 18.3646L171.722 19.3737C172.438 19.5538 172.882 20.303 172.712 21.0305L171.858 24.6446Z" fill="#23DCC8"/>
<path d="M172.663 34.9866C172.399 35.9366 171.342 36.5406 170.326 36.3259L163.6 34.9319C162.586 34.7283 161.98 33.7737 162.256 32.8205L163.336 29.0141C163.6 28.0641 164.657 27.4601 165.674 27.6748L172.4 29.0688C173.414 29.2724 174.019 30.227 173.743 31.1802L172.663 34.9866Z" fill="#23DCC8"/>
<path d="M121.447 49.552C120.396 49.2872 119.786 48.2482 120.087 47.2324L122.752 38.2112C123.053 37.1954 124.15 36.5855 125.202 36.8503L127.552 37.4471C128.604 37.7119 129.213 38.7509 128.912 39.7667L126.248 48.7879C125.947 49.8037 124.85 50.4136 123.798 50.1488L121.447 49.552Z" fill="#23DCC8"/>
<path fill-rule="evenodd" clip-rule="evenodd" d="M121.447 49.552C120.396 49.2872 119.786 48.2482 120.087 47.2324L122.752 38.2112C123.053 37.1954 124.15 36.5855 125.202 36.8503L127.552 37.4471C128.604 37.7119 129.213 38.7509 128.912 39.7667L126.248 48.7879C125.947 49.8037 124.85 50.4136 123.798 50.1488L121.447 49.552Z" stroke="#23DCC8" stroke-width="0.5"/>
<path fill-rule="evenodd" clip-rule="evenodd" d="M74.1768 -79.235L76.7939 -71.9574C80.6189 -73.3287 84.5525 -74.5618 88.4945 -75.6301L88.5834 -75.6539L86.5827 -83.1206L86.4938 -83.0967C82.3407 -81.972 78.196 -80.6822 74.1768 -79.235ZM112.897 -79.9948C108.817 -79.6183 104.701 -79.0649 100.656 -78.3392L99.2863 -85.9392C103.549 -86.6992 107.882 -87.2869 112.182 -87.6865L112.897 -79.9948ZM50.5465 -68.3883L54.3514 -61.6559C57.9166 -63.6862 61.6265 -65.5761 65.3479 -67.2899L62.1324 -74.3116C58.1978 -72.5048 54.2997 -70.5168 50.5465 -68.3883ZM137.602 -80.1644C133.512 -80.49 129.362 -80.6441 125.251 -80.6056L125.183 -88.3274C129.512 -88.3526 133.888 -88.1994 138.195 -87.8604L137.602 -80.1644ZM29.1161 -53.6877L33.9966 -47.6974C37.1693 -50.3033 40.4919 -52.7942 43.8734 -55.1097L39.5191 -61.4919C35.9555 -59.0559 32.4568 -56.4223 29.1161 -53.6877ZM161.973 -76.1118C157.997 -77.1248 153.921 -77.9796 149.867 -78.6612L151.113 -86.2811C155.376 -85.572 159.668 -84.6676 163.859 -83.6049L161.973 -76.1118ZM10.4785 -35.5429L16.3031 -30.4745C18.9841 -33.5817 21.8424 -36.6051 24.7818 -39.4591L19.4122 -45.0078C16.3137 -41.9918 13.3075 -38.8093 10.4785 -35.5429ZM185.323 -67.9994C181.565 -69.6679 177.697 -71.2116 173.822 -72.562L176.343 -79.8667C180.429 -78.4413 184.504 -76.8339 188.454 -75.0733L185.323 -67.9994ZM-4.83439 -14.5026L1.75605 -10.4874C3.88556 -14.0083 6.1864 -17.4676 8.60684 -20.7917L2.38374 -25.3473C-0.170533 -21.8559 -2.59925 -18.2071 -4.83439 -14.5026ZM206.974 -56.0513C203.551 -58.3352 199.994 -60.4995 196.4 -62.4869L200.114 -69.2512C203.902 -67.1606 207.643 -64.8902 211.252 -62.4889L206.974 -56.0513ZM-16.4005 8.83038L-9.23041 11.675C-7.72042 7.84234 -6.03396 4.046 -4.20866 0.36775L-11.1131 -3.08556C-13.0269 0.795594 -14.8131 4.7978 -16.4005 8.83038ZM226.316 -40.6298C223.333 -43.4497 220.181 -46.1885 216.972 -48.7445L221.759 -54.7931C225.15 -52.0945 228.457 -49.2182 231.602 -46.2387L226.316 -40.6298ZM-23.8742 33.7902L-16.324 35.3863C-15.4844 31.363 -14.4722 27.3173 -13.2797 23.3667L-20.665 21.1411C-21.9098 25.2969 -22.9854 29.5506 -23.8742 33.7902ZM242.772 -22.1536C240.306 -25.4464 237.668 -28.6692 234.94 -31.7367L240.684 -36.8829C243.565 -33.6416 246.343 -30.2532 248.941 -26.7807L242.772 -22.1536ZM-26.9995 59.6871L-19.3021 59.9657C-19.1536 55.8528 -18.8383 51.6953 -18.3376 47.6075L-25.9851 46.6705C-26.5098 50.9797 -26.8491 55.3587 -26.9995 59.6871ZM-18.0409 84.6752L-25.6817 85.7192C-26.2732 81.4224 -26.6818 77.0528 -26.8998 72.7276L-19.2 72.3486C-18.9943 76.4501 -18.598 80.5961 -18.0409 84.6752ZM-21.8191 104.846C-21.2547 106.953 -20.6369 109.081 -19.9866 111.152L-12.6389 108.837C-13.2512 106.863 -13.8391 104.846 -14.3736 102.851C-14.9051 100.868 -15.3952 98.861 -15.8459 96.8676L-23.3639 98.5476C-22.8974 100.644 -22.3775 102.762 -21.8191 104.846ZM-10.1165 135.275C-12.0903 131.42 -13.9214 127.431 -15.5686 123.417L-8.43247 120.49C-6.87532 124.301 -5.13439 128.087 -3.26177 131.742L-10.1165 135.275ZM-3.68263 146.618C-1.38822 150.291 1.09511 153.914 3.70116 157.372L9.85262 152.726C7.37512 149.436 5.02632 146.004 2.84122 142.517L-3.68263 146.618ZM21.0642 176.788C17.9084 173.811 14.853 170.676 11.9635 167.449L17.693 162.295C20.4317 165.359 23.3363 168.332 26.3332 171.16L21.0642 176.788ZM261.78 118.44L268.958 121.27C270.549 117.249 271.972 113.093 273.195 108.943L265.812 106.729C264.642 110.673 263.279 114.61 261.78 118.44ZM41.4609 192.99C37.8518 190.589 34.3038 188.016 30.9269 185.325L35.7141 179.277C38.924 181.833 42.2968 184.285 45.7278 186.555L41.4609 192.99ZM250.847 140.624L257.446 144.625C259.681 140.92 261.782 137.072 263.696 133.191L256.787 129.763C254.964 133.453 252.966 137.106 250.847 140.624ZM64.2692 205.524C60.3196 203.763 56.3919 201.817 52.5958 199.741L56.2957 192.968C59.9004 194.953 63.6337 196.795 67.3808 198.467L64.2692 205.524ZM236.331 160.638L242.164 165.692C244.99 162.415 247.705 158.988 250.245 155.489L244.011 150.936C241.601 154.257 239.012 157.531 236.331 160.638ZM88.8689 214.03C84.6774 212.967 80.4827 211.714 76.3885 210.303L78.8984 203.001C82.785 204.349 86.7721 205.538 90.7477 206.551L88.8689 214.03ZM218.658 177.891L223.558 183.865C226.895 181.119 230.163 178.201 233.244 175.165L227.856 169.634C224.93 172.496 221.828 175.274 218.658 177.891ZM114.546 218.246C110.239 217.907 105.884 217.39 101.613 216.695L102.844 209.067C106.895 209.738 111.029 210.23 115.115 210.545L114.546 218.246ZM198.337 191.889L202.15 198.607C205.892 196.481 209.603 194.149 213.175 191.699L208.801 185.334C205.412 187.664 201.891 189.861 198.337 191.889ZM140.559 218.025C136.251 218.438 131.878 218.655 127.564 218.688L127.481 210.958C131.581 210.922 135.728 210.707 139.819 210.328L140.559 218.025ZM175.904 202.223L178.532 209.498C182.593 208.028 186.65 206.367 190.57 204.552L187.344 197.534C183.611 199.251 179.77 200.829 175.904 202.223ZM165.951 213.442L166.118 213.398L164.117 205.931L163.951 205.976C160.028 207.027 156.027 207.92 152.051 208.639L153.434 216.247C157.616 215.497 161.828 214.547 165.951 213.442Z" fill="#23DCC8"/>
<path d="M76.7939 -71.9574L76.5586 -71.8728L76.6431 -71.6378L76.8782 -71.722L76.7939 -71.9574ZM74.1768 -79.235L74.0921 -79.4703L73.857 -79.3856L73.9416 -79.1504L74.1768 -79.235ZM88.4945 -75.6301L88.4298 -75.8715L88.4291 -75.8714L88.4945 -75.6301ZM88.5834 -75.6539L88.6481 -75.4124L88.8896 -75.4771L88.8249 -75.7186L88.5834 -75.6539ZM86.5827 -83.1206L86.8242 -83.1853L86.7595 -83.4268L86.518 -83.362L86.5827 -83.1206ZM86.4938 -83.0967L86.4291 -83.3382L86.4285 -83.3381L86.4938 -83.0967ZM100.656 -78.3392L100.41 -78.2949L100.454 -78.049L100.7 -78.0931L100.656 -78.3392ZM112.897 -79.9948L112.92 -79.7458L113.169 -79.7688L113.146 -80.0179L112.897 -79.9948ZM99.2863 -85.9392L99.2425 -86.1853L98.9959 -86.1414L99.0403 -85.8949L99.2863 -85.9392ZM112.182 -87.6865L112.431 -87.7096L112.408 -87.9585L112.159 -87.9354L112.182 -87.6865ZM54.3514 -61.6559L54.1338 -61.5329L54.2572 -61.3145L54.4752 -61.4386L54.3514 -61.6559ZM50.5465 -68.3883L50.4232 -68.6058L50.2061 -68.4826L50.3289 -68.2653L50.5465 -68.3883ZM65.3479 -67.2899L65.4525 -67.0628L65.679 -67.1672L65.5752 -67.394L65.3479 -67.2899ZM62.1324 -74.3116L62.3597 -74.4157L62.2555 -74.6433L62.0281 -74.5388L62.1324 -74.3116ZM125.251 -80.6056L125.001 -80.6034L125.003 -80.3533L125.254 -80.3557L125.251 -80.6056ZM137.602 -80.1644L137.582 -79.9151L137.832 -79.8952L137.851 -80.1451L137.602 -80.1644ZM125.183 -88.3274L125.182 -88.5774L124.931 -88.5759L124.933 -88.3252L125.183 -88.3274ZM138.195 -87.8604L138.445 -87.8412L138.464 -88.0901L138.215 -88.1097L138.195 -87.8604ZM33.9966 -47.6974L33.8028 -47.5395L33.9613 -47.3449L34.1553 -47.5042L33.9966 -47.6974ZM29.1161 -53.6877L28.9578 -53.8812L28.7648 -53.7232L28.9223 -53.5298L29.1161 -53.6877ZM43.8734 -55.1097L44.0146 -54.9034L44.2206 -55.0444L44.0799 -55.2506L43.8734 -55.1097ZM39.5191 -61.4919L39.7257 -61.6328L39.5846 -61.8395L39.3781 -61.6983L39.5191 -61.4919ZM149.867 -78.6612L149.62 -78.7015L149.58 -78.4559L149.826 -78.4147L149.867 -78.6612ZM161.973 -76.1118L161.911 -75.8695L162.154 -75.8076L162.215 -76.0507L161.973 -76.1118ZM151.113 -86.2811L151.154 -86.5277L150.906 -86.5688L150.866 -86.3214L151.113 -86.2811ZM163.859 -83.6049L164.102 -83.5438L164.163 -83.7859L163.921 -83.8472L163.859 -83.6049ZM16.3031 -30.4745L16.1389 -30.2859L16.3283 -30.1211L16.4923 -30.3111L16.3031 -30.4745ZM10.4785 -35.5429L10.2895 -35.7066L10.1262 -35.5181L10.3144 -35.3544L10.4785 -35.5429ZM24.7818 -39.4591L24.956 -39.2798L25.1351 -39.4536L24.9615 -39.633L24.7818 -39.4591ZM19.4122 -45.0078L19.5919 -45.1817L19.4175 -45.3619L19.2379 -45.187L19.4122 -45.0078ZM173.822 -72.562L173.585 -72.6436L173.504 -72.408L173.74 -72.326L173.822 -72.562ZM185.323 -67.9994L185.222 -67.7709L185.45 -67.6693L185.552 -67.8982L185.323 -67.9994ZM176.343 -79.8667L176.425 -80.1028L176.188 -80.1854L176.107 -79.9483L176.343 -79.8667ZM188.454 -75.0733L188.683 -74.9721L188.783 -75.2001L188.556 -75.3016L188.454 -75.0733ZM1.75605 -10.4874L1.62598 -10.2739L1.84017 -10.1434L1.96997 -10.3581L1.75605 -10.4874ZM-4.83439 -14.5026L-5.04845 -14.6318L-5.17705 -14.4187L-4.96447 -14.2891L-4.83439 -14.5026ZM8.60684 -20.7917L8.80894 -20.6446L8.95572 -20.8461L8.75451 -20.9934L8.60684 -20.7917ZM2.38374 -25.3473L2.53142 -25.549L2.32963 -25.6967L2.18197 -25.4949L2.38374 -25.3473ZM196.4 -62.4869L196.181 -62.6072L196.061 -62.3887L196.279 -62.2681L196.4 -62.4869ZM206.974 -56.0513L206.835 -55.8433L207.044 -55.7043L207.182 -55.9129L206.974 -56.0513ZM200.114 -69.2512L200.235 -69.4701L200.016 -69.5912L199.895 -69.3715L200.114 -69.2512ZM211.252 -62.4889L211.46 -62.3506L211.599 -62.5587L211.39 -62.6971L211.252 -62.4889ZM-9.23041 11.675L-9.3226 11.9074L-9.08967 11.9998L-8.99781 11.7666L-9.23041 11.675ZM-16.4005 8.83038L-16.6331 8.7388L-16.7244 8.97081L-16.4927 9.06276L-16.4005 8.83038ZM-4.20866 0.36775L-3.98471 0.478879L-3.87393 0.255638L-4.09683 0.144157L-4.20866 0.36775ZM-11.1131 -3.08556L-11.0012 -3.30915L-11.2261 -3.42161L-11.3373 -3.19612L-11.1131 -3.08556ZM216.972 -48.7445L216.775 -48.8997L216.621 -48.7042L216.816 -48.549L216.972 -48.7445ZM226.316 -40.6298L226.144 -40.4481L226.326 -40.2761L226.498 -40.4583L226.316 -40.6298ZM221.759 -54.7931L221.914 -54.9887L221.718 -55.1448L221.563 -54.9482L221.759 -54.7931ZM231.602 -46.2387L231.784 -46.0672L231.955 -46.2487L231.774 -46.4201L231.602 -46.2387ZM-16.324 35.3863L-16.3757 35.6309L-16.1305 35.6827L-16.0793 35.4373L-16.324 35.3863ZM-23.8742 33.7902L-24.1188 33.7389L-24.17 33.9831L-23.9259 34.0348L-23.8742 33.7902ZM-13.2797 23.3667L-13.0404 23.4389L-12.9681 23.1995L-13.2076 23.1273L-13.2797 23.3667ZM-20.665 21.1411L-20.5929 20.9017L-20.8327 20.8295L-20.9045 21.0694L-20.665 21.1411ZM234.94 -31.7367L234.773 -31.9229L234.588 -31.7567L234.753 -31.5705L234.94 -31.7367ZM242.772 -22.1536L242.572 -22.0038L242.722 -21.8035L242.922 -21.9536L242.772 -22.1536ZM240.684 -36.8829L240.87 -37.049L240.704 -37.2366L240.517 -37.0691L240.684 -36.8829ZM248.941 -26.7807L249.091 -26.5807L249.291 -26.7305L249.141 -26.9304L248.941 -26.7807ZM-19.3021 59.9657L-19.3112 60.2155L-19.0613 60.2245L-19.0523 59.9747L-19.3021 59.9657ZM-26.9995 59.6871L-27.2494 59.6784L-27.258 59.9279L-27.0086 59.9369L-26.9995 59.6871ZM-18.3376 47.6075L-18.0895 47.6379L-18.0591 47.3897L-18.3072 47.3593L-18.3376 47.6075ZM-25.9851 46.6705L-25.9547 46.4224L-26.203 46.392L-26.2333 46.6403L-25.9851 46.6705ZM-25.6817 85.7192L-25.9294 85.7533L-25.8953 86.0007L-25.6479 85.9669L-25.6817 85.7192ZM-18.0409 84.6752L-18.0071 84.9229L-17.7594 84.8891L-17.7932 84.6414L-18.0409 84.6752ZM-26.8998 72.7276L-26.9121 72.4779L-27.1621 72.4902L-27.1495 72.7401L-26.8998 72.7276ZM-19.2 72.3486L-18.9503 72.336L-18.9628 72.0866L-19.2123 72.0989L-19.2 72.3486ZM-19.9866 111.152L-20.2252 111.227L-20.1502 111.466L-19.9115 111.39L-19.9866 111.152ZM-12.6389 108.837L-12.5637 109.075L-12.3264 109L-12.4001 108.763L-12.6389 108.837ZM-15.8459 96.8676L-15.6021 96.8125L-15.6571 96.5693L-15.9005 96.6237L-15.8459 96.8676ZM-23.3639 98.5476L-23.4185 98.3037L-23.6622 98.3581L-23.608 98.6019L-23.3639 98.5476ZM-15.5686 123.417L-15.6635 123.186L-15.8948 123.281L-15.7999 123.512L-15.5686 123.417ZM-10.1165 135.275L-10.3391 135.389L-10.2248 135.612L-10.002 135.497L-10.1165 135.275ZM-8.43247 120.49L-8.20104 120.396L-8.29573 120.164L-8.52735 120.259L-8.43247 120.49ZM-3.26177 131.742L-3.14724 131.964L-2.92555 131.85L-3.03927 131.628L-3.26177 131.742ZM3.70116 157.372L3.5015 157.523L3.65212 157.723L3.85184 157.572L3.70116 157.372ZM-3.68263 146.618L-3.81568 146.406L-4.02672 146.539L-3.89466 146.75L-3.68263 146.618ZM9.85262 152.726L10.0033 152.925L10.2025 152.775L10.0523 152.576L9.85262 152.726ZM2.84122 142.517L3.05308 142.384L2.92014 142.172L2.70817 142.305L2.84122 142.517ZM11.9635 167.449L11.7963 167.263L11.6109 167.43L11.7772 167.616L11.9635 167.449ZM21.0642 176.788L20.8927 176.97L21.0752 177.142L21.2467 176.959L21.0642 176.788ZM17.693 162.295L17.8794 162.128L17.7122 161.941L17.5258 162.109L17.693 162.295ZM26.3332 171.16L26.5157 171.331L26.6859 171.149L26.5048 170.978L26.3332 171.16ZM268.958 121.27L268.867 121.503L269.099 121.594L269.191 121.362L268.958 121.27ZM261.78 118.44L261.547 118.348L261.457 118.581L261.689 118.672L261.78 118.44ZM273.195 108.943L273.435 109.014L273.505 108.775L273.267 108.704L273.195 108.943ZM265.812 106.729L265.884 106.489L265.644 106.417L265.573 106.658L265.812 106.729ZM30.9269 185.325L30.7309 185.17L30.5762 185.365L30.7711 185.521L30.9269 185.325ZM41.4609 192.99L41.3224 193.198L41.5309 193.337L41.6693 193.128L41.4609 192.99ZM35.7141 179.277L35.8698 179.081L35.6736 178.925L35.518 179.121L35.7141 179.277ZM45.7278 186.555L45.9361 186.693L46.0744 186.485L45.8657 186.347L45.7278 186.555ZM257.446 144.625L257.316 144.838L257.53 144.968L257.66 144.754L257.446 144.625ZM250.847 140.624L250.633 140.495L250.504 140.708L250.718 140.837L250.847 140.624ZM263.696 133.191L263.92 133.302L264.031 133.078L263.807 132.967L263.696 133.191ZM256.787 129.763L256.898 129.539L256.673 129.428L256.563 129.652L256.787 129.763ZM52.5958 199.741L52.3764 199.621L52.2566 199.84L52.4759 199.96L52.5958 199.741ZM64.2692 205.524L64.1675 205.752L64.3967 205.854L64.498 205.624L64.2692 205.524ZM56.2957 192.968L56.4163 192.749L56.1966 192.629L56.0763 192.849L56.2957 192.968ZM67.3808 198.467L67.6096 198.568L67.71 198.34L67.4827 198.239L67.3808 198.467ZM242.164 165.692L242 165.881L242.19 166.045L242.353 165.856L242.164 165.692ZM236.331 160.638L236.142 160.475L235.979 160.664L236.168 160.827L236.331 160.638ZM250.245 155.489L250.447 155.635L250.593 155.434L250.392 155.287L250.245 155.489ZM244.011 150.936L244.158 150.734L243.955 150.586L243.808 150.789L244.011 150.936ZM76.3885 210.303L76.152 210.222L76.0708 210.458L76.307 210.539L76.3885 210.303ZM88.8689 214.03L88.8074 214.272L89.0503 214.334L89.1113 214.091L88.8689 214.03ZM78.8984 203.001L78.9803 202.765L78.7435 202.683L78.662 202.92L78.8984 203.001ZM90.7477 206.551L90.9902 206.612L91.0509 206.37L90.8094 206.309L90.7477 206.551ZM223.558 183.865L223.364 184.023L223.523 184.217L223.716 184.058L223.558 183.865ZM218.658 177.891L218.499 177.699L218.307 177.857L218.465 178.05L218.658 177.891ZM233.244 175.165L233.42 175.344L233.597 175.169L233.424 174.991L233.244 175.165ZM227.856 169.634L228.035 169.459L227.86 169.28L227.681 169.455L227.856 169.634ZM101.613 216.695L101.366 216.655L101.326 216.902L101.572 216.942L101.613 216.695ZM114.546 218.246L114.527 218.495L114.777 218.515L114.796 218.265L114.546 218.246ZM102.844 209.067L102.885 208.82L102.637 208.779L102.597 209.027L102.844 209.067ZM115.115 210.545L115.364 210.563L115.383 210.315L115.134 210.296L115.115 210.545ZM202.15 198.607L201.933 198.73L202.056 198.948L202.274 198.824L202.15 198.607ZM198.337 191.889L198.213 191.671L197.997 191.795L198.12 192.012L198.337 191.889ZM213.175 191.699L213.316 191.905L213.522 191.764L213.381 191.558L213.175 191.699ZM208.801 185.334L209.007 185.193L208.866 184.987L208.66 185.128L208.801 185.334ZM127.564 218.688L127.314 218.691L127.316 218.94L127.566 218.938L127.564 218.688ZM140.559 218.025L140.583 218.273L140.832 218.25L140.808 218.001L140.559 218.025ZM127.481 210.958L127.479 210.708L127.229 210.71L127.231 210.961L127.481 210.958ZM139.819 210.328L140.068 210.304L140.044 210.056L139.796 210.079L139.819 210.328ZM178.532 209.498L178.297 209.583L178.382 209.818L178.617 209.733L178.532 209.498ZM175.904 202.223L175.819 201.988L175.584 202.073L175.669 202.308L175.904 202.223ZM190.57 204.552L190.675 204.779L190.902 204.675L190.797 204.448L190.57 204.552ZM187.344 197.534L187.571 197.429L187.466 197.202L187.239 197.307L187.344 197.534ZM166.118 213.398L166.183 213.639L166.424 213.575L166.359 213.333L166.118 213.398ZM165.951 213.442L165.887 213.201L165.951 213.442ZM164.117 205.931L164.359 205.866L164.294 205.625L164.053 205.69L164.117 205.931ZM163.951 205.976L163.886 205.734L163.951 205.976ZM152.051 208.639L152.006 208.393L151.76 208.437L151.805 208.683L152.051 208.639ZM153.434 216.247L153.188 216.292L153.233 216.537L153.479 216.493L153.434 216.247ZM77.0291 -72.042L74.4121 -79.3196L73.9416 -79.1504L76.5586 -71.8728L77.0291 -72.042ZM88.4291 -75.8714C84.4808 -74.8014 80.5409 -73.5663 76.7095 -72.1927L76.8782 -71.722C80.6969 -73.0911 84.6242 -74.3223 88.5599 -75.3888L88.4291 -75.8714ZM88.5187 -75.8954L88.4298 -75.8715L88.5592 -75.3886L88.6481 -75.4124L88.5187 -75.8954ZM86.3412 -83.0559L88.3419 -75.5892L88.8249 -75.7186L86.8242 -83.1853L86.3412 -83.0559ZM86.5585 -82.8553L86.6474 -82.8791L86.518 -83.362L86.4291 -83.3382L86.5585 -82.8553ZM74.2615 -78.9998C78.2737 -80.4445 82.412 -81.7323 86.5592 -82.8554L86.4285 -83.3381C82.2693 -82.2117 78.1182 -80.9199 74.0921 -79.4703L74.2615 -78.9998ZM100.7 -78.0931C104.738 -78.8176 108.847 -79.37 112.92 -79.7458L112.874 -80.2437C108.787 -79.8666 104.665 -79.3123 100.612 -78.5853L100.7 -78.0931ZM99.0403 -85.8949L100.41 -78.2949L100.902 -78.3835L99.5324 -85.9836L99.0403 -85.8949ZM112.159 -87.9354C107.852 -87.5351 103.512 -86.9465 99.2425 -86.1853L99.3302 -85.6931C103.586 -86.4519 107.912 -87.0386 112.205 -87.4376L112.159 -87.9354ZM113.146 -80.0179L112.431 -87.7096L111.933 -87.6633L112.648 -79.9716L113.146 -80.0179ZM54.5691 -61.7789L50.7642 -68.5113L50.3289 -68.2653L54.1338 -61.5329L54.5691 -61.7789ZM65.2433 -67.517C61.516 -65.8004 57.7996 -63.9072 54.2277 -61.8731L54.4752 -61.4386C58.0336 -63.4651 61.7371 -65.3517 65.4525 -67.0628L65.2433 -67.517ZM61.9051 -74.2075L65.1206 -67.1858L65.5752 -67.394L62.3597 -74.4157L61.9051 -74.2075ZM50.6699 -68.1708C54.4166 -70.2957 58.3083 -72.2805 62.2368 -74.0844L62.0281 -74.5388C58.0872 -72.7292 54.1828 -70.7379 50.4232 -68.6058L50.6699 -68.1708ZM125.254 -80.3557C129.357 -80.394 133.5 -80.2403 137.582 -79.9151L137.621 -80.4136C133.525 -80.7398 129.367 -80.8941 125.249 -80.8556L125.254 -80.3557ZM124.933 -88.3252L125.001 -80.6034L125.501 -80.6078L125.433 -88.3296L124.933 -88.3252ZM138.215 -88.1097C133.901 -88.4492 129.517 -88.6026 125.182 -88.5774L125.185 -88.0774C129.506 -88.1025 133.876 -87.9496 138.176 -87.6112L138.215 -88.1097ZM137.851 -80.1451L138.445 -87.8412L137.946 -87.8797L137.352 -80.1836L137.851 -80.1451ZM34.1904 -47.8553L29.3099 -53.8456L28.9223 -53.5298L33.8028 -47.5395L34.1904 -47.8553ZM43.7321 -55.316C40.3447 -52.9964 37.0163 -50.5012 33.8379 -47.8906L34.1553 -47.5042C37.3222 -50.1055 40.639 -52.5919 44.0146 -54.9034L43.7321 -55.316ZM39.3126 -61.351L43.6669 -54.9688L44.0799 -55.2506L39.7257 -61.6328L39.3126 -61.351ZM29.2745 -53.4943C32.6099 -56.2245 36.1029 -58.8538 39.6602 -61.2855L39.3781 -61.6983C35.8082 -59.258 32.3037 -56.62 28.9578 -53.8812L29.2745 -53.4943ZM149.826 -78.4147C153.873 -77.7341 157.942 -76.8808 161.911 -75.8695L162.034 -76.354C158.052 -77.3689 153.969 -78.225 149.909 -78.9077L149.826 -78.4147ZM150.866 -86.3214L149.62 -78.7015L150.114 -78.6209L151.359 -86.2407L150.866 -86.3214ZM163.921 -83.8472C159.723 -84.9116 155.424 -85.8175 151.154 -86.5277L151.072 -86.0345C155.328 -85.3266 159.613 -84.4236 163.798 -83.3625L163.921 -83.8472ZM162.215 -76.0507L164.102 -83.5438L163.617 -83.6659L161.73 -76.1728L162.215 -76.0507ZM16.4672 -30.6631L10.6426 -35.7315L10.3144 -35.3544L16.1389 -30.2859L16.4672 -30.6631ZM24.6077 -39.6385C21.6631 -36.7795 18.7997 -33.7508 16.1138 -30.6378L16.4923 -30.3111C19.1684 -33.4127 22.0217 -36.4307 24.956 -39.2798L24.6077 -39.6385ZM19.2326 -44.834L24.6022 -39.2853L24.9615 -39.633L19.5919 -45.1817L19.2326 -44.834ZM10.6675 -35.3793C13.4917 -38.6402 16.4931 -41.8175 19.5866 -44.8287L19.2379 -45.187C16.1344 -42.166 13.1232 -38.9784 10.2895 -35.7066L10.6675 -35.3793ZM173.74 -72.326C177.608 -70.9779 181.469 -69.4369 185.222 -67.7709L185.425 -68.2279C181.661 -69.899 177.787 -71.4452 173.904 -72.7981L173.74 -72.326ZM176.107 -79.9483L173.585 -72.6436L174.058 -72.4805L176.579 -79.7852L176.107 -79.9483ZM188.556 -75.3016C184.599 -77.0652 180.518 -78.6752 176.425 -80.1028L176.261 -79.6307C180.34 -78.2075 184.409 -76.6026 188.352 -74.8449L188.556 -75.3016ZM185.552 -67.8982L188.683 -74.9721L188.225 -75.1744L185.095 -68.1005L185.552 -67.8982ZM1.88613 -10.7009L-4.70432 -14.7161L-4.96447 -14.2891L1.62598 -10.2739L1.88613 -10.7009ZM8.40474 -20.9389C5.98014 -17.609 3.67535 -14.1438 1.54214 -10.6168L1.96997 -10.3581C4.09577 -13.8728 6.39266 -17.3262 8.80894 -20.6446L8.40474 -20.9389ZM2.23607 -25.1456L8.45916 -20.59L8.75451 -20.9934L2.53142 -25.549L2.23607 -25.1456ZM-4.62034 -14.3735C-2.38901 -18.0716 0.0356002 -21.7143 2.58551 -25.1997L2.18197 -25.4949C-0.376666 -21.9976 -2.80948 -18.3426 -5.04845 -14.6318L-4.62034 -14.3735ZM196.279 -62.2681C199.867 -60.2841 203.418 -58.1234 206.835 -55.8433L207.113 -56.2592C203.684 -58.547 200.121 -60.7149 196.521 -62.7056L196.279 -62.2681ZM199.895 -69.3715L196.181 -62.6072L196.619 -62.3666L200.333 -69.1309L199.895 -69.3715ZM211.39 -62.6971C207.776 -65.1022 204.029 -67.3762 200.235 -69.4701L199.993 -69.0323C203.775 -66.9451 207.51 -64.6782 211.114 -62.2808L211.39 -62.6971ZM207.182 -55.9129L211.46 -62.3506L211.044 -62.6273L206.766 -56.1896L207.182 -55.9129ZM-9.13822 11.4426L-16.3083 8.598L-16.4927 9.06276L-9.3226 11.9074L-9.13822 11.4426ZM-4.4326 0.256622C-6.26106 3.94124 -7.95041 7.74408 -9.46301 11.5833L-8.99781 11.7666C-7.49043 7.94059 -5.80685 4.15076 -3.98471 0.478879L-4.4326 0.256622ZM-11.2249 -2.86196L-4.32049 0.591344L-4.09683 0.144157L-11.0012 -3.30915L-11.2249 -2.86196ZM-16.1679 8.92195C-14.5832 4.8963 -12.7999 0.900433 -10.8888 -2.97499L-11.3373 -3.19612C-13.254 0.690754 -15.0429 4.6993 -16.6331 8.7388L-16.1679 8.92195ZM216.816 -48.549C220.02 -45.9974 223.166 -43.2632 226.144 -40.4481L226.488 -40.8114C223.5 -43.6361 220.343 -46.3796 217.127 -48.9401L216.816 -48.549ZM221.563 -54.9482L216.775 -48.8997L217.168 -48.5894L221.955 -54.6379L221.563 -54.9482ZM231.774 -46.4201C228.624 -49.4046 225.311 -52.2856 221.914 -54.9887L221.603 -54.5975C224.988 -51.9034 228.291 -49.0319 231.43 -46.0572L231.774 -46.4201ZM226.498 -40.4583L231.784 -46.0672L231.42 -46.4101L226.134 -40.8012L226.498 -40.4583ZM-16.2723 35.1417L-23.8225 33.5456L-23.9259 34.0348L-16.3757 35.6309L-16.2723 35.1417ZM-13.519 23.2944C-14.7138 27.2527 -15.7278 31.3055 -16.5687 35.3352L-16.0793 35.4373C-15.241 31.4205 -14.2306 27.3819 -13.0404 23.4389L-13.519 23.2944ZM-20.7372 21.3805L-13.3518 23.606L-13.2076 23.1273L-20.5929 20.9017L-20.7372 21.3805ZM-23.6295 33.8415C-22.7421 29.6086 -21.6682 25.3617 -20.4255 21.2128L-20.9045 21.0694C-22.1513 25.2321 -23.2286 29.4926 -24.1188 33.7389L-23.6295 33.8415ZM234.753 -31.5705C237.476 -28.5082 240.11 -25.2908 242.572 -22.0038L242.972 -22.3035C240.502 -25.602 237.859 -28.8302 235.127 -31.9028L234.753 -31.5705ZM240.517 -37.0691L234.773 -31.9229L235.107 -31.5505L240.85 -36.6967L240.517 -37.0691ZM249.141 -26.9304C246.539 -30.4088 243.756 -33.8027 240.87 -37.049L240.497 -36.7168C243.374 -33.4805 246.147 -30.0975 248.741 -26.6309L249.141 -26.9304ZM242.922 -21.9536L249.091 -26.5807L248.791 -26.9806L242.622 -22.3536L242.922 -21.9536ZM-19.2931 59.7158L-26.9905 59.4372L-27.0086 59.9369L-19.3112 60.2155L-19.2931 59.7158ZM-18.5857 47.5771C-19.0874 51.6725 -19.4031 55.8372 -19.552 59.9566L-19.0523 59.9747C-18.904 55.8684 -18.5892 51.718 -18.0895 47.6379L-18.5857 47.5771ZM-26.0155 46.9187L-18.368 47.8556L-18.3072 47.3593L-25.9547 46.4224L-26.0155 46.9187ZM-26.7497 59.6957C-26.5995 55.3745 -26.2608 51.0027 -25.7369 46.7007L-26.2333 46.6403C-26.7589 50.9568 -27.0987 55.3429 -27.2494 59.6784L-26.7497 59.6957ZM-25.6479 85.9669L-18.0071 84.9229L-18.0748 84.4275L-25.7156 85.4715L-25.6479 85.9669ZM-27.1495 72.7401C-26.9311 77.0725 -26.5219 81.4493 -25.9294 85.7533L-25.434 85.6851C-26.0246 81.3955 -26.4325 77.033 -26.6501 72.715L-27.1495 72.7401ZM-19.2123 72.0989L-26.9121 72.4779L-26.8875 72.9773L-19.1877 72.5983L-19.2123 72.0989ZM-17.7932 84.6414C-18.3494 80.569 -18.7449 76.4301 -18.9503 72.336L-19.4497 72.3611C-19.2436 76.4702 -18.8466 80.6233 -18.2886 84.7091L-17.7932 84.6414ZM-19.7481 111.077C-20.3973 109.009 -21.0141 106.885 -21.5776 104.782L-22.0606 104.911C-21.4953 107.021 -20.8765 109.152 -20.2252 111.227L-19.7481 111.077ZM-12.714 108.598L-20.0618 110.913L-19.9115 111.39L-12.5637 109.075L-12.714 108.598ZM-14.6151 102.916C-14.0796 104.915 -13.4908 106.934 -12.8776 108.911L-12.4001 108.763C-13.0116 106.791 -13.5986 104.778 -14.1321 102.787L-14.6151 102.916ZM-16.0898 96.9228C-15.6384 98.9189 -15.1476 100.929 -14.6151 102.916L-14.1321 102.787C-14.6627 100.807 -15.152 98.8031 -15.6021 96.8125L-16.0898 96.9228ZM-23.3094 98.7916L-15.7914 97.1116L-15.9005 96.6237L-23.4185 98.3037L-23.3094 98.7916ZM-21.5776 104.782C-22.1351 102.701 -22.6542 100.586 -23.1199 98.4933L-23.608 98.6019C-23.1407 100.702 -22.6199 102.824 -22.0606 104.911L-21.5776 104.782ZM-15.7999 123.512C-14.1501 127.533 -12.3161 131.528 -10.3391 135.389L-9.89402 135.161C-11.8646 131.312 -13.6927 127.33 -15.3373 123.323L-15.7999 123.512ZM-8.52735 120.259L-15.6635 123.186L-15.4737 123.649L-8.33759 120.721L-8.52735 120.259ZM-3.03927 131.628C-4.90866 127.979 -6.6466 124.2 -8.20104 120.396L-8.6639 120.585C-7.10403 124.402 -5.36012 128.195 -3.48427 131.856L-3.03927 131.628ZM-10.002 135.497L-3.14724 131.964L-3.3763 131.52L-10.2311 135.052L-10.002 135.497ZM3.90082 157.222C1.29927 153.769 -1.17994 150.153 -3.47059 146.486L-3.89466 146.75C-1.59649 150.43 0.890947 154.058 3.5015 157.523L3.90082 157.222ZM9.70195 152.526L3.55048 157.173L3.85184 157.572L10.0033 152.925L9.70195 152.526ZM2.62937 142.65C4.81805 146.143 7.17088 149.581 9.65292 152.876L10.0523 152.576C7.57936 149.292 5.23459 145.866 3.05308 142.384L2.62937 142.65ZM-3.54958 146.83L2.97428 142.728L2.70817 142.305L-3.81568 146.406L-3.54958 146.83ZM11.7772 167.616C14.6714 170.848 17.7317 173.988 20.8927 176.97L21.2358 176.606C18.085 173.634 15.0345 170.504 12.1497 167.282L11.7772 167.616ZM17.5258 162.109L11.7963 167.263L12.1307 167.635L17.8602 162.481L17.5258 162.109ZM26.5048 170.978C23.5128 168.154 20.6131 165.187 17.8794 162.128L17.5066 162.461C20.2502 165.531 23.1598 168.509 26.1617 171.341L26.5048 170.978ZM21.2467 176.959L26.5157 171.331L26.1507 170.989L20.8817 176.617L21.2467 176.959ZM269.05 121.038L261.872 118.207L261.689 118.672L268.867 121.503L269.05 121.038ZM272.955 108.872C271.735 113.015 270.314 117.164 268.726 121.178L269.191 121.362C270.784 117.333 272.21 113.17 273.435 109.014L272.955 108.872ZM265.741 106.968L273.123 109.182L273.267 108.704L265.884 106.489L265.741 106.968ZM262.013 118.531C263.514 114.695 264.88 110.752 266.052 106.8L265.573 106.658C264.405 110.595 263.044 114.525 261.547 118.348L262.013 118.531ZM30.7711 185.521C34.154 188.216 37.7077 190.793 41.3224 193.198L41.5994 192.782C37.9958 190.384 34.4537 187.815 31.0827 185.13L30.7711 185.521ZM35.518 179.121L30.7309 185.17L31.1229 185.48L35.9101 179.432L35.518 179.121ZM45.8657 186.347C42.4408 184.081 39.074 181.633 35.8698 179.081L35.5583 179.472C38.7739 182.033 42.1527 184.49 45.5898 186.764L45.8657 186.347ZM41.6693 193.128L45.9361 186.693L45.5194 186.417L41.2526 192.852L41.6693 193.128ZM257.575 144.411L250.977 140.41L250.718 140.837L257.316 144.838L257.575 144.411ZM263.472 133.081C261.561 136.956 259.463 140.797 257.232 144.495L257.66 144.754C259.899 141.043 262.004 137.189 263.92 133.302L263.472 133.081ZM256.676 129.987L263.585 133.415L263.807 132.967L256.898 129.539L256.676 129.987ZM251.061 140.753C253.183 137.229 255.185 133.57 257.011 129.874L256.563 129.652C254.743 133.336 252.748 136.983 250.633 140.495L251.061 140.753ZM52.4759 199.96C56.2778 202.04 60.2117 203.989 64.1675 205.752L64.371 205.295C60.4276 203.537 56.5059 201.595 52.7158 199.522L52.4759 199.96ZM56.0763 192.849L52.3764 199.621L52.8152 199.861L56.5151 193.088L56.0763 192.849ZM67.4827 198.239C63.7415 196.57 60.0144 194.73 56.4163 192.749L56.1752 193.187C59.7863 195.175 63.526 197.021 67.279 198.695L67.4827 198.239ZM64.498 205.624L67.6096 198.568L67.1521 198.366L64.0405 205.423L64.498 205.624ZM242.328 165.504L236.495 160.449L236.168 160.827L242 165.881L242.328 165.504ZM250.042 155.342C247.506 158.836 244.796 162.257 241.975 165.529L242.353 165.856C245.184 162.573 247.903 159.141 250.447 155.635L250.042 155.342ZM243.863 151.138L250.097 155.691L250.392 155.287L244.158 150.734L243.863 151.138ZM236.521 160.801C239.206 157.689 241.8 154.41 244.213 151.083L243.808 150.789C241.403 154.105 238.818 157.373 236.142 160.475L236.521 160.801ZM76.307 210.539C80.4078 211.953 84.6092 213.208 88.8074 214.272L88.9303 213.788C84.7457 212.727 80.5576 211.476 76.4699 210.067L76.307 210.539ZM78.662 202.92L76.152 210.222L76.6249 210.384L79.1348 203.083L78.662 202.92ZM90.8094 206.309C86.8403 205.297 82.86 204.11 78.9803 202.765L78.8165 203.237C82.71 204.587 86.7038 205.779 90.686 206.793L90.8094 206.309ZM89.1113 214.091L90.9902 206.612L90.5052 206.49L88.6264 213.969L89.1113 214.091ZM223.751 183.706L218.851 177.733L218.465 178.05L223.364 184.023L223.751 183.706ZM233.069 174.987C229.993 178.017 226.731 180.93 223.399 183.672L223.716 184.058C227.059 181.308 230.333 178.385 233.42 175.344L233.069 174.987ZM227.677 169.808L233.065 175.34L233.424 174.991L228.035 169.459L227.677 169.808ZM218.817 178.084C221.992 175.463 225.1 172.68 228.03 169.813L227.681 169.455C224.761 172.312 221.663 175.086 218.499 177.699L218.817 178.084ZM101.572 216.942C105.851 217.638 110.213 218.156 114.527 218.495L114.566 217.997C110.265 217.658 105.917 217.142 101.653 216.448L101.572 216.942ZM102.597 209.027L101.366 216.655L101.859 216.735L103.091 209.107L102.597 209.027ZM115.134 210.296C111.055 209.982 106.928 209.49 102.885 208.82L102.803 209.314C106.861 209.985 111.003 210.479 115.096 210.794L115.134 210.296ZM114.796 218.265L115.364 210.563L114.866 210.526L114.297 218.228L114.796 218.265ZM202.368 198.483L198.555 191.765L198.12 192.012L201.933 198.73L202.368 198.483ZM213.033 191.493C209.467 193.939 205.762 196.268 202.027 198.389L202.274 198.824C206.022 196.695 209.739 194.359 213.316 191.905L213.033 191.493ZM208.595 185.476L212.969 191.841L213.381 191.558L209.007 185.193L208.595 185.476ZM198.461 192.106C202.021 190.075 205.547 187.874 208.943 185.54L208.66 185.128C205.276 187.454 201.762 189.647 198.213 191.671L198.461 192.106ZM127.566 218.938C131.887 218.904 136.267 218.688 140.583 218.273L140.535 217.776C136.235 218.189 131.869 218.405 127.562 218.438L127.566 218.938ZM127.231 210.961L127.314 218.691L127.814 218.685L127.731 210.955L127.231 210.961ZM139.796 210.079C135.711 210.458 131.572 210.673 127.479 210.708L127.484 211.208C131.59 211.172 135.744 210.957 139.842 210.577L139.796 210.079ZM140.808 218.001L140.068 210.304L139.57 210.352L140.31 218.049L140.808 218.001ZM178.767 209.413L176.139 202.139L175.669 202.308L178.297 209.583L178.767 209.413ZM190.465 204.326C186.552 206.137 182.501 207.795 178.447 209.263L178.617 209.733C182.684 208.261 186.748 206.597 190.675 204.779L190.465 204.326ZM187.117 197.638L190.343 204.657L190.797 204.448L187.571 197.429L187.117 197.638ZM175.989 202.459C179.862 201.062 183.71 199.481 187.448 197.761L187.239 197.307C183.513 199.021 179.679 200.596 175.819 201.988L175.989 202.459ZM166.053 213.156L165.887 213.201L166.016 213.684L166.183 213.639L166.053 213.156ZM163.876 205.996L165.876 213.463L166.359 213.333L164.359 205.866L163.876 205.996ZM164.015 206.217L164.182 206.173L164.053 205.69L163.886 205.734L164.015 206.217ZM152.095 208.885C156.078 208.165 160.086 207.27 164.015 206.217L163.886 205.734C159.97 206.784 155.976 207.675 152.006 208.393L152.095 208.885ZM153.68 216.202L152.297 208.594L151.805 208.683L153.188 216.292L153.68 216.202ZM165.887 213.201C161.77 214.304 157.565 215.252 153.39 216.001L153.479 216.493C157.668 215.741 161.887 214.79 166.016 213.684L165.887 213.201Z" fill="#23DCC8"/>
<path d="M185.851 86.4673L196.148 78.5319" stroke="#23DCC8" stroke-width="0.5"/>
<path d="M182.851 83.4673L193.148 75.5319" stroke="#23DCC8" stroke-width="0.5"/>
<path d="M179.851 79.4673L190.148 71.5319" stroke="#23DCC8" stroke-width="0.5"/>
<path d="M177.851 75.4673L188.148 67.5319" stroke="#23DCC8" stroke-width="0.5"/>
<path d="M174.852 72.4673L185.149 64.5319" stroke="#23DCC8" stroke-width="0.5"/>
<path d="M170.852 69.4673L181.149 61.5319" stroke="#23DCC8" stroke-width="0.5"/>
<path d="M167.427 65.7083L178.244 57.4717L206.907 93.273" stroke="#23DCC8" stroke-width="0.5"/>
<path d="M187.851 90.4673L198.148 82.5319" stroke="#23DCC8" stroke-width="0.5"/>
<path d="M123.505 34.9057C122.631 34.6856 122.096 33.792 122.325 32.9268L123.249 29.4519C123.478 28.5866 124.387 28.0519 125.261 28.272L128.495 29.0949C129.369 29.315 129.904 30.2086 129.675 31.0738L128.751 34.5487C128.522 35.414 127.613 35.9487 126.739 35.7286L123.505 34.9057Z" fill="#23DCC8"/>
<path d="M125.505 26.9057C124.631 26.6856 124.096 25.792 124.325 24.9268L125.249 21.4519C125.478 20.5866 126.387 20.0519 127.261 20.272L130.495 21.0949C131.369 21.315 131.904 22.2086 131.675 23.0738L130.751 26.5487C130.522 27.414 129.613 27.9487 128.739 27.7286L125.505 26.9057Z" fill="#23DCC8"/>
<path d="M109.326 14.8165C108.655 14.6941 108.27 14.1121 108.474 13.5235L109.775 9.78932C109.979 9.20068 110.695 8.81721 111.367 8.93958L112.673 9.18394C113.345 9.30631 113.73 9.88834 113.526 10.477L112.225 14.2111C112.021 14.7998 111.305 15.1832 110.633 15.0609L109.326 14.8165Z" fill="#23DCC8"/>
<path d="M116.198 41.2905L122.802 15.7096" stroke="#23DCC8" stroke-width="0.5"/>
<path d="M113.505 43.9057C112.631 43.6856 112.096 42.792 112.325 41.9268L113.249 38.4519C113.478 37.5866 114.387 37.0519 115.261 37.272L118.495 38.0949C119.369 38.315 119.904 39.2086 119.675 40.0738L118.751 43.5487C118.522 44.414 117.613 44.9487 116.739 44.7286L113.505 43.9057Z" fill="#23DCC8"/>
<path d="M111.948 29.7964L116.052 14.2029" stroke="#23DCC8" stroke-width="0.5"/>
<path d="M111.846 33.828C111.151 33.5705 110.697 32.6808 110.829 31.8564L111.95 24.934C112.081 24.1096 112.762 23.6558 113.458 23.9133L114.153 24.1709C114.849 24.4285 115.303 25.3181 115.171 26.1425L114.05 33.0649C113.919 33.8894 113.238 34.3432 112.542 34.0856L111.846 33.828Z" fill="#23DCC8"/>
<path d="M123.286 18.172L116.714 16.8271" stroke="#23DCC8" stroke-width="0.5"/>
<path d="M121.286 22.172L114.714 20.8271" stroke="#23DCC8" stroke-width="0.5"/>
<path d="M133.123 17.9488C132.318 17.738 131.841 16.9292 132.052 16.1234C132.262 15.3175 133.071 14.8406 133.877 15.0514C134.683 15.2622 135.16 16.0711 134.949 16.8769C134.748 17.6801 133.929 18.1596 133.123 17.9488Z" fill="#23DCC8"/>
<path d="M128.125 15.9548C127.319 15.7431 126.842 14.9323 127.052 14.125C127.262 13.3176 128.071 12.8402 128.877 13.0518C129.683 13.2635 130.161 14.0743 129.95 14.8816C129.737 15.6793 128.919 16.1593 128.125 15.9548Z" fill="#23DCC8"/>
<path d="M123.123 14.9488C122.318 14.738 121.841 13.9292 122.052 13.1234C122.262 12.3175 123.071 11.8406 123.877 12.0514C124.683 12.2622 125.16 13.0711 124.949 13.8769C124.748 14.6801 123.929 15.1596 123.123 14.9488Z" fill="#23DCC8"/>
<path d="M118.125 12.9548C117.319 12.7431 116.842 11.9323 117.052 11.125C117.262 10.3176 118.071 9.84017 118.877 10.0518C119.683 10.2635 120.161 11.0743 119.95 11.8816C119.737 12.6793 118.919 13.1593 118.125 12.9548Z" fill="#23DCC8"/>
<path d="M137.271 83.3612C136.798 82.6851 136.963 81.7442 137.639 81.2711C138.315 80.798 139.256 80.963 139.729 81.6391C140.202 82.3151 140.037 83.256 139.361 83.7291C138.675 84.2048 137.744 84.0373 137.271 83.3612Z" fill="#23DCC8"/>
<path d="M134.271 79.3612C133.798 78.6851 133.963 77.7442 134.639 77.2711C135.315 76.798 136.256 76.963 136.729 77.6391C137.202 78.3151 137.037 79.256 136.361 79.7291C135.685 80.2022 134.744 80.0373 134.271 79.3612Z" fill="#23DCC8"/>
<path d="M131.271 74.3604C130.798 73.6847 130.963 72.7441 131.639 72.2711C132.315 71.7981 133.256 71.9629 133.729 72.6387C134.202 73.3145 134.037 74.2551 133.361 74.7281C132.685 75.2011 131.747 75.046 131.271 74.3604Z" fill="#23DCC8"/>
<path d="M128.27 70.3578C127.798 69.683 127.963 68.7436 128.639 68.271C129.315 67.7983 130.256 67.9626 130.729 68.6374C131.202 69.3122 131.036 70.2516 130.36 70.7243C129.686 71.2066 128.746 71.0423 128.27 70.3578Z" fill="#23DCC8"/>
<path d="M148.667 96.5656L142.688 101.375C140.475 103.163 137.239 102.579 135.496 100.083C133.742 97.5887 134.124 94.0956 136.34 92.3188L142.529 87.343" stroke="#23DCC8" stroke-width="0.5"/>
<path d="M84.2511 55.6398L59.3455 62.542C50.1065 65.1019 40.4478 59.456 37.8193 49.9522C35.1908 40.4483 40.5654 30.6298 49.8044 28.07L75.5916 20.9196" stroke="#23DCC8" stroke-width="0.5"/>
<path d="M119.416 59.0873C120.471 58.7655 121.591 59.3608 121.913 60.4162C122.234 61.4717 121.639 62.5913 120.584 62.913C119.528 63.2348 118.409 62.6395 118.087 61.5841C117.765 60.5286 118.36 59.409 119.416 59.0873Z" fill="#23DCC8"/>
<path d="M127.416 74.0873C128.471 73.7655 129.591 74.3608 129.913 75.4162C130.234 76.4717 129.639 77.5913 128.584 77.913C127.528 78.2348 126.409 77.6395 126.087 76.5841C125.765 75.5286 126.36 74.409 127.416 74.0873Z" fill="#23DCC8"/>
<path d="M105.416 9.08728C106.471 8.76554 107.591 9.36075 107.913 10.4162C108.234 11.4717 107.639 12.5913 106.584 12.913C105.528 13.2348 104.409 12.6396 104.087 11.5841C103.765 10.5286 104.372 9.40578 105.416 9.08728Z" fill="#23DCC8"/>
<path d="M107.416 18.0873C108.471 17.7655 109.591 18.3608 109.913 19.4162C110.234 20.4717 109.639 21.5913 108.584 21.913C107.528 22.2348 106.409 21.6395 106.087 20.5841C105.765 19.5286 106.36 18.409 107.416 18.0873Z" fill="#23DCC8"/>
<path d="M61.7381 7.71042C57.8015 10.5854 54.6122 13.6433 53.2296 17.199L65.7822 13.3685L62.8484 2.4195C51.0187 9.75643 48.6335 19.0053 48.6335 19.0053L50.3787 20.0824L68.5741 15.207L63.8411 -2.45672C46.6566 7.94355 44.7837 22.2042 44.7837 22.2042L47.4866 23.7552L71.8032 17.2396L64.9028 -8.51298C42.2578 6.84703 40.5193 24.8437 40.5193 24.8437L45.1852 27.5212L76.2745 19.1908L86.1865 56.1829L84.9286 56.5199" stroke="#23DCC8" stroke-width="0.5"/>
<path d="M125.12 31.5106L127.879 22.4891" stroke="#23DCC8" stroke-width="0.5"/>
<path d="M124.052 44.2029L119.948 59.7964" stroke="#23DCC8" stroke-width="0.5"/>
<path d="M128.032 76.0488L137.968 89.9507" stroke="#23DCC8" stroke-width="0.5"/>
<path d="M108.827 20.2858L110.172 13.7138" stroke="#23DCC8" stroke-width="0.5"/>
<path d="M192.408 45.58C193.189 46.358 193.204 47.6271 192.424 48.4076C191.645 49.1881 190.374 49.2038 189.593 48.4257C188.812 47.6477 188.797 46.3786 189.577 45.5981C190.353 44.8055 191.615 44.8052 192.408 45.58Z" fill="#23DCC8"/>
<path d="M190.557 38.4352C191.144 39.0206 191.151 39.97 190.565 40.5568C189.98 41.1436 189.043 41.1472 188.444 40.565C187.857 39.9796 187.85 39.0303 188.435 38.4434C189.021 37.8566 189.97 37.8498 190.557 38.4352Z" fill="#23DCC8"/>
<path d="M31.1204 35.7204C30.8185 36.6346 29.7979 37.1443 28.878 36.8436L27.3639 36.3663C26.4353 36.0803 25.9269 35.0848 26.2438 34.1791L26.8795 32.28C27.1813 31.3659 28.202 30.8561 29.1219 31.1568L30.6359 31.6342C31.5645 31.9201 32.0729 32.9156 31.7561 33.8214L31.1204 35.7204Z" fill="#23DCC8"/>
<path d="M33.9396 25.5128C34.2131 26.5818 33.5561 27.6665 32.4871 27.94C31.4181 28.2135 30.3367 27.5686 30.0599 26.4875C29.7865 25.4185 30.4434 24.3338 31.5125 24.0603C32.5847 23.799 33.6662 24.4438 33.9396 25.5128Z" fill="#23DCC8"/>
<path d="M36.9538 19.1303C37.1578 19.9404 36.668 20.753 35.87 20.9537C35.0599 21.1577 34.2473 20.6679 34.0466 19.87C33.8426 19.0598 34.3324 18.2472 35.1304 18.0465C35.9372 17.8303 36.7499 18.3201 36.9538 19.1303Z" fill="#23DCC8"/>
<path d="M49.0696 49.3126C48.3971 49.4821 47.7163 49.1105 47.5591 48.4814L46.68 44.988C46.5229 44.3589 46.94 43.7038 47.6125 43.5343L50.9302 42.6879C51.6028 42.5183 52.2836 42.8899 52.4407 43.519L53.3198 47.0124C53.477 47.6415 53.0599 48.2966 52.3873 48.4662L49.0696 49.3126Z" fill="#23DCC8"/>
<path d="M28.9077 72.6289C29.0887 73.345 28.7006 74.0725 28.0327 74.2397L22.6769 75.5689C22.0191 75.7334 21.3263 75.2838 21.1423 74.5567L21.0923 74.3702C20.9112 73.6541 21.2994 72.9266 21.9672 72.7594L27.3231 71.4302C27.9809 71.2657 28.6736 71.7153 28.8577 72.4424L28.9077 72.6289Z" fill="#23DCC8"/>
<path d="M161.602 56.1865L171.183 58.0728L180.023 52.4291L199.28 78.1843L203.828 74.683" stroke="#23DCC8" stroke-width="0.5"/>
<path d="M168.574 22.4915L175.854 23.7382L177.775 13.5843L169.042 11.9131L162.382 -12.9423L133.622 -19.8304L131.814 -26.5781" stroke="#23DCC8" stroke-width="0.5"/>
<path d="M135.842 -24.1582C135.842 -24.1582 202.497 -19.2857 212.69 44.2842" stroke="#23DCC8" stroke-width="0.5"/>
<path fill-rule="evenodd" clip-rule="evenodd" d="M193.448 54.795L191.812 47.6855L189.552 37.2039L193.448 54.795Z" stroke="#23DCC8" stroke-width="0.5"/>
<path d="M192.181 55.1318L196.293 69.012L179.903 48.0195L173.422 49.7562L162.707 47.9883" stroke="#23DCC8" stroke-width="0.5"/>
<path d="M164.58 40.5637L184.001 44.655L188.688 13.147C188.688 13.147 200.645 23.598 203.374 50.9574L210.659 57.9883L198.997 61.1133" stroke="#23DCC8" stroke-width="0.5"/>
<path d="M244.589 102.578C242.218 108.723 238.454 117.37 238.419 117.463C223.234 151.918 193.92 177.201 157.99 186.828C92.2048 204.456 24.0702 164.283 6.11588 97.2768C-9.08012 40.5646 16.9175 -19.834 67.9387 -46.5106L74.9376 -20.3906L75.4937 -20.5397L68.3066 -47.3623L67.9939 -47.1948C43.2068 -34.3373 23.2598 -12.9388 11.8499 13.0455C0.275919 39.3964 -1.95912 69.3653 5.55969 97.4258C23.5977 164.744 92.0427 205.097 158.14 187.386C194.236 177.714 223.686 152.311 238.935 117.696C238.972 117.614 242.744 108.953 245.112 102.796L244.589 102.578Z" fill="#23DCC8"/>
<rect x="64.1089" y="30.8291" width="14" height="1" transform="rotate(-15 64.1089 30.8291)" fill="#23DCC8"/>
<path d="M117.193 77.4904L119.325 76.9075L127.245 105.659L124.915 106.307L125.063 106.86L127.955 106.061L119.735 76.1937L117.045 76.9381L117.193 77.4904Z" fill="#23DCC8"/>
<path d="M68.4159 51.0873C69.4714 50.7655 70.5909 51.3608 70.9127 52.4162C71.2344 53.4717 70.6392 54.5913 69.5837 54.913C68.5282 55.2348 67.4086 54.6395 67.0869 53.5841C66.7652 52.5286 67.3604 51.409 68.4159 51.0873Z" fill="#23DCC8"/>
<path d="M62.4159 29.0873C63.4714 28.7655 64.5909 29.3608 64.9127 30.4162C65.2344 31.4717 64.6392 32.5913 63.5837 32.913C62.5282 33.2348 61.4086 32.6395 61.0869 31.5841C60.7619 30.5165 61.3604 29.409 62.4159 29.0873Z" fill="#23DCC8"/>
<path d="M79.9494 66.626C80.2351 67.6923 79.4848 68.8324 78.2861 69.1536L65.2669 72.6421C64.0682 72.9633 62.8484 72.351 62.5627 71.2848L62.0507 69.374C61.765 68.3078 62.5153 67.1677 63.714 66.8465L76.7332 63.358C77.9319 63.0368 79.1517 63.6491 79.4374 64.7153L79.9494 66.626Z" fill="#23DCC8"/>
<path d="M81.9494 75.626C82.2351 76.6923 81.4848 77.8324 80.2861 78.1536L67.2669 81.6421C66.0682 81.9633 64.8484 81.351 64.5627 80.2848L64.0507 78.374C63.765 77.3078 64.5153 76.1677 65.714 75.8465L78.7332 72.358C79.9319 72.0368 81.1517 72.6491 81.4374 73.7153L81.9494 75.626Z" fill="#23DCC8"/>
<path d="M83.9494 85.626C84.2351 86.6923 83.4848 87.8324 82.2861 88.1536L69.2669 91.6421C68.0682 91.9633 66.8484 91.351 66.5627 90.2848L66.0507 88.374C65.765 87.3078 66.5153 86.1677 67.714 85.8465L80.7332 82.358C81.9319 82.0368 83.1517 82.6491 83.4374 83.7153L83.9494 85.626Z" fill="#23DCC8"/>
<path d="M113.4 5.65269L110.798 12.3068L111.431 12.3919L114.138 5.45493L113.4 5.65269Z" fill="#23DCC8"/>
<path d="M50.0445 68.386C50.1693 68.8999 49.8813 69.4149 49.3996 69.544L46.3301 70.3254C45.845 70.4417 45.3467 70.1237 45.2099 69.6131L44.9551 68.6141C44.8303 68.1003 45.1183 67.5853 45.6001 67.4562L48.6695 66.6748C49.1547 66.5585 49.653 66.8765 49.7898 67.3871L50.0445 68.386Z" fill="#23DCC8"/>
<path d="M51.4545 67.5702C50.8535 66.9892 50.8515 66.0398 51.4362 65.4527C52.0173 64.8518 52.9666 64.8497 53.5537 65.4345C54.1408 66.0193 54.1568 66.9649 53.572 67.552C53.001 68.1354 52.0416 68.155 51.4545 67.5702Z" fill="#23DCC8"/>
<path d="M52.934 66.9254L48.0656 68.0746" stroke="#23DCC8" stroke-width="0.3283"/>
<path d="M44.3188 69.2293L48.9638 68.0365L48.8784 67.7177L44.0358 68.9635L44.3188 69.2293Z" fill="#23DCC8"/>
<path d="M188.002 137.459L187.438 137.611L188.351 139.78L181.548 141.651L125.251 61.6059L138.656 10.8732L138.004 11.0481L124.664 61.5839L124.627 61.7132L181.196 142.152L181.31 142.312L189.131 140.169L188.002 137.459Z" fill="#23DCC8"/>
<rect x="69.1089" y="52.8291" width="14" height="1" transform="rotate(-15 69.1089 52.8291)" fill="#23DCC8"/>
<path d="M86.5002 65.0847L87.0347 67.0794C87.1985 67.6905 86.8544 68.3018 86.2813 68.4553L25.0097 84.873C24.4257 85.0295 24.0957 85.6493 24.2563 86.2489L24.6487 87.7132C24.8124 88.3243 25.416 88.6816 25.9891 88.528L87.6243 72.0129C88.2084 71.8564 88.8041 72.2282 88.9647 72.8278L89.2181 73.7732C89.3818 74.3843 89.0377 74.9956 88.4647 75.1491L26.8184 91.6672C26.2343 91.8237 25.9043 92.4435 26.065 93.043L26.5315 94.7841C26.6953 95.3952 27.2989 95.7525 27.8719 95.5989L89.4741 79.0927C90.0472 78.9391 90.6508 79.2964 90.8114 79.896L91.4359 82.1385C91.6107 82.7466 91.2728 83.3809 90.6887 83.5374L29.0534 100.053C28.4694 100.209 28.1394 100.829 28.3 101.428L28.7078 102.95C28.8716 103.561 29.4752 103.919 30.0483 103.765L91.3198 87.3475C91.9039 87.191 92.4996 87.5628 92.6603 88.1624L93.1546 90.0072C93.3183 90.6183 92.9742 91.2295 92.4012 91.3831L31.1296 107.801C30.5455 107.957 30.2155 108.577 30.3762 109.177L30.8427 110.918C31.0064 111.529 31.61 111.886 32.1831 111.733L94.8322 94.9457" stroke="#23DCC8" stroke-width="0.5379"/>
<path d="M87.2286 60.5439L24.5306 77.3438C23.9431 77.5012 23.6712 78.3488 23.9089 79.2359V79.2359C24.1466 80.1229 24.8169 80.718 25.3934 80.5636L87.0272 64.0488C87.6147 63.8914 88.274 64.4894 88.5117 65.3765" stroke="#23DCC8" stroke-width="0.6667"/>
<path d="M221.646 54.6743L215.102 56.1238L207.464 49.0554C203.467 9.11909 169.104 -6.82214 169.104 -6.82214L172.669 7.06421L183.551 8.91621L182.723 12.2701L179.027 34.062L166.878 31.8714" stroke="#23DCC8" stroke-width="0.5"/>
<path d="M273.491 80.7862C267.136 140.241 225.079 192.593 163.969 208.968C84.6599 230.218 2.85401 182.979 -18.4004 103.656C-39.6548 24.3337 7.57132 -57.4801 86.8806 -78.7309C156.005 -97.2527 227.024 -63.7325 258.194 -2.3043C258.547 -2.05303 258.927 -1.74907 259.297 -1.39462C228.317 -63.8045 156.557 -97.9973 86.7314 -79.2876C7.12162 -57.9562 -40.2919 24.1822 -18.9569 103.805C2.378 183.428 84.5085 230.856 164.118 209.524C225.295 193.132 267.45 140.837 274.018 81.3729C273.836 81.183 273.665 80.9902 273.491 80.7862Z" fill="#23DCC8"/>
<path d="M125.532 180.72C75.2368 179.256 29.6431 145.19 15.9863 94.222C2.32957 43.2543 24.7818 -9.04486 67.6062 -35.46L67.4517 -36.0367C24.3223 -9.51603 1.69117 43.0926 15.4311 94.3708C29.171 145.649 75.0775 179.905 125.686 181.297L125.532 180.72Z" fill="#23DCC8"/>
<path d="M295.291 64.7678L246.668 77.7726L236.863 95.311L236.834 95.3782C226.128 135.797 196.483 166.167 157.523 176.606C153.791 177.606 150.015 178.393 146.213 178.996L146.37 179.582C150.172 178.979 153.948 178.192 157.68 177.192C177.104 171.987 194.772 161.517 208.775 146.907C222.35 132.744 232.244 115.004 237.393 95.5957L247.062 78.3071L295.278 65.3876L303.275 66.7179L303.352 66.1163L295.291 64.7678Z" fill="#23DCC8"/>
<path d="M263.627 84.84C255.719 137.24 217.466 182.748 162.802 197.395C89.391 217.065 13.7677 173.736 -5.77322 100.809C-25.3141 27.881 18.5131 -47.4545 91.9241 -67.1249C156.118 -84.3257 222.015 -53.3431 250.604 3.48071L251.174 3.32804C222.491 -53.8035 156.282 -84.9644 91.7754 -67.6799C18.0628 -47.9286 -25.956 27.7199 -6.33182 100.958C13.2924 174.197 89.2269 217.704 162.951 197.95C217.928 183.219 256.372 137.398 264.231 84.6783L263.627 84.84Z" fill="#23DCC8"/>
<path d="M85.2766 62.8976L83.7237 57.102L85.2766 62.8976Z" fill="#23DCC8"/>
<path d="M85.2766 62.8976L83.7237 57.102" stroke="#23DCC8" stroke-width="0.5"/>
<path d="M75.5117 19.4715L67.4883 -10.4722" stroke="#23DCC8" stroke-width="0.5"/>
<path d="M22.3052 79.0254C18.863 79.5287 15.2376 78.9842 11.9677 77.2599L11.6313 77.7814C15.0604 79.5986 18.8637 80.1694 22.4768 79.6203L22.3166 79.0224L22.3052 79.0254Z" fill="#23DCC8"/>
<path d="M25.2423 87.6641C21.271 88.6075 16.9888 88.2932 13.0345 86.5098L12.6912 87.1382C16.8293 89.0199 21.2996 89.3509 25.4423 88.3615L25.2546 87.6608L25.2423 87.6641Z" fill="#23DCC8"/>
<path d="M58.8146 -22.5585C53.6525 -17.5184 45.713 -8.96141 38.3608 2.18684C27.1373 19.2006 15.0422 45.9129 21.1767 76.5245L21.7401 76.4093C15.6483 46.0014 27.6794 19.4497 38.8322 2.52663C46.0458 -8.42914 53.851 -16.8664 58.9879 -21.9118L58.8146 -22.5585Z" fill="#23DCC8"/>
<path d="M31.9863 72.2383L43.1495 69.2471L41.4472 62.8941L26.5963 66.8734C26.5963 66.8734 17.7672 26.3025 57.7011 -10.2271" stroke="#23DCC8" stroke-width="0.5"/>
</g>
</svg>
