<?xml version="1.0" encoding="utf-8"?>
<!-- Generator: Adobe Illustrator 23.1.0, SVG Export Plug-In . SVG Version: 6.00 Build 0)  -->
<svg version="1.1" id="Layer_1" xmlns="http://www.w3.org/2000/svg" xmlns:xlink="http://www.w3.org/1999/xlink" x="0px" y="0px"
	 viewBox="0 0 189 87.9" style="enable-background:new 0 0 189 87.9;" xml:space="preserve">
<style type="text/css">
	.st0{fill:#000B12;stroke:#FF4954;stroke-width:2;}
	.st1{fill:#000B12;stroke:#15242E;}
	.st2{fill:#15242E;}
</style>
<path class="st0" d="M12,0.9h165c6.1,0,11,4.9,11,11v64c0,6.1-4.9,11-11,11H12c-6.1,0-11-4.9-11-11v-64C1,5.8,5.9,0.9,12,0.9z"/>
<path class="st1" d="M13,11.4h47c1.4,0,2.5,1.1,2.5,2.5v31c0,1.4-1.1,2.5-2.5,2.5H13c-1.4,0-2.5-1.1-2.5-2.5v-31
	C10.5,12.5,11.6,11.4,13,11.4z"/>
<path class="st2" d="M24,34.9v-10h3.4c1.1,0,2,0.2,2.6,0.7c0.6,0.5,0.9,1.1,0.9,2c0,0.5-0.1,0.9-0.4,1.2c-0.2,0.4-0.6,0.6-1.1,0.8
	c0.5,0.1,1,0.4,1.2,0.8c0.3,0.4,0.4,0.9,0.4,1.4c0,0.9-0.3,1.7-0.9,2.2c-0.6,0.5-1.5,0.8-2.6,0.8H24z M25.7,30.4v3.1h1.9
	c0.5,0,1-0.1,1.3-0.4c0.3-0.3,0.5-0.6,0.5-1.1c0-1-0.5-1.6-1.6-1.6H25.7z M25.7,29.1h1.7c0.5,0,1-0.1,1.3-0.4c0.3-0.2,0.5-0.6,0.5-1
	c0-0.5-0.1-0.8-0.4-1.1c-0.3-0.2-0.7-0.3-1.3-0.3h-1.7V29.1z M39.8,26.3h-3.1v8.6H35v-8.6h-3.1v-1.4h7.9V26.3z M48.6,31.6
	c-0.1,1.1-0.5,1.9-1.2,2.5c-0.7,0.6-1.6,0.9-2.7,0.9c-0.8,0-1.5-0.2-2.1-0.6c-0.6-0.4-1.1-0.9-1.4-1.6c-0.3-0.7-0.5-1.5-0.5-2.4
	v-0.9c0-0.9,0.2-1.8,0.5-2.5c0.3-0.7,0.8-1.3,1.4-1.7c0.6-0.4,1.3-0.6,2.2-0.6c1.1,0,2,0.3,2.7,0.9c0.7,0.6,1.1,1.4,1.2,2.5h-1.7
	c-0.1-0.7-0.3-1.2-0.6-1.5c-0.3-0.3-0.8-0.5-1.5-0.5c-0.8,0-1.3,0.3-1.7,0.8c-0.4,0.5-0.6,1.4-0.6,2.4v0.9c0,1.1,0.2,1.9,0.6,2.5
	c0.4,0.6,1,0.8,1.7,0.8c0.7,0,1.2-0.2,1.5-0.5c0.3-0.3,0.6-0.8,0.6-1.5H48.6z"/>
<path class="st1" d="M71,11.4h47c1.4,0,2.5,1.1,2.5,2.5v31c0,1.4-1.1,2.5-2.5,2.5H71c-1.4,0-2.5-1.1-2.5-2.5v-31
	C68.5,12.5,69.6,11.4,71,11.4z"/>
<path class="st2" d="M87.8,30.4h-4.1v3.1h4.8v1.4H82v-10h6.5v1.4h-4.7v2.7h4.1V30.4z M97.3,26.3h-3.1v8.6h-1.7v-8.6h-3.1v-1.4h7.9
	V26.3z M106.5,34.9h-1.7v-4.4h-4.5v4.4h-1.7v-10h1.7v4.1h4.5v-4.1h1.7V34.9z"/>
<path class="st1" d="M129,11.4h47c1.4,0,2.5,1.1,2.5,2.5v31c0,1.4-1.1,2.5-2.5,2.5h-47c-1.4,0-2.5-1.1-2.5-2.5v-31
	C126.5,12.5,127.6,11.4,129,11.4z"/>
<path class="st2" d="M140,34.9v-10h3.4c1.1,0,2,0.2,2.6,0.7c0.6,0.5,0.9,1.1,0.9,2c0,0.5-0.1,0.9-0.4,1.2c-0.2,0.4-0.6,0.6-1.1,0.8
	c0.5,0.1,1,0.4,1.2,0.8c0.3,0.4,0.4,0.9,0.4,1.4c0,0.9-0.3,1.7-0.9,2.2c-0.6,0.5-1.5,0.8-2.6,0.8H140z M141.7,30.4v3.1h1.9
	c0.5,0,1-0.1,1.3-0.4c0.3-0.3,0.5-0.6,0.5-1.1c0-1-0.5-1.6-1.6-1.6H141.7z M141.7,29.1h1.7c0.5,0,1-0.1,1.3-0.4
	c0.3-0.2,0.5-0.6,0.5-1c0-0.5-0.1-0.8-0.4-1.1c-0.3-0.2-0.7-0.3-1.3-0.3h-1.7V29.1z M156.7,34.9H155l-4.4-7.1v7.1h-1.7v-10h1.7
	L155,32v-7.1h1.7V34.9z M158.8,34.9v-10h3.4c1.1,0,2,0.2,2.6,0.7c0.6,0.5,0.9,1.1,0.9,2c0,0.5-0.1,0.9-0.4,1.2
	c-0.2,0.4-0.6,0.6-1.1,0.8c0.5,0.1,1,0.4,1.2,0.8c0.3,0.4,0.4,0.9,0.4,1.4c0,0.9-0.3,1.7-0.9,2.2c-0.6,0.5-1.5,0.8-2.6,0.8H158.8z
	 M160.5,30.4v3.1h1.9c0.5,0,1-0.1,1.3-0.4c0.3-0.3,0.5-0.6,0.5-1.1c0-1-0.5-1.6-1.6-1.6H160.5z M160.5,29.1h1.7c0.5,0,1-0.1,1.3-0.4
	c0.3-0.2,0.5-0.6,0.5-1c0-0.5-0.1-0.8-0.4-1.1c-0.3-0.2-0.7-0.3-1.3-0.3h-1.7V29.1z"/>
</svg>
