<svg width="19" height="15" viewBox="0 0 19 15" fill="none" xmlns="http://www.w3.org/2000/svg">
<path d="M18.1692 2.27404C17.5341 2.556 16.8534 2.74532 16.1377 2.83125C16.8681 2.39354 17.4294 1.70072 17.6925 0.876322C17.0105 1.28047 16.2519 1.57451 15.4476 1.73294C14.8031 1.0455 13.8847 0.617188 12.8683 0.617188C10.9161 0.617188 9.33308 2.19885 9.33308 4.15109C9.33308 4.42768 9.36531 4.69756 9.42573 4.95669C6.48797 4.809 3.88453 3.40188 2.14041 1.26301C1.83562 1.78665 1.66242 2.39354 1.66242 3.0407C1.66242 4.26656 2.28542 5.34875 3.23468 5.98383C2.65465 5.96503 2.10953 5.80526 1.63288 5.54075C1.63288 5.55552 1.63288 5.57029 1.63288 5.58506C1.63288 7.2983 2.85202 8.72556 4.46725 9.05183C4.17187 9.13239 3.85902 9.17535 3.53678 9.17535C3.30853 9.17535 3.08699 9.15387 2.87082 9.11091C3.32196 10.514 4.62703 11.5384 6.17244 11.5666C4.96404 12.5146 3.44011 13.0785 1.78326 13.0785C1.49727 13.0785 1.21665 13.0624 0.941406 13.0288C2.50427 14.0331 4.36252 14.6172 6.35907 14.6172C12.8603 14.6172 16.4157 9.23175 16.4157 4.56195C16.4157 4.40888 16.4116 4.25448 16.4063 4.1041C17.0964 3.60597 17.6952 2.98297 18.1692 2.27404Z" fill="#15252E"/>
</svg>
