<svg data-name="Icon/Arrows/Chevron/Forward" xmlns="http://www.w3.org/2000/svg" width="24" height="24" viewBox="0 0 24 24" fill="#3f3b3b">
  <path data-name="Icon Color" d="M2.182,24,0,21.818,9.818,12,0,2.182,2.182,0l12,12Z" transform="translate(5)"/>
</svg>
