<?xml version="1.0" encoding="UTF-8"?>
<svg width="15px" height="14px" viewBox="0 0 15 14" version="1.1" xmlns="http://www.w3.org/2000/svg" xmlns:xlink="http://www.w3.org/1999/xlink">
    <title>Shape Copy</title>
    <g id="Active---THORChain.org" stroke="none" stroke-width="1" fill="none" fill-rule="evenodd">
        <g id="Technology---FINAL" transform="translate(-1367.000000, -24.000000)" fill="#23DCC8" fill-rule="nonzero">
            <g id="Social-Media" transform="translate(1327.000000, 24.000000)">
                <g id="Hover" transform="translate(0.000000, -0.000496)">
                    <path d="M51.7423123,5.16108659e-05 C51.5996528,-0.00111184813 51.4722782,0.0893242017 51.427697,0.225614783 L49.8062184,5.21742556 L45.1927101,5.21742556 L43.5712315,0.225614783 C43.5279243,0.0944191858 43.4069183,0.003983136 43.2680801,5.16108659e-05 C43.1292415,-0.00238551264 43.0044146,0.0816815624 42.9547384,0.211603821 L41.0008121,5.42631991 C40.9995381,5.42631991 40.9995381,5.42759358 40.9982645,5.42886757 L40.0200275,8.03749944 C39.9690777,8.17506401 40.0149325,8.3291872 40.1346648,8.41580193 L47.3058548,13.630518 L47.3071285,13.6330657 C47.3122235,13.636887 47.3173185,13.6394343 47.3211398,13.641982 C47.3262348,13.6445293 47.3300561,13.6483506 47.3351511,13.650898 C47.3364247,13.650898 47.3364247,13.652172 47.3376984,13.652172 C47.3376984,13.652172 47.3389724,13.6534456 47.340246,13.6534456 C47.3415197,13.6547193 47.3427934,13.6559929 47.345341,13.6559929 C47.3466147,13.6572669 47.3491623,13.6585406 47.350436,13.6598143 C47.3568047,13.6623619 47.3644473,13.6661829 47.3720896,13.6687306 C47.3797323,13.6725519 47.3873746,13.6750992 47.3937432,13.6776469 C47.4013859,13.6801942 47.4064808,13.6814679 47.4128495,13.6840155 C47.4153971,13.6840155 47.4179445,13.6852892 47.4217658,13.6852892 C47.4281344,13.6878368 47.4345031,13.6891105 47.4408721,13.6903842 C47.449788,13.6916578 47.4574307,13.6929318 47.466347,13.6942055 C47.4790843,13.6942055 47.4930956,13.6954792 47.5058329,13.6954792 C47.5185705,13.6942055 47.5300341,13.6942055 47.5414978,13.6916578 C47.5465927,13.6916578 47.5504141,13.6916578 47.555509,13.6903842 C47.555509,13.6903842 47.5567827,13.6903842 47.5580567,13.6903842 C47.560604,13.6891105 47.5618777,13.6891105 47.5644253,13.6891105 C47.565699,13.6891105 47.5669727,13.6878368 47.5695203,13.6878368 C47.5720677,13.6865628 47.575889,13.6865628 47.5784366,13.6852892 C47.5835316,13.6840155 47.5873526,13.6827419 47.5911739,13.6814679 C47.5937216,13.6814679 47.5949953,13.6814679 47.5962689,13.6801942 C47.5975426,13.6801942 47.5988166,13.6801942 47.6000902,13.6801942 C47.6051852,13.6776469 47.6115539,13.6750992 47.6166489,13.6738256 C47.6230175,13.6712779 47.6281125,13.6687306 47.6332075,13.6661829 C47.6344815,13.6661829 47.6344815,13.6661829 47.6357551,13.6649092 C47.6370288,13.6649092 47.6383025,13.6649092 47.6395764,13.6636356 C47.6421238,13.6623619 47.6446714,13.6610879 47.6472188,13.6598143 C47.6548614,13.6559929 47.66123,13.652172 47.6675987,13.6483506 C47.6701463,13.647077 47.67142,13.645803 47.6726937,13.6445293 C47.6739673,13.6445293 47.6752413,13.6432556 47.676515,13.6432556 C47.68161,13.6394343 47.686705,13.636887 47.6917999,13.6330657 L47.6943473,13.6292444 L54.8655376,8.41580193 C54.9839959,8.3291872 55.0298508,8.17506401 54.9789009,8.03749944 L54.0032116,5.43778355 C54.0019376,5.43523622 54.000664,5.4314149 54.000664,5.42886757 L52.0441901,0.211603821 C51.9957879,0.0855028821 51.8773292,0.0014354809 51.7423123,5.16108659e-05 Z M41.9777751,5.86958353 L44.7188765,5.86958353 L46.6282219,11.7441002 L41.9777751,5.86958353 Z M50.2800519,5.86958353 L53.0211533,5.86958353 L48.3707065,11.7441002 L50.2800519,5.86958353 Z M41.4058632,6.19821017 L45.7671696,11.7071617 L40.7180403,8.03495179 L41.4058632,6.19821017 Z M53.5930652,6.19821017 L54.2808881,8.03495179 L49.2317588,11.7071617 L53.5930652,6.19821017 Z" id="Shape-Copy"></path>
                </g>
            </g>
        </g>
    </g>
</svg>