<?xml version="1.0" encoding="UTF-8"?>
<svg width="316px" height="182px" viewBox="0 0 316 182" version="1.1" xmlns="http://www.w3.org/2000/svg" xmlns:xlink="http://www.w3.org/1999/xlink">
    <title>Card</title>
    <defs>
        <rect id="path-1" x="1" y="0" width="316" height="181.22"></rect>
    </defs>
    <g id="⚡-Active---THORChain.org" stroke="none" stroke-width="1" fill="none" fill-rule="evenodd">
        <g id="Mobile---2---Home" transform="translate(-83.000000, -1286.000000)">
            <g id="Mobile:-Content" transform="translate(0.000000, 59.000000)">
                <g id="RUNE-Token" transform="translate(0.500000, 1135.000000)">
                    <g id="RUNE" transform="translate(19.500000, 0.000000)">
                        <g id="Card" transform="translate(62.000000, 92.000000)">
                            <mask id="mask-2" fill="white">
                                <use xlink:href="#path-1"></use>
                            </mask>
                            <use id="Background" fill="#000B12" xlink:href="#path-1"></use>
                            <g id="Mask-Copy-13" mask="url(#mask-2)" fill="#15242E">
                                <g transform="translate(-36.273378, -45.537039)" id="Mask-Copy-12">
                                    <polygon transform="translate(118.355077, 186.898061) rotate(-10.000000) translate(-118.355077, -186.898061) " points="72.4789177 360.898061 28.8550768 360.898061 28.8550768 12.8980609 72.4789177 12.8980609 184.146468 76.2140661 184.146468 124.058116 144.316004 192.610783 207.855077 360.898061 161.386203 360.898061 98.3213018 190.230482 147.161037 105.015708 72.4789177 62.6463509"></polygon>
                                </g>
                            </g>
                            <path d="M64.7286667,123 L64.7286667,99.08 L72.5486667,99.08 C76.0446667,99.08 77.6086667,100.184 78.5286667,103.864 L83.0366667,123 L101.160667,123 L95.9166667,103.404 C94.4446667,96.136 89.5686667,94.204 86.1646667,93.652 L86.1646667,93.1 C95.6406667,92.088 98.6766667,85.924 98.6766667,77.736 C98.6766667,63.016 91.1326667,58.6 73.3766667,58.6 C61.3246667,58.6 55.8046667,58.692 47.7086667,59.52 L47.7086667,123 L64.7286667,123 Z M73.0086667,86.476 L64.7286667,86.476 L64.7286667,71.204 L73.0086667,71.204 C79.5406667,71.204 81.2886667,72.768 81.2886667,78.84 C81.2886667,84.912 79.5406667,86.476 73.0086667,86.476 Z M134.771333,124.288 C153.815333,124.288 160.715333,117.02 160.715333,97.24 L160.715333,59.52 L143.419333,59.52 L143.419333,97.24 C143.419333,108.096 141.211333,111.04 133.851333,111.04 C126.491333,111.04 124.283333,108.096 124.283333,97.24 L124.283333,59.52 L106.987333,59.52 L106.987333,97.24 C106.987333,117.02 114.347333,124.288 134.771333,124.288 Z M186.322,123 L186.322,91.168 C186.322,87.672 186.046,83.9 185.586,80.312 L186.322,80.312 C187.334,83.808 188.898,87.764 190.462,90.708 L205.55,117.94 C207.298,121.252 208.678,123 212.266,123 L220.454,123 C224.41,123 226.434,120.884 226.434,116.928 L226.434,59.52 L210.426,59.52 L210.518,90.248 C210.518,94.02 210.794,97.608 211.162,101.38 L210.426,101.38 C208.954,97.516 207.298,93.744 205.642,90.8 L191.106,64.58 C189.266,61.268 187.978,59.52 184.39,59.52 L176.294,59.52 C172.338,59.52 170.222,61.636 170.222,65.592 L170.222,123 L186.322,123 Z M281.848667,122.264 L281.020667,109.844 L257.192667,109.844 C254.616667,109.844 253.236667,108.464 253.236667,105.888 L253.236667,96.228 L277.616667,96.228 L277.616667,84.36 L253.236667,84.36 L253.236667,76.632 C253.236667,74.056 254.616667,72.676 257.192667,72.676 L281.020667,72.676 L281.848667,60.256 C272.832667,59.244 260.872667,59.244 250.384667,59.244 C241.828667,59.244 235.940667,64.672 235.940667,72.86 L235.940667,109.66 C235.940667,117.848 241.736667,123.276 250.384667,123.276 L252.500585,123.276 C262.454249,123.271502 273.433733,123.208533 281.848667,122.264 Z" id="RUNE" fill="#23DCC8" fill-rule="nonzero" mask="url(#mask-2)"></path>
                        </g>
                    </g>
                </g>
            </g>
        </g>
    </g>
</svg>