<?xml version="1.0" encoding="UTF-8"?>
<svg width="664px" height="839px" viewBox="0 0 664 839" version="1.1" xmlns="http://www.w3.org/2000/svg" xmlns:xlink="http://www.w3.org/1999/xlink">
    <title>8</title>
    <defs>
        <linearGradient x1="50%" y1="0%" x2="50%" y2="100%" id="linearGradient-1">
            <stop stop-color="#000B12" offset="0%"></stop>
            <stop stop-color="#123269" offset="100%"></stop>
        </linearGradient>
        <rect id="path-2" x="0" y="0" width="664" height="839" rx="24"></rect>
        <linearGradient x1="50%" y1="4.27213968%" x2="50%" y2="100%" id="linearGradient-4">
            <stop stop-color="#1C4C9B" offset="0%"></stop>
            <stop stop-color="#1772A9" offset="100%"></stop>
        </linearGradient>
        <linearGradient x1="70.8540852%" y1="16.8965322%" x2="-1.15455855%" y2="85.2896245%" id="linearGradient-5">
            <stop stop-color="#15C7B6" offset="0%"></stop>
            <stop stop-color="#2E3192" offset="100%"></stop>
        </linearGradient>
        <linearGradient x1="50.0041183%" y1="100%" x2="50.0041183%" y2="-1.34392181%" id="linearGradient-6">
            <stop stop-color="#00AEEF" stop-opacity="0" offset="0%"></stop>
            <stop stop-color="#00AAED" stop-opacity="0.05" offset="11%"></stop>
            <stop stop-color="#019FE6" stop-opacity="0.18" offset="28%"></stop>
            <stop stop-color="#028EDC" stop-opacity="0.39" offset="50%"></stop>
            <stop stop-color="#0376CE" stop-opacity="0.68" offset="75%"></stop>
            <stop stop-color="#055CBF" offset="100%"></stop>
        </linearGradient>
        <linearGradient x1="0%" y1="49.9955025%" x2="100%" y2="49.9955025%" id="linearGradient-7">
            <stop stop-color="#262262" offset="0%"></stop>
            <stop stop-color="#013876" offset="100%"></stop>
        </linearGradient>
        <linearGradient x1="-3.33702303e-14%" y1="49.9981599%" x2="99.9989998%" y2="49.9981599%" id="linearGradient-8">
            <stop stop-color="#262262" offset="0%"></stop>
            <stop stop-color="#013876" offset="100%"></stop>
        </linearGradient>
        <linearGradient x1="-0.010138646%" y1="49.9990022%" x2="100%" y2="49.9990022%" id="linearGradient-9">
            <stop stop-color="#2B3990" stop-opacity="0" offset="0%"></stop>
            <stop stop-color="#013876" offset="100%"></stop>
        </linearGradient>
        <linearGradient x1="45.7917781%" y1="50.0996271%" x2="53.3159598%" y2="57.1950081%" id="linearGradient-10">
            <stop stop-color="#1C75BC" offset="0%"></stop>
            <stop stop-color="#013876" offset="100%"></stop>
        </linearGradient>
        <linearGradient x1="33.1445453%" y1="6.71095335%" x2="61.1548076%" y2="114.689402%" id="linearGradient-11">
            <stop stop-color="#15C7B6" offset="0%"></stop>
            <stop stop-color="#2E3192" offset="100%"></stop>
        </linearGradient>
        <linearGradient x1="-1.36963979%" y1="50.3339776%" x2="91.6715266%" y2="52.992443%" id="linearGradient-12">
            <stop stop-color="#15C7B6" offset="0%"></stop>
            <stop stop-color="#2E3192" offset="100%"></stop>
        </linearGradient>
        <linearGradient x1="43.3695714%" y1="14.9681196%" x2="54.8185919%" y2="108.083437%" id="linearGradient-13">
            <stop stop-color="#15C7B6" offset="0%"></stop>
            <stop stop-color="#2E3192" offset="100%"></stop>
        </linearGradient>
        <linearGradient x1="25.3085026%" y1="43.1742159%" x2="49.6170053%" y2="81.6471164%" id="linearGradient-14">
            <stop stop-color="#15C7B6" offset="0%"></stop>
            <stop stop-color="#2E3192" offset="100%"></stop>
        </linearGradient>
        <linearGradient x1="-5.63755199%" y1="50.4131459%" x2="94.342246%" y2="53.899452%" id="linearGradient-15">
            <stop stop-color="#0C387D" stop-opacity="0.6" offset="0%"></stop>
            <stop stop-color="#013876" offset="100%"></stop>
        </linearGradient>
        <linearGradient x1="26.2382117%" y1="6.23993089%" x2="64.9048043%" y2="110.794901%" id="linearGradient-16">
            <stop stop-color="#15C7B6" offset="0%"></stop>
            <stop stop-color="#2E3192" offset="100%"></stop>
        </linearGradient>
        <linearGradient x1="37.7763325%" y1="48.8275573%" x2="51.8746827%" y2="54.9384032%" id="linearGradient-17">
            <stop stop-color="#15C7B6" offset="0%"></stop>
            <stop stop-color="#2E3192" offset="100%"></stop>
        </linearGradient>
        <linearGradient x1="10.3459227%" y1="43.919598%" x2="47.3903863%" y2="160.287688%" id="linearGradient-18">
            <stop stop-color="#15C7B6" offset="0%"></stop>
            <stop stop-color="#2E3192" offset="100%"></stop>
        </linearGradient>
        <linearGradient x1="47.9663167%" y1="15.2838217%" x2="50.8321245%" y2="103.684586%" id="linearGradient-19">
            <stop stop-color="#15C7B6" offset="0%"></stop>
            <stop stop-color="#2E3192" offset="100%"></stop>
        </linearGradient>
        <linearGradient x1="1315.15394%" y1="-4136.37532%" x2="1411.95522%" y2="-4136.37532%" id="linearGradient-20">
            <stop stop-color="#0C387D" stop-opacity="0.6" offset="0%"></stop>
            <stop stop-color="#013876" offset="100%"></stop>
        </linearGradient>
        <linearGradient x1="14.6637931%" y1="64.3365873%" x2="36.567734%" y2="113.715073%" id="linearGradient-21">
            <stop stop-color="#15C7B6" offset="0%"></stop>
            <stop stop-color="#2E3192" offset="100%"></stop>
        </linearGradient>
        <linearGradient x1="25.3085026%" y1="43.1742159%" x2="49.6170053%" y2="81.6471164%" id="linearGradient-22">
            <stop stop-color="#0C387D" stop-opacity="0.4" offset="0%"></stop>
            <stop stop-color="#013876" stop-opacity="0.6" offset="100%"></stop>
        </linearGradient>
        <linearGradient x1="49.9765906%" y1="100.004524%" x2="49.9765906%" y2="0%" id="linearGradient-23">
            <stop stop-color="#00AEEF" stop-opacity="0" offset="0%"></stop>
            <stop stop-color="#00AAED" stop-opacity="0.05" offset="11%"></stop>
            <stop stop-color="#019FE6" stop-opacity="0.18" offset="28%"></stop>
            <stop stop-color="#028EDC" stop-opacity="0.39" offset="50%"></stop>
            <stop stop-color="#0376CE" stop-opacity="0.68" offset="75%"></stop>
            <stop stop-color="#055CBF" offset="100%"></stop>
        </linearGradient>
        <linearGradient x1="29.8973193%" y1="3.24939106%" x2="62.6695068%" y2="100.774935%" id="linearGradient-24">
            <stop stop-color="#00AEEF" stop-opacity="0" offset="0%"></stop>
            <stop stop-color="#00A6EA" stop-opacity="0.05" offset="18%"></stop>
            <stop stop-color="#0291DE" stop-opacity="0.18" offset="46%"></stop>
            <stop stop-color="#046ECA" stop-opacity="0.39" offset="83%"></stop>
            <stop stop-color="#055CBF" stop-opacity="0.5" offset="100%"></stop>
        </linearGradient>
        <linearGradient x1="0.0328677075%" y1="49.9865483%" x2="100%" y2="49.9865483%" id="linearGradient-25">
            <stop stop-color="#2B3990" stop-opacity="0" offset="0%"></stop>
            <stop stop-color="#013876" offset="100%"></stop>
        </linearGradient>
        <linearGradient x1="0%" y1="49.9840166%" x2="100.021895%" y2="49.9840166%" id="linearGradient-26">
            <stop stop-color="#052D56" stop-opacity="0" offset="0%"></stop>
            <stop stop-color="#052D56" offset="100%"></stop>
        </linearGradient>
        <linearGradient x1="0%" y1="49.968713%" x2="115.77038%" y2="49.968713%" id="linearGradient-27">
            <stop stop-color="#052D56" stop-opacity="0" offset="0%"></stop>
            <stop stop-color="#052D56" offset="100%"></stop>
        </linearGradient>
        <linearGradient x1="50%" y1="100%" x2="50%" y2="0%" id="linearGradient-28">
            <stop stop-color="#052D56" stop-opacity="0" offset="0%"></stop>
            <stop stop-color="#052D56" offset="100%"></stop>
        </linearGradient>
        <linearGradient x1="0%" y1="50.0038548%" x2="156.313027%" y2="50.0038548%" id="linearGradient-29">
            <stop stop-color="#052D56" stop-opacity="0" offset="0%"></stop>
            <stop stop-color="#052D56" offset="100%"></stop>
        </linearGradient>
    </defs>
    <g id="⚡-Active---THORChain.org" stroke="none" stroke-width="1" fill="none" fill-rule="evenodd">
        <g id="RUNE---FINAL" transform="translate(-170.000000, -7054.000000)">
            <g id="Content" transform="translate(-598.000000, 209.000000)">
                <g id="Illustrations" transform="translate(768.000000, 158.000000)">
                    <g id="8" transform="translate(0.000000, 6687.000000)">
                        <mask id="mask-3" fill="white">
                            <use xlink:href="#path-2"></use>
                        </mask>
                        <use id="Background" fill="url(#linearGradient-1)" xlink:href="#path-2"></use>
                        <g id="Thorchain_Amps" mask="url(#mask-3)">
                            <g transform="translate(516.000000, 786.500000) scale(-1, 1) translate(-516.000000, -786.500000) translate(-352.000000, -326.000000)" id="Group">
                                <polygon id="Triangle" fill="url(#linearGradient-4)" points="1311.67969 1037.61719 1422.12891 1078.21484 1408.94531 1341 677.945312 1341 669.972656 1189.30859"></polygon>
                                <polygon id="Path" fill="#60C0ED" fill-rule="nonzero" points="821.393417 415.126773 772.38882 377.675095 773.972007 378.04432 621.50364 403.865424 621.13258 403.926962 620.786258 403.803887 552.907099 381.318111 552.498933 381.182729 552.325772 380.801197 486.066906 232.126773 554.094489 380.00121 553.513163 379.471988 621.713907 400.973165 620.996525 400.923935 773.266994 373.995157 774.120431 373.847468 774.850181 374.376689 825.066906 410.203779"></polygon>
                                <polygon id="Path" fill="#60C0ED" fill-rule="nonzero" points="836.066906 449.09722 884.779291 424.915751 885.766121 424.434344 886.814627 424.705907 973.593971 447.591279 974.864514 447.924561 975.357929 449.134251 1025.32852 574.46067 1022.47905 573.263323 1147.70775 521.518189 1148.44787 521.209595 1149.16332 521.567564 1166.50686 530.306962 1165.84075 530.134149 1197.11091 531.973373 1195.58133 532.9115 1209.58198 501.669388 1209.68066 501.422512 1209.86569 501.249699 1297.00276 411.127747 1297.50851 410.609308 1298.17462 410.880871 1383.17767 445.924868 1383.01731 445.875493 1447.24759 456.515833 1446.60615 457.009584 1450.19575 423.989967 1450.20808 423.804811 1450.35611 423.681373 1560.06691 337.126773 1450.9112 424.384968 1451.08389 424.088718 1447.71634 457.120678 1447.65466 457.700836 1447.0749 457.61443 1382.7706 447.393778 1382.68425 447.381434 1382.59791 447.344403 1297.37282 412.855876 1298.53235 412.609 1211.97504 503.274079 1212.25875 502.854391 1198.45547 534.182909 1198.02373 535.182756 1196.92588 535.121037 1165.65572 533.491658 1165.32266 533.46697 1165.00194 533.306501 1147.60907 524.678197 1149.0523 524.727572 1024.14433 577.275052 1022.12132 578.126773 1021.29486 576.077706 970.510128 451.084569 972.274086 452.639886 885.346718 430.322328 887.369719 430.112483 838.817694 454.602547"></polygon>
                                <polygon id="Path" fill="#60C0ED" fill-rule="nonzero" points="787.066906 441.841896 739.287785 569.637164 738.386292 572.056314 735.916449 572.61173 676.998334 585.818311 680.431417 581.510744 680.184432 632.670816 680.184432 633.300289 680.011543 633.868049 672.972489 656.874653 666.64969 680.128109 653.991743 726.635021 653.744758 727.573059 653.09025 728.239559 601.643411 781.473188 600.322045 782.855559 598.482012 782.423568 568.275827 775.301889 572.16583 772.36435 564.558712 902.554083 564.410522 904.973232 562.014774 904.96089 543.392154 904.874491 544.108409 904.763408 520.805436 911.625893 522.398485 908.836466 547.479745 1013.60044 547.590888 1014.06946 547.467396 1014.5138 540.366596 1040.05063 540.218406 1040.56902 539.810881 1040.90227 486.079438 1084.82958 485.918898 1084.96535 485.73366 1085.03941 404.142382 1117.19188 404.599303 1116.79691 313.066906 1279.12677 403.006254 1115.90825 403.154445 1115.62437 403.463175 1115.50094 484.733373 1082.5462 484.375246 1082.75603 537.674467 1038.32267 537.118752 1039.17431 543.984917 1013.56342 543.960218 1014.46443 517.866323 909.947299 517.322957 907.81203 519.459372 907.157872 542.688249 900.060878 543.021678 899.962137 543.392154 899.962137 562.014774 899.875739 559.470835 902.282546 565.805983 772.018757 565.991222 768.254265 569.708336 769.093561 599.988616 775.919019 596.827217 776.869399 647.755388 723.129723 646.841546 724.734261 659.067271 678.029867 665.180133 654.665328 672.0216 631.473584 671.848711 632.670816 671.589377 581.510744 671.577028 578.017789 675.022459 577.21552 733.804733 563.416494 730.433397 566.378718 776.965247 438.126773"></polygon>
                                <polygon id="Path" fill="#60C0ED" fill-rule="nonzero" points="1136.06691 527.126773 1167.61043 384.781879 1167.75893 384.089985 1168.37767 383.818169 1224.13879 358.909975 1223.75517 359.503027 1224.41104 304.126773 1225.05453 359.503027 1225.06691 359.91075 1224.68329 360.083724 1169.51616 386.301575 1170.2834 385.337865 1142.89783 525.038735"></polygon>
                                <polyline id="Path" stroke="#60C0ED" stroke-width="3" points="1197.06691 532.979348 1295.23604 507.126773 1335.029 542.125479 1360.77667 544.461185 1365.45021 577.124185 1395.87142 626.124832 1466.09793 626.124832 1672.06691 640.126773"></polyline>
                                <polygon id="Path" fill="#60C0ED" fill-rule="nonzero" points="821.393417 415.126773 772.38882 377.675095 773.972007 378.04432 621.50364 403.865424 621.13258 403.926962 620.786258 403.803887 552.907099 381.318111 552.498933 381.182729 552.325772 380.801197 486.066906 232.126773 554.094489 380.00121 553.513163 379.471988 621.713907 400.973165 620.996525 400.923935 773.266994 373.995157 774.120431 373.847468 774.850181 374.376689 825.066906 410.203779"></polygon>
                                <polygon id="Path" fill="#60C0ED" fill-rule="nonzero" points="836.066906 449.09722 884.779291 424.915751 885.766121 424.434344 886.814627 424.705907 973.593971 447.591279 974.864514 447.924561 975.357929 449.134251 1025.32852 574.46067 1022.47905 573.263323 1147.70775 521.518189 1148.44787 521.209595 1149.16332 521.567564 1166.50686 530.306962 1165.84075 530.134149 1197.11091 531.973373 1195.58133 532.9115 1209.58198 501.669388 1209.68066 501.422512 1209.86569 501.249699 1297.00276 411.127747 1297.50851 410.609308 1298.17462 410.880871 1383.17767 445.924868 1383.01731 445.875493 1447.24759 456.515833 1446.60615 457.009584 1450.19575 423.989967 1450.20808 423.804811 1450.35611 423.681373 1560.06691 337.126773 1450.9112 424.384968 1451.08389 424.088718 1447.71634 457.120678 1447.65466 457.700836 1447.0749 457.61443 1382.7706 447.393778 1382.68425 447.381434 1382.59791 447.344403 1297.37282 412.855876 1298.53235 412.609 1211.97504 503.274079 1212.25875 502.854391 1198.45547 534.182909 1198.02373 535.182756 1196.92588 535.121037 1165.65572 533.491658 1165.32266 533.46697 1165.00194 533.306501 1147.60907 524.678197 1149.0523 524.727572 1024.14433 577.275052 1022.12132 578.126773 1021.29486 576.077706 970.510128 451.084569 972.274086 452.639886 885.346718 430.322328 887.369719 430.112483 838.817694 454.602547"></polygon>
                                <polygon id="Path" fill="#60C0ED" fill-rule="nonzero" points="787.066906 441.841896 739.287785 569.637164 738.386292 572.056314 735.916449 572.61173 676.998334 585.818311 680.431417 581.510744 680.184432 632.670816 680.184432 633.300289 680.011543 633.868049 672.972489 656.874653 666.64969 680.128109 653.991743 726.635021 653.744758 727.573059 653.09025 728.239559 601.643411 781.473188 600.322045 782.855559 598.482012 782.423568 568.275827 775.301889 572.16583 772.36435 564.558712 902.554083 564.410522 904.973232 562.014774 904.96089 543.392154 904.874491 544.108409 904.763408 520.805436 911.625893 522.398485 908.836466 547.479745 1013.60044 547.590888 1014.06946 547.467396 1014.5138 540.366596 1040.05063 540.218406 1040.56902 539.810881 1040.90227 486.079438 1084.82958 485.918898 1084.96535 485.73366 1085.03941 404.142382 1117.19188 404.599303 1116.79691 313.066906 1279.12677 403.006254 1115.90825 403.154445 1115.62437 403.463175 1115.50094 484.733373 1082.5462 484.375246 1082.75603 537.674467 1038.32267 537.118752 1039.17431 543.984917 1013.56342 543.960218 1014.46443 517.866323 909.947299 517.322957 907.81203 519.459372 907.157872 542.688249 900.060878 543.021678 899.962137 543.392154 899.962137 562.014774 899.875739 559.470835 902.282546 565.805983 772.018757 565.991222 768.254265 569.708336 769.093561 599.988616 775.919019 596.827217 776.869399 647.755388 723.129723 646.841546 724.734261 659.067271 678.029867 665.180133 654.665328 672.0216 631.473584 671.848711 632.670816 671.589377 581.510744 671.577028 578.017789 675.022459 577.21552 733.804733 563.416494 730.433397 566.378718 776.965247 438.126773"></polygon>
                                <polygon id="Path" fill="#60C0ED" fill-rule="nonzero" points="1136.06691 527.126773 1167.61043 384.781879 1167.75893 384.089985 1168.37767 383.818169 1224.13879 358.909975 1223.75517 359.503027 1224.41104 304.126773 1225.05453 359.503027 1225.06691 359.91075 1224.68329 360.083724 1169.51616 386.301575 1170.2834 385.337865 1142.89783 525.038735"></polygon>
                                <g opacity="0.22" transform="translate(73.066906, 6.126773)">
                                    <g transform="translate(-0.066906, -0.126773)"></g>
                                </g>
                                <polygon id="Path" fill="#9FF6FF" fill-rule="nonzero" points="821.393417 415.126773 772.38882 377.675095 773.972007 378.04432 621.50364 403.865424 621.13258 403.926962 620.786258 403.803887 552.907099 381.318111 552.498933 381.182729 552.325772 380.801197 486.066906 232.126773 554.094489 380.00121 553.513163 379.471988 621.713907 400.973165 620.996525 400.923935 773.266994 373.995157 774.120431 373.847468 774.850181 374.376689 825.066906 410.203779"></polygon>
                                <ellipse id="Oval" fill-rule="nonzero" cx="823.566906" cy="451.626773" rx="194.5" ry="168.5"></ellipse>
                                <polygon id="Path" fill="#9FF6FF" fill-rule="nonzero" points="836.066906 449.09722 884.779291 424.915751 885.766121 424.434344 886.814627 424.705907 973.593971 447.591279 974.864514 447.924561 975.357929 449.134251 1025.32852 574.46067 1022.47905 573.263323 1147.70775 521.518189 1148.44787 521.209595 1149.16332 521.567564 1166.50686 530.306962 1165.84075 530.134149 1197.11091 531.973373 1195.58133 532.9115 1209.58198 501.669388 1209.68066 501.422512 1209.86569 501.249699 1297.00276 411.127747 1297.50851 410.609308 1298.17462 410.880871 1383.17767 445.924868 1383.01731 445.875493 1447.24759 456.515833 1446.60615 457.009584 1450.19575 423.989967 1450.20808 423.804811 1450.35611 423.681373 1560.06691 337.126773 1450.9112 424.384968 1451.08389 424.088718 1447.71634 457.120678 1447.65466 457.700836 1447.0749 457.61443 1382.7706 447.393778 1382.68425 447.381434 1382.59791 447.344403 1297.37282 412.855876 1298.53235 412.609 1211.97504 503.274079 1212.25875 502.854391 1198.45547 534.182909 1198.02373 535.182756 1196.92588 535.121037 1165.65572 533.491658 1165.32266 533.46697 1165.00194 533.306501 1147.60907 524.678197 1149.0523 524.727572 1024.14433 577.275052 1022.12132 578.126773 1021.29486 576.077706 970.510128 451.084569 972.274086 452.639886 885.346718 430.322328 887.369719 430.112483 838.817694 454.602547"></polygon>
                                <polygon id="Path" fill="#9FF6FF" fill-rule="nonzero" points="787.066906 441.841896 739.287785 569.637164 738.386292 572.056314 735.916449 572.61173 676.998334 585.818311 680.431417 581.510744 680.184432 632.670816 680.184432 633.300289 680.011543 633.868049 672.972489 656.874653 666.64969 680.128109 653.991743 726.635021 653.744758 727.573059 653.09025 728.239559 601.643411 781.473188 600.322045 782.855559 598.482012 782.423568 568.275827 775.301889 572.16583 772.36435 564.558712 902.554083 564.410522 904.973232 562.014774 904.96089 543.392154 904.874491 544.108409 904.763408 520.805436 911.625893 522.398485 908.836466 547.479745 1013.60044 547.590888 1014.06946 547.467396 1014.5138 540.366596 1040.05063 540.218406 1040.56902 539.810881 1040.90227 486.079438 1084.82958 485.918898 1084.96535 485.73366 1085.03941 404.142382 1117.19188 404.599303 1116.79691 313.066906 1279.12677 403.006254 1115.90825 403.154445 1115.62437 403.463175 1115.50094 484.733373 1082.5462 484.375246 1082.75603 537.674467 1038.32267 537.118752 1039.17431 543.984917 1013.56342 543.960218 1014.46443 517.866323 909.947299 517.322957 907.81203 519.459372 907.157872 542.688249 900.060878 543.021678 899.962137 543.392154 899.962137 562.014774 899.875739 559.470835 902.282546 565.805983 772.018757 565.991222 768.254265 569.708336 769.093561 599.988616 775.919019 596.827217 776.869399 647.755388 723.129723 646.841546 724.734261 659.067271 678.029867 665.180133 654.665328 672.0216 631.473584 671.848711 632.670816 671.589377 581.510744 671.577028 578.017789 675.022459 577.21552 733.804733 563.416494 730.433397 566.378718 776.965247 438.126773"></polygon>
                                <polygon id="Path" fill="#9FF6FF" fill-rule="nonzero" points="1136.06691 527.126773 1167.61043 384.781879 1167.75893 384.089985 1168.37767 383.818169 1224.13879 358.909975 1223.75517 359.503027 1224.41104 304.126773 1225.05453 359.503027 1225.06691 359.91075 1224.68329 360.083724 1169.51616 386.301575 1170.2834 385.337865 1142.89783 525.038735"></polygon>
                                <path d="M1080.74964,532.956 C1080.74964,532.956 1047.20613,604.237246 1184.72095,679.006749 C1227.15269,702.081017 1378.85662,780.326451 1446.06691,730.455464 C1439.05248,858.411648 1344.77069,919.043231 1273.61556,895.833377 C1202.11525,872.500264 1201.57283,1040.04755 1077.34721,1047.28291 C901.616711,1057.46419 875.173924,1022.16253 875.173924,1022.16253 L847.066906,812.928716 L920.182136,480.126773 L1080.74964,532.956 Z" id="Path" fill="url(#linearGradient-5)" fill-rule="nonzero"></path>
                                <path d="M1033.75864,699.126773 C1033.75864,699.126773 1075.08706,728.729233 1075.88776,777.733637 L1153.6788,899.042048 L1188.17047,915.644094 C1188.17047,915.644094 1218.96661,931.28406 1227.01056,974.651663 C1235.05451,1018.01927 1253.138,1025.13619 1253.138,1025.13619 L1277.19595,1018.68532 C1277.19595,1018.68532 1289.23108,1009.05219 1290.83248,1050.00226 C1292.43387,1090.95232 1302.06691,1111.04499 1302.06691,1111.04499 C1302.06691,1111.04499 1279.61036,1150.3916 1257.15382,1135.93573 L1256.35312,1114.25193 L1245.91939,1085.29085 L1128.82016,951.204048 C1128.82016,951.204048 1107.16431,934.330646 1107.16431,929.520247 C1107.16431,929.520247 1034.97817,907.836445 993.26788,817.881972 L982.846467,819.497773 C982.846467,819.497773 964.368784,861.249575 914.663819,882.131643 C914.663819,882.131643 933.917564,876.507176 943.538277,882.131643 C953.15899,887.756111 963.592722,916.667846 1006.10371,915.064379 C1006.10371,915.064379 1009.31883,878.122977 1028.56025,888.557844 C1047.80168,898.992711 1042.99748,914.262646 1068.66914,931.925447 C1094.3408,949.588247 1070.27054,988.14545 1070.27054,988.14545 L1047.0133,991.352384 L1024.55675,962.440648 L962.792022,949.612916 L848.094889,957.654917 L816.066906,931.950115 C816.066906,931.950115 826.439045,843.537437 869.812325,790.586038 C913.185604,737.634639 936.331981,713.483966 936.331981,713.483966 L1033.75864,699.126773 Z" id="Path" fill="#055CBF" fill-rule="nonzero"></path>
                                <path d="M918.066906,501.126773 L858.807424,520.693261 L848.143669,518.319702 L836.286852,508.24745 L809.621315,507.657135 L800.138322,527.801639 C800.138322,527.801639 798.908362,532.536458 806.657111,532.536458 L809.621315,543.211324 L813.766281,561.572584 L846.975207,562.175198 L864.760431,555.054521 L889.642526,565.126773 L918.066906,501.126773 Z" id="Path" fill="#1FE0DF" fill-rule="nonzero"></path>
                                <path d="M858.597133,537.849245 L871.20254,526.367223 L903.066906,510.126773 L895.310696,554.522279 L890.52415,565.126773 L865.175501,555.004302 L847.056794,562.160481 L846.066906,562.160481 C848.572951,552.915537 858.597133,537.849245 858.597133,537.849245 Z" id="Path" fill="#19C2C2" fill-rule="nonzero"></path>
                                <path d="M896.9496,534.126773 C896.9496,534.126773 894.846615,515.194357 895.085877,504.446914 C895.375509,492.007745 908.786759,465.064503 923.066906,466.15915 L896.9496,534.126773 Z" id="Path" fill="#1FE0DF" fill-rule="nonzero"></path>
                                <path d="M1004.81858,526.091304 C1004.81858,526.091304 937.128108,556.90494 928.69289,514.94041 L927.36683,492.167807 L916.316326,484.126773 C916.316326,484.126773 894.215319,555.554443 933.137648,567.138982 C972.059977,578.723522 1018.06691,535.8917 1018.06691,535.8917 L1004.81858,526.091304 Z" id="Path" fill="#0A0C1C" fill-rule="nonzero"></path>
                                <path d="M938.066906,422.846252 C938.066906,422.846252 938.066906,390.273418 979.424095,390.126773 C1013.75629,390.017514 1025.65975,411.744923 1027.7331,424.905664 C1029.80644,438.066406 1021.48866,470.663612 1022.85463,478.974376 C1024.2206,487.285141 1027.96482,503.126773 1027.96482,503.126773 L988.534628,476.195997 L938.066906,422.846252 Z" id="Path" fill="#03807F" fill-rule="nonzero"></path>
                                <path d="M1006.11187,473.126773 L1010.06691,488.026213 C1010.06691,488.026213 967.627787,528.561994 956.92812,523.726103 C953.394626,522.122302 945.893701,516.294748 943.066906,513.772739 C961.998994,514.384877 995.251029,485.920458 1006.11187,473.126773 Z" id="Path" fill="#1FE0DF" fill-rule="nonzero"></path>
                                <path d="M941.884516,513.829431 L941.066906,494.801091 L1004.729,468.126773 L1006.06691,473.21172 C995.214991,486.140599 982.82696,523.195136 963.9476,522.576529 C955.484922,524.561128 946.680222,521.07043 941.884516,513.829431 Z" id="Path" fill="#19C2C2" fill-rule="nonzero"></path>
                                <path d="M1078.72704,741.946343 C1073.5508,724.947434 1045.14284,704.021912 1033.47791,696.045596 L1031.9692,667.95616 L1074.61794,624.307983 L1075.84454,540.975169 L1009.70648,488.882928 C1009.70648,488.882928 961.378602,519.655754 949.885398,513.033442 L943.691088,500.625839 L944.574237,472.684112 L927.782138,469.126773 C927.782138,469.126773 902.293474,475.884486 901.851899,499.8996 L882.066906,581.398353 L898.184377,623.446343 L927.438692,705.782118 L928.211447,707.714651 L899.410973,754.846312 L949.885398,730.412688 C961.280475,732.874514 977.26302,735.127085 988.878884,731.815929 L1082.46816,785.126773 C1082.46816,785.126773 1085.27706,763.536558 1078.72704,741.946343 Z" id="Path" fill="#003876" fill-rule="nonzero"></path>
                                <polygon id="Path" fill="url(#linearGradient-6)" fill-rule="nonzero" points="1031.06691 598.074137 1020.97894 552.221764 947.687778 546.468659 899.26063 510.126773 882.066906 580.99961 887.749058 595.819708 989.647336 631.126773"></polygon>
                                <path d="M1118.88035,665.97773 L1105.32803,654.514503 L1097.24591,652.041315 C1086.15765,650.470841 1079.03652,646.142761 1070.14127,639.860864 C1055.38155,629.572401 1037.80049,611.728349 1036.95039,609.786896 C1035.71836,606.806704 1005.87861,580.541446 1028.53563,554.882119 C1051.19265,529.222793 1071.26241,534.577245 1083.55807,543.530186 C1095.85372,552.483127 1103.62782,573.975132 1111.38961,578.748385 C1119.15139,583.521638 1131.92754,593.216535 1154.59688,633.603698 C1154.59688,633.603698 1197.2867,671.307451 1214.96632,748.446188 L1225.58641,781.945522 L1221.13879,817.188452 L1226.06691,838.878312 C1226.06691,838.878312 1215.40985,841.3515 1212.30514,830.69206 C1209.20042,820.032619 1203.86574,795.078151 1195.43866,794.670075 C1187.01157,794.261998 1173.68102,811.04258 1159.03219,803.672479 C1159.03219,803.672479 1155.04041,797.947049 1163.03628,796.722821 C1171.03215,795.498593 1178.01776,770.927468 1178.01776,770.927468 L1184.03006,757.324934 L1122.08362,674.732816 L1118.88035,665.97773 Z" id="Path" fill="#1FE0DF" fill-rule="nonzero"></path>
                                <polygon id="Path" fill="#19C2C2" fill-rule="nonzero" points="1105.06691 588.126773 1099.59376 622.364198 1057.06691 624.126773 1094.08396 615.833011"></polygon>
                                <path d="M992.066906,556.227697 C976.112361,576.170877 948.281782,579.801369 925.236328,565.340725 C911.537981,556.7551 908.066906,510.92013 908.066906,510.92013 L929.488394,500.126773 L930.145419,518.52454 C948.442939,555.197422 989.12889,524.657129 989.12889,524.657129 L992.066906,556.227697 Z" id="Path" fill="#1079B7" fill-rule="nonzero"></path>
                                <path d="M1026.27328,557.167128 C1026.97793,556.316806 1023.35578,569.194884 1024.04806,568.406179 C1023.07144,587.766429 1035.87878,616.184467 1075.53701,637.565775 C1129.62203,666.723224 1125.72791,666.205636 1125.72791,666.205636 L1185.06691,758.126773 L1127.7306,691.579764 L1117.58116,666.932723 L1103.98264,659.156582 C1092.82495,657.449647 1082.27516,652.979414 1073.29943,646.155268 C1058.58831,634.977835 1037.28808,618.538259 1036.43508,616.418614 C1035.11232,613.214499 1003.53902,585.005961 1026.27328,557.167128 Z" id="Path" fill="#19C2C2" fill-rule="nonzero"></path>
                                <path d="M925.197625,497.126773 L905.066906,489.59253 C905.066906,489.59253 914.432067,459.455557 928.010924,462.318569 C941.589782,465.181582 949.066906,468.911032 949.066906,468.911032 L925.197625,497.126773 Z" id="Path" fill="#1079B7" fill-rule="nonzero"></path>
                                <ellipse id="Oval" fill="#2FA8EF" fill-rule="nonzero" cx="918.566906" cy="499.626773" rx="17.5" ry="19.5"></ellipse>
                                <path d="M918.506126,522 C907.748351,522 899,512.092879 899,500.006192 C899,487.919505 907.748351,478 918.506126,478 C929.263902,478 938,487.907121 938,500.006192 C938,512.105263 929.251649,522 918.506126,522 Z M918.5,482.01247 C909.949126,482.01247 903,490.08036 903,500.006235 C903,509.932109 909.949126,518 918.5,518 C927.050874,518 934,509.91964 934,500.006235 C934,490.09283 927.038553,482 918.5,482 L918.5,482.01247 Z" id="Shape" fill="#1079B7" fill-rule="nonzero"></path>
                                <polygon id="Path" fill="#003876" fill-rule="nonzero" points="929.066906 717.722272 970.229854 861.377663 997.659536 888.126773 1027.06691 860.384195 1010.82775 696.126773"></polygon>
                                <path d="M996.010366,473.067804 L971.188238,496.736669 L943.114412,500.126773 L927.066906,492.517598 L928.891333,445.612911 L935.096865,435.442598 L937.25639,422.451324 L944.367929,410.425115 C944.367929,410.425115 952.100022,402.407643 958.020099,408.272275 C963.940177,414.136908 953.998915,421.523376 977.815746,426.46006 C1001.63258,431.396744 991.989181,449.671137 991.989181,449.671137 C991.989181,449.671137 987.347443,466.015398 1001.91803,458.616558 C1001.91803,458.616558 1017.69249,447.48118 1018.05242,454.904765 C1018.41234,462.328351 1012.0951,480.775961 996.010366,473.067804 Z" id="Path" fill="#1FE0DF" fill-rule="nonzero"></path>
                                <path d="M1016.6221,553.126773 L1043.34342,537.402753 C1054.71109,530.721432 1068.38019,529.022852 1081.06691,532.715076 L1081.06691,532.715076 L1019.59667,488.655829 L1010.47383,488.126773 L989.066906,524.693118 L1016.6221,553.126773 Z" id="Path" fill="#1079B7" fill-rule="nonzero"></path>
                                <path d="M982.066906,536.154675 C982.066906,551.265257 991.631626,564.751176 1007.35893,562.967712 C1020.67689,561.452989 1030.36269,549.530655 1030.06,535.959227 C1029.75732,522.387799 1021.46386,512.126773 1007.86743,512.126773 C993.798822,512.126773 982.066906,521.948041 982.066906,536.154675 Z" id="Path" fill="#2FA8EF" fill-rule="nonzero"></path>
                                <path d="M1004.98114,564.998074 C999.2812,565.072018 993.762664,563.014867 989.526601,559.237068 C983.475422,553.878845 980,545.420419 980,536.04658 C980,521.204667 992.176302,510 1008.34564,510 C1022.7896,510 1032.68592,520.374692 1032.99403,535.80247 C1033.28981,550.754232 1022.56776,563.240479 1008.06219,564.851607 C1007.03902,564.961053 1006.01018,565.009962 1004.98114,564.998074 L1004.98114,564.998074 Z M1008.34425,514 C994.473979,514 984,523.464501 984,536.010468 C984,544.142113 987.061625,551.699041 992.193255,556.223415 C996.397983,559.900417 1002.02213,561.58009 1007.58814,560.821157 C1019.84704,559.451617 1029.25503,548.495295 1028.99473,535.851504 C1028.73443,522.791959 1020.44201,514 1008.34425,514 Z" id="Shape" fill="#1079B7" fill-rule="nonzero"></path>
                                <path d="M1224.06691,785.126773 C1224.06691,785.126773 1210.7716,765.904796 1210.7716,755.618374 C1210.7716,745.331951 1194.06691,695.126773 1194.06691,695.126773 C1198.61922,701.851622 1202.40999,709.040689 1205.37236,716.567148 C1209.30119,727.137937 1212.55627,737.936658 1215.11887,748.901216 L1217.50163,756.213251 C1220.03649,767.367203 1221.18985,775.06343 1221.18985,775.06343 L1224.06691,785.126773 Z" id="Path" fill="#19C2C2" fill-rule="nonzero"></path>
                                <path d="M1165.10834,904.126773 L1188.37334,915.350935 C1188.37334,915.350935 1219.11463,931.00796 1227.14425,974.422867 C1235.17387,1017.83777 1253.22515,1024.96246 1253.22515,1024.96246 L1277.24025,1018.55395 C1277.24025,1018.55395 1289.25394,1008.91031 1290.85249,1049.90504 C1292.45103,1090.89978 1302.06691,1111.01436 1302.06691,1111.01436 C1302.06691,1111.01436 1279.65036,1150.40388 1257.23382,1135.93225 L1256.43454,1114.22479 L1246.0194,1085.23213 L1129.12874,950.999068 C1129.12874,950.999068 1127.89909,950.048286 1126.06691,948.529505 L1144.36412,956.876626 C1165.56331,941.688817 1165.9568,915.054587 1165.10834,904.126773 Z" id="Path" fill="url(#linearGradient-7)" fill-rule="nonzero"></path>
                                <path d="M880.584247,895.110875 C880.584247,895.110875 899.458662,885.651485 916.409883,881.063991 L915.09077,881.63279 C915.09077,881.63279 934.359686,875.994252 943.98798,881.63279 C953.616274,887.271329 964.058227,916.255394 1006.60271,914.647916 C1006.60271,914.647916 1009.82036,877.614095 1029.07695,888.075068 C1048.33354,898.53604 1043.52555,913.844177 1069.21744,931.551165 C1094.90933,949.258154 1070.8201,987.911817 1070.8201,987.911817 L1047.54454,991.126773 L1025.0703,962.142708 L963.256896,949.282884 L871.066906,955.749892 C892.690501,938.512782 880.584247,895.110875 880.584247,895.110875 Z" id="Path" fill="url(#linearGradient-8)" fill-rule="nonzero"></path>
                                <path d="M1033.75864,699.126773 C1033.75864,699.126773 1075.08706,728.729233 1075.88776,777.733637 L1153.6788,899.042048 L1188.17047,915.644094 C1188.17047,915.644094 1218.96661,931.28406 1227.01056,974.651663 C1235.05451,1018.01927 1253.138,1025.13619 1253.138,1025.13619 L1277.19595,1018.68532 C1277.19595,1018.68532 1289.23108,1009.05219 1290.83248,1050.00226 C1292.43387,1090.95232 1302.06691,1111.04499 1302.06691,1111.04499 C1302.06691,1111.04499 1279.61036,1150.3916 1257.15382,1135.93573 L1256.35312,1114.25193 L1245.91939,1085.29085 L1128.82016,951.204048 C1128.82016,951.204048 1107.16431,934.330646 1107.16431,929.520247 C1107.16431,929.520247 1034.97817,907.836445 993.26788,817.881972 L982.846467,819.497773 C982.846467,819.497773 964.368784,861.249575 914.663819,882.131643 C914.663819,882.131643 933.917564,876.507176 943.538277,882.131643 C953.15899,887.756111 963.592722,916.667846 1006.10371,915.064379 C1006.10371,915.064379 1009.31883,878.122977 1028.56025,888.557844 C1047.80168,898.992711 1042.99748,914.262646 1068.66914,931.925447 C1094.3408,949.588247 1070.27054,988.14545 1070.27054,988.14545 L1047.0133,991.352384 L1024.55675,962.440648 L962.792022,949.612916 L848.094889,957.654917 L816.066906,931.950115 C816.066906,931.950115 826.439045,843.537437 869.812325,790.586038 C913.185604,737.634639 936.331981,713.483966 936.331981,713.483966 L1033.75864,699.126773 Z" id="Path" fill="url(#linearGradient-9)" fill-rule="nonzero"></path>
                                <polyline id="Path" stroke="#003876" stroke-width="5" points="1173.06691 930.126773 1121.46783 896.487033 1029.06691 745.126773"></polyline>
                                <path d="M1009.77659,711.848385 L1084.06691,769.126773 L1084.06691,767.646393 C1084.06691,766.758165 1083.98062,765.845263 1083.91899,764.920026 L1083.91899,764.611613 L1012.8335,709.911553 L996.981946,643.972939 C995.228287,636.764334 998.016848,629.211393 1004.03256,624.87603 L1029.91769,606.025852 L1029.56023,605.483046 C1029.19044,604.927903 1028.82065,604.348087 1028.45086,603.755935 L1028.06875,603.126773 L1001.99873,622.100317 C994.895452,627.253919 991.608264,636.192758 993.678511,644.725465 L1009.77659,711.848385 Z" id="Path" fill="#2DA2EA" fill-rule="nonzero"></path>
                                <polygon id="Path" fill="#2DA2EA" fill-rule="nonzero" points="926.473698 706.18862 927.108929 707.826047 926.852394 708.260213 927.157793 709.314617 925.362044 710.741163 920.304629 719.126773 931.066906 710.579901 903.507659 615.42307 883.045895 579.126773 881.066906 580.280415 883.656694 587.140241 900.294856 616.601521 925.2521 702.727695"></polygon>
                                <path d="M1084.06691,771.734313 L1084.06691,771.300969 L973.519841,718.445437 C970.881015,711.759565 951.879004,662.383163 947.735801,618.281171 L947.735801,618.281171 C946.428719,604.352271 950.732225,584.604187 953.420374,574.067748 L953.63,573.250586 L952.779164,573.250586 C952.08863,573.250586 951.398097,573.176298 950.707563,573.126773 L950.140339,573.126773 L949.992367,573.696311 C947.291887,584.344181 942.97605,604.364653 944.320125,618.689752 C948.783933,666.196587 970.363115,719.906424 970.585072,720.438818 L970.831691,721.05788 L1084.06691,775.126773 L1084.06691,774.037224 C1084.06691,773.294349 1084.06691,772.526712 1084.06691,771.734313 Z" id="Path" fill="#2DA2EA" fill-rule="nonzero"></path>
                                <path d="M958.51908,719.562152 C958.312124,718.991852 937.178211,660.907976 932.807776,613.771392 C931.444297,599.104748 936.946906,577.904443 938.760819,570.92446 L938.91908,570.304568 L938.322558,570.093805 C937.689515,569.883042 937.105167,569.647483 936.435602,569.399526 L935.729515,569.126773 L935.534732,569.870644 C933.672124,577.011799 928.011254,598.782404 929.447776,614.106133 C933.477341,657.49857 951.847776,710.809278 954.830384,719.2894 L906.292993,742.758509 L903.066906,748.126773 L959.066906,721.049893 L958.51908,719.562152 Z" id="Path" fill="#2DA2EA" fill-rule="nonzero"></path>
                                <polygon id="Path" fill="#19C2C2" fill-rule="nonzero" points="872.066906 422.942114 863.44399 413.076118 835.959216 411.365681 837.155815 411.427654 837.155815 411.427654 837.155815 411.427654 837.155815 408.316642 823.475108 407.89523 798.284844 407.126773 798.284844 407.126773 798.284844 407.126773 798.272507 409.494117 799.950214 409.580878 773.723719 409.494117 767.962772 414.290776 764.372974 417.290237 762.02912 419.409691 761.066906 461.476513 763.472441 464.612313 769.813183 472.222516 788.169262 472.643928 804.995668 473.028157 861.642923 476.126773 871.659816 465.455137"></polygon>
                                <path d="M819.59205,637.821087 C817.99984,637.525495 816.490325,636.88942 815.166849,635.956412 C810.96108,632.994869 806.633405,626.511163 810.510027,602.40445 C811.824814,594.450641 813.554175,586.570902 815.691047,578.797421 L819.01909,567 L826.638236,577.371493 C829.971598,582.044096 832.91926,586.980026 835.452065,592.130456 C841.193854,603.806003 843.168737,613.702186 841.340142,621.538696 C839.930941,627.735381 835.795201,632.963046 830.088186,635.761413 C826.93396,637.643303 823.223794,638.371355 819.59205,637.821087 L819.59205,637.821087 Z M822.529226,585 C822.062575,587.279867 823.95311,601.393328 823.546286,603.866199 C820.913895,619.632262 822.289918,625.325898 822.983911,627.038814 C825.376993,634.276486 828.966616,629.451371 829.612748,629.10155 C832.675893,627.461011 833.094683,622.756524 833.836538,619.53576 C835.332214,613.118357 826.16671,592.418614 822.529226,585.024126 L822.529226,585 Z" id="Shape" fill="#013876" fill-rule="nonzero"></path>
                                <path d="M809.066906,465.126773 L811.077974,469.545844 L812.88539,577.641224 C812.88539,577.641224 823.398948,582.931834 832.066906,580.476795 L828.184781,470.650612 L829.024848,466.427944 L809.066906,465.126773 Z" id="Path" fill="url(#linearGradient-10)" fill-rule="nonzero"></path>
                                <path d="M813.066906,563.126773 L813.066906,565.026478 C817.161503,567.772832 821.785359,569.66813 826.654081,570.5958 C828.111548,570.86767 829.58568,571.045045 831.066906,571.126773 L831.066906,569.687245 C824.545163,569.261398 818.290754,566.981849 813.066906,563.126773 Z" id="Path" fill="#27AAE1" fill-rule="nonzero" opacity="0.6"></path>
                                <path d="M831.066906,560.126773 L831.066906,558.608255 C824.374456,557.647143 818.111579,554.696117 813.066906,550.126773 L813.066906,552.311959 C817.715401,556.075009 823.190072,558.64164 829.025043,559.79344 C829.681356,559.929243 830.374131,560.040354 831.066906,560.126773 Z" id="Path" fill="#27AAE1" fill-rule="nonzero" opacity="0.6"></path>
                                <path d="M830.066906,547.126773 L830.066906,545.558202 C823.87507,544.918679 817.977279,542.340502 813.066906,538.126773 L813.066906,540.235345 C817.131113,543.411744 821.758025,545.602586 826.643619,546.663916 C827.776332,546.886168 828.919094,547.040679 830.066906,547.126773 L830.066906,547.126773 Z" id="Path" fill="#27AAE1" fill-rule="nonzero" opacity="0.6"></path>
                                <path d="M830.066906,534.126773 L830.066906,532.492222 C823.982704,532.203031 818.092716,529.997595 813.066906,526.126773 L813.066906,528.173285 C816.753302,530.760679 820.831132,532.562542 825.096767,533.4889 C826.737602,533.8365 828.398672,534.049684 830.066906,534.126773 L830.066906,534.126773 Z" id="Path" fill="#27AAE1" fill-rule="nonzero" opacity="0.6"></path>
                                <path d="M829.066906,521.125863 L829.066906,519.44115 C823.081007,519.491047 817.198912,517.652242 812.066906,514.126773 L812.066906,516.126513 C815.327927,518.180851 818.850623,519.636744 822.506343,520.44102 C824.668411,520.913794 826.865754,521.14317 829.066906,521.125863 L829.066906,521.125863 Z" id="Path" fill="#27AAE1" fill-rule="nonzero" opacity="0.6"></path>
                                <path d="M829.066906,509.126773 L829.066906,507.572622 C823.031287,507.390055 817.156179,505.507999 812.066906,502.126773 L812.066906,504.02208 C815.620958,506.180987 819.500875,507.69764 823.541906,508.50764 C825.364115,508.871497 827.212028,509.078574 829.066906,509.126773 L829.066906,509.126773 Z" id="Path" fill="#27AAE1" fill-rule="nonzero" opacity="0.6"></path>
                                <path d="M829.066906,497.126773 L829.066906,495.662488 C822.99181,495.324841 817.12124,493.413206 812.066906,490.126773 L812.066906,491.948202 C815.843592,494.184134 819.999516,495.752108 824.341274,496.579154 C825.902086,496.863985 827.480842,497.046936 829.066906,497.126773 Z" id="Path" fill="#27AAE1" fill-rule="nonzero" opacity="0.6"></path>
                                <path d="M828.066906,484.126773 L828.066906,482.753783 C822.309735,482.274887 816.788107,480.332997 812.066906,477.126773 L812.066906,478.8824 C815.840553,481.212352 820.039688,482.831601 824.441175,483.654105 C825.639509,483.877397 826.850025,484.035206 828.066906,484.126773 Z" id="Path" fill="#27AAE1" fill-rule="nonzero" opacity="0.6"></path>
                                <path d="M828.066906,475.126773 L828.066906,473.604496 C821.230448,472.602429 814.84057,469.655734 809.683054,465.126773 L809.066906,465.126773 L810.248905,467.787665 C814.952206,471.336034 820.426982,473.76339 826.24361,474.879249 C826.796886,474.953506 827.425609,475.052516 828.066906,475.126773 Z" id="Path" fill="#27AAE1" fill-rule="nonzero" opacity="0.6"></path>
                                <polygon id="Path" fill="#19C2C2" fill-rule="nonzero" points="872.066906 422.942114 863.44399 413.076118 835.94688 411.365681 837.155815 411.427654 837.155815 408.316642 798.284844 407.126773 798.272507 409.494117 799.950214 409.580878 773.723719 409.494117 764.372974 417.290237 762.02912 419.409691 761.066906 461.476513 763.472441 464.612313 769.813183 472.222516 804.995668 473.028157 861.642923 476.126773 871.659816 465.455137"></polygon>
                                <polygon id="Path" fill="url(#linearGradient-11)" fill-rule="nonzero" style="mix-blend-mode: overlay;" points="762.031801 419.971855 761.066906 462.13869 763.479143 465.281946 796.038153 466.126773 797.745275 463.269268 798.066906 420.08367 795.790744 417.126773 764.382185 417.847362"></polygon>
                                <polygon id="Path" fill="url(#linearGradient-12)" fill-rule="nonzero" style="mix-blend-mode: overlay;" points="764.066906 417.126773 773.384802 410.126773 807.066906 410.226932 795.27817 416.481304"></polygon>
                                <polygon id="Path" fill="url(#linearGradient-13)" fill-rule="nonzero" style="mix-blend-mode: overlay;" points="797.406645 419.941219 814.066906 417.126773 812.62955 467.126773 797.066906 463.228891"></polygon>
                                <polygon id="Path" fill="#49E8E3" fill-rule="nonzero" points="795.066906 417.151773 797.463068 420.126773 814.066906 417.301773 807.555597 410.126773"></polygon>
                                <polygon id="Path" fill="url(#linearGradient-14)" fill-rule="nonzero" style="mix-blend-mode: overlay;" points="795.066906 465.861613 804.45592 473.126773 812.066906 466.848533 796.832143 463.126773"></polygon>
                                <polygon id="Path" fill="url(#linearGradient-15)" fill-rule="nonzero" points="763.066906 465.126773 769.480453 472.360941 805.066906 473.126773 795.908261 465.927952"></polygon>
                                <polygon id="Path" fill="url(#linearGradient-16)" fill-rule="nonzero" style="mix-blend-mode: overlay;" points="813.437013 417.126773 868.066906 420.040674 866.958365 469.126773 812.066906 467.338414"></polygon>
                                <polygon id="Path" fill="#49E8E3" fill-rule="nonzero" points="813.309231 417.239537 807.066906 410.126773 863.659825 413.596414 868.066906 420.126773"></polygon>
                                <polygon id="Path" fill="url(#linearGradient-17)" fill-rule="nonzero" style="mix-blend-mode: overlay;" points="798.066906 409.878935 798.079279 407.126773 837.066906 408.510059 837.066906 412.126773"></polygon>
                                <polygon id="Path" fill="url(#linearGradient-18)" fill-rule="nonzero" style="mix-blend-mode: overlay;" points="863.066906 414.126773 872.066906 424.126773 867.611971 420.747376"></polygon>
                                <polygon id="Path" fill="url(#linearGradient-19)" fill-rule="nonzero" style="mix-blend-mode: overlay;" points="868.089895 420.126773 872.066906 423.48499 871.687596 466.305372 867.066906 469.126773"></polygon>
                                <polygon id="Path" fill="url(#linearGradient-20)" fill-rule="nonzero" points="805.066906 473.234743 812.441956 467.126773 867.066906 468.781015 861.984939 476.126773"></polygon>
                                <polygon id="Path" fill="url(#linearGradient-21)" fill-rule="nonzero" style="mix-blend-mode: overlay;" points="861.066906 476.126773 872.066906 466.126773 866.621093 468.751628"></polygon>
                                <polygon id="Path" fill="url(#linearGradient-22)" fill-rule="nonzero" points="795.066906 465.861613 804.45592 473.126773 812.066906 466.848533 796.832143 463.126773"></polygon>
                                <path d="M806.066906,532.490367 C806.066906,532.490367 826.337795,509.774348 832.38129,514.872333 C838.424785,519.970317 839.066906,548.996341 839.066906,548.996341 L836.208837,563.215719 C836.208837,563.215719 811.694911,568.588594 811.380145,561.316469 C811.06538,554.044345 806.066906,532.490367 806.066906,532.490367 Z" id="Path" fill="#1FE0DF" fill-rule="nonzero"></path>
                                <path d="M1017.9492,739.842089 L1017.9492,739.497272 L1015.22045,739.755885 L1024.72785,843.016212 L996.897106,866.414497 L966.140064,839.949805 L935.741093,731.332502 L935.654662,731 L933,731.738893 L963.398971,840.356196 L962.979164,840.836477 L963.72,841.476851 L969.177492,861.008262 L969.288617,861.365394 L998.00836,889 L1029,860.14622 L1017.9492,739.842089 Z M998.745432,885 L972.275362,859.989371 L968,845 L997.506196,869.962041 L1025.76076,846.591254 L1027,859.199818 L998.745432,885 Z" id="Shape" fill="#2DA2EA" fill-rule="nonzero"></path>
                                <path d="M932.302147,739.126773 L899.912528,754.94716 C891.38765,764.939632 881.46041,776.817243 870.106207,790.678563 C861.713768,801.151375 854.471599,812.498868 848.504927,824.524826 C838.26326,844.69294 830.813852,866.165119 826.362385,888.348504 C822.57355,907.569535 826.965154,923.562418 841.259395,910.193944 C841.579232,909.910557 885.704397,869.139795 892.310256,853.689043 C902.286701,830.377383 926.139139,820.742226 930.075591,804.847912 C936.86597,777.236163 933.11404,746.741259 932.302147,739.126773 Z" id="Path" fill="url(#linearGradient-23)" fill-rule="nonzero"></path>
                                <path d="M1028.64153,860.486399 C1028.64153,860.486399 1095.16842,938.502307 1113.93368,913.007073 C1132.69894,887.51184 1061.04412,771.092657 1061.04412,771.092657 L1019.06691,749.126773 L1028.45573,856.895347 L1028.64153,860.486399 Z" id="Path" fill="url(#linearGradient-24)" fill-rule="nonzero"></path>
                                <path d="M1081.06691,532.975845 L1019.38014,488.658923 L1010.22516,488.126773 L1005.06691,496.517411 L1051.44127,534.126773 C1056.89928,533.817384 1075.74628,531.441274 1081.06691,532.975845 Z" id="Path" fill="url(#linearGradient-25)" fill-rule="nonzero"></path>
                                <path d="M1277.28131,1019.19306 L1253.33517,1025.62593 C1253.33517,1025.62593 1235.3112,1018.50162 1227.32915,975.089013 C1219.34711,931.676402 1188.66957,916.020204 1188.66957,916.020204 L1154.33819,899.400928 L1076.90866,778.016009 C1076.90866,777.040583 1076.90866,776.077505 1076.81057,775.126773 L1070.06691,775.497188 L1147.07955,912.550653 C1147.07955,912.550653 1193.67214,918.860051 1213.29007,967.557246 C1232.908,1016.25444 1243.73465,1045.0974 1267.00642,1037.93605 C1275.22143,1035.39254 1287.44585,1083.1637 1294.06691,1084.12677 C1290.96482,1005.84579 1277.28131,1019.19306 1277.28131,1019.19306 Z" id="Path" fill="url(#linearGradient-26)" fill-rule="nonzero" opacity="0.22" style="mix-blend-mode: multiply;"></path>
                                <path d="M880.066906,895.248321 C880.066906,895.248321 920.455724,867.217092 948.882954,898.088006 C977.310184,928.958921 1011.74282,923.803612 1011.74282,923.803612 C1011.74282,923.803612 1025.99335,891.860199 1036.0721,903.548002 C1039.61627,907.630812 1046.11393,912.676433 1053.06691,917.50268 C1043.55424,905.888001 1042.28671,895.869883 1028.29461,888.362389 C1009.07238,877.954271 1005.86048,914.516744 1005.86048,914.516744 C963.391917,916.101118 952.943987,887.533639 943.357488,881.976143 C933.770989,876.418647 914.511849,881.976143 914.511849,881.976143 C919.361446,879.962633 924.090649,877.675767 928.676239,875.126773 C912.050617,875.699586 890.416387,879.70927 880.066906,895.248321 Z" id="Path" fill="url(#linearGradient-27)" fill-rule="nonzero" opacity="0.22" style="mix-blend-mode: multiply;"></path>
                                <path d="M951.066906,796.156376 C951.066906,796.156376 964.334058,814.34386 978.821886,814.34386 C993.309714,814.34386 1009.5854,739.126773 1009.5854,739.126773 L1018.06849,739.709467 L1029.06691,860.959362 L998.24174,886.126773 L969.463365,862.062761 L951.066906,796.156376 Z" id="Path" fill="url(#linearGradient-28)" fill-rule="nonzero" opacity="0.22" style="mix-blend-mode: multiply;"></path>
                                <polygon id="Path" fill="#60C0ED" fill-rule="nonzero" points="1671.90639 641.126773 1465.71381 627.063768 1394.78919 627.063768 1363.85845 577.108616 1359.26514 544.95755 1334.02665 542.661045 1333.74265 542.414109 1294.36615 507.670214 1196.65959 533.475026 1196.06691 531.240255 1294.95884 505.126773 1334.98976 540.438621 1361.29015 542.8339 1366.08102 576.306074 1396.08569 624.767264 1465.82493 624.767264 1672.06691 638.830269"></polygon>
                                <path d="M1017.06691,666.915918 L1026.08721,717.144891 L1082.77215,782.126773 C1083.27739,775.243727 1083.73333,758.689876 1078.70562,742.185366 C1073.49307,725.150442 1044.95343,704.180586 1033.23444,696.18737 L1031.71873,668.038423 L1061.42904,637.706143 C1054.03535,631.982606 1046.64166,626.185057 1041.86041,622.126773 L1017.06691,666.915918 Z" id="Path" fill="url(#linearGradient-29)" fill-rule="nonzero" style="mix-blend-mode: multiply;"></path>
                            </g>
                        </g>
                    </g>
                </g>
            </g>
        </g>
    </g>
</svg>