<?xml version="1.0" encoding="UTF-8"?>
<svg width="664px" height="1210px" viewBox="0 0 664 1210" version="1.1" xmlns="http://www.w3.org/2000/svg" xmlns:xlink="http://www.w3.org/1999/xlink">
    <title>7</title>
    <defs>
        <linearGradient x1="50.3068735%" y1="0%" x2="50%" y2="88.7761493%" id="linearGradient-1">
            <stop stop-color="#000B12" offset="0%"></stop>
            <stop stop-color="#2256B9" offset="100%"></stop>
        </linearGradient>
        <rect id="path-2" x="0" y="0" width="664" height="1210" rx="24"></rect>
        <linearGradient x1="0%" y1="50%" x2="100%" y2="50%" id="linearGradient-4">
            <stop stop-color="#15C7B6" offset="0%"></stop>
            <stop stop-color="#2E3192" offset="100%"></stop>
        </linearGradient>
        <linearGradient x1="50%" y1="0%" x2="50%" y2="100%" id="linearGradient-5">
            <stop stop-color="#1C4C9C" offset="0%"></stop>
            <stop stop-color="#1775A9" offset="100%"></stop>
        </linearGradient>
        <linearGradient x1="50%" y1="100%" x2="50%" y2="0%" id="linearGradient-6">
            <stop stop-color="#15C7B6" offset="0%"></stop>
            <stop stop-color="#2E3192" offset="100%"></stop>
        </linearGradient>
        <linearGradient x1="0%" y1="50%" x2="100%" y2="50%" id="linearGradient-7">
            <stop stop-color="#15C7B6" stop-opacity="0" offset="0%"></stop>
            <stop stop-color="#2E3192" offset="100%"></stop>
        </linearGradient>
        <linearGradient x1="0.000292430632%" y1="50.001844%" x2="100.012402%" y2="50.001844%" id="linearGradient-8">
            <stop stop-color="#2B3990" stop-opacity="0" offset="0%"></stop>
            <stop stop-color="#013876" offset="100%"></stop>
        </linearGradient>
        <linearGradient x1="-0.00404951941%" y1="50.0026442%" x2="100.005507%" y2="50.0026442%" id="linearGradient-9">
            <stop stop-color="#2B3990" stop-opacity="0" offset="0%"></stop>
            <stop stop-color="#013876" offset="100%"></stop>
        </linearGradient>
        <linearGradient x1="89.4329095%" y1="14.8428248%" x2="-43.2134954%" y2="168.677752%" id="linearGradient-10">
            <stop stop-color="#15C7B6" stop-opacity="0" offset="0%"></stop>
            <stop stop-color="#2E3192" offset="100%"></stop>
        </linearGradient>
        <linearGradient x1="0%" y1="50.0037277%" x2="100%" y2="50.0037277%" id="linearGradient-11">
            <stop stop-color="#15C7B6" stop-opacity="0" offset="0%"></stop>
            <stop stop-color="#2E3192" offset="100%"></stop>
        </linearGradient>
        <linearGradient x1="0%" y1="50%" x2="100%" y2="50%" id="linearGradient-12">
            <stop stop-color="#15C7B6" offset="0%"></stop>
            <stop stop-color="#2E3192" offset="100%"></stop>
        </linearGradient>
        <linearGradient x1="0%" y1="49.9946033%" x2="100%" y2="49.9946033%" id="linearGradient-13">
            <stop stop-color="#15C7B6" offset="0%"></stop>
            <stop stop-color="#2E3192" offset="100%"></stop>
        </linearGradient>
        <linearGradient x1="0%" y1="50.0140331%" x2="100%" y2="50.0140331%" id="linearGradient-14">
            <stop stop-color="#15C7B6" offset="0%"></stop>
            <stop stop-color="#2E3192" offset="100%"></stop>
        </linearGradient>
        <linearGradient x1="0%" y1="50%" x2="100%" y2="50%" id="linearGradient-15">
            <stop stop-color="#15C7B6" offset="0%"></stop>
            <stop stop-color="#2E3192" offset="100%"></stop>
        </linearGradient>
        <linearGradient x1="0%" y1="50.0066676%" x2="100%" y2="50.0066676%" id="linearGradient-16">
            <stop stop-color="#15C7B6" offset="0%"></stop>
            <stop stop-color="#2E3192" offset="100%"></stop>
        </linearGradient>
        <linearGradient x1="50%" y1="100%" x2="50%" y2="0%" id="linearGradient-17">
            <stop stop-color="#15C7B6" offset="0%"></stop>
            <stop stop-color="#2E3192" offset="100%"></stop>
        </linearGradient>
        <linearGradient x1="49.9892357%" y1="100%" x2="49.9892357%" y2="0%" id="linearGradient-18">
            <stop stop-color="#15C7B6" offset="0%"></stop>
            <stop stop-color="#2E3192" offset="100%"></stop>
        </linearGradient>
        <linearGradient x1="24.4744658%" y1="14.5745165%" x2="75.5258913%" y2="85.4366198%" id="linearGradient-19">
            <stop stop-color="#15C7B6" offset="0%"></stop>
            <stop stop-color="#2E3192" offset="100%"></stop>
        </linearGradient>
    </defs>
    <g id="⚡-Active---THORChain.org" stroke="none" stroke-width="1" fill="none" fill-rule="evenodd">
        <g id="RUNE---FINAL" transform="translate(-854.000000, -5726.000000)">
            <g id="Content" transform="translate(-598.000000, 209.000000)">
                <g id="Illustrations" transform="translate(768.000000, 158.000000)">
                    <g id="7" transform="translate(684.000000, 5359.000000)">
                        <mask id="mask-3" fill="white">
                            <use xlink:href="#path-2"></use>
                        </mask>
                        <use id="Background" fill="url(#linearGradient-1)" xlink:href="#path-2"></use>
                        <g id="Thorchain_Pays" mask="url(#mask-3)">
                            <g transform="translate(-95.000000, 193.663337)" id="Illustration">
                                <g transform="translate(0.000000, 0.336663)" id="Group">
                                    <polyline id="Path" fill="url(#linearGradient-4)" fill-rule="nonzero" style="mix-blend-mode: overlay;" points="491.605521 416.479036 540.75463 402.763472 561.912673 410.870895 506.589511 426.374562 491.605521 416.479036"></polyline>
                                    <polygon id="Triangle" fill="url(#linearGradient-5)" points="646.313514 202.270376 783.332031 266.060956 783.332031 654.941406 80 677.535156 80 377.923062"></polygon>
                                    <polygon id="Triangle" fill="#102148" points="162.726227 571.733781 790.390625 590.098761 819 1056 63 1056 23 581.824219"></polygon>
                                    <polygon id="Path" fill="#0B1933" fill-rule="nonzero" points="474.52853 1016.54915 357.825892 1083.29399 30.023789 1100 0 1052.35621 27.818652 946.182029 56 835 188.539217 835 492 864.096952"></polygon>
                                    <polygon id="Path" fill="#071223" fill-rule="nonzero" transform="translate(630.812500, 939.500000) scale(-1, 1) translate(-630.812500, -939.500000) " points="815 1063 446.625 1051.44519 482.364411 816 789.625 862.867684"></polygon>
                                    <path d="M664.793275,509.14545 C662.861855,509.14545 660.956688,508.697097 659.227503,507.834851 C653.692146,505.0511 647.22409,497.776771 646.402911,465.895705 C645.987252,449.884054 647.153124,434.949329 647.203814,434.319429 L648.471066,418.368736 L659.622886,429.808532 C664.557496,435.04586 669.072742,440.664608 673.126725,446.612638 C682.382735,460.206286 686.873877,472.428377 686.478494,482.943643 C686.29872,491.043552 682.68107,498.682349 676.533099,503.943695 C671.991267,507.956767 667.976612,509.14545 664.793275,509.14545 Z M655.476437,439.805654 C655.425747,442.853558 660.819172,460.71427 660.88,464.016165 C661.295659,485.117814 664.184994,492.168629 665.401556,494.210724 C669.862284,502.937887 673.045621,495.815953 673.704592,495.226692 C676.969034,492.341344 676.411443,486.082983 676.583789,481.76512 C676.918344,473.088756 661.468005,448.502338 655.476437,439.815814 L655.476437,439.805654 Z" id="Shape" fill="#013876" fill-rule="nonzero"></path>
                                    <path d="M191.287026,721.330302 C191.287026,721.330302 238.003011,679.198122 268.33596,679.198122 C298.668908,679.198122 430.676035,604.290824 430.676035,590.25015 C430.676035,576.209477 389.799548,462.664928 389.799548,462.664928 C389.799548,462.664928 260.15458,503.628745 222.785847,551.623059 C185.417114,599.617372 87.3419322,671.009422 106.026299,706.121266 C124.710665,741.233109 191.287026,721.330302 191.287026,721.330302 Z" id="Path" fill="#055CBF" fill-rule="nonzero"></path>
                                    <polygon id="Path" fill="url(#linearGradient-6)" fill-rule="nonzero" points="180.53059 222.866073 242.382635 655.007931 500.273526 747.521949 750.003312 694.102368 665.827353 590.057116 415.296662 77.0137511 350.170038 99.9238225"></polygon>
                                    <path d="M196.132999,145.90652 C196.132999,145.90652 201.830565,154.034262 223.718545,152.368075 L232.974555,174.892079 C232.974555,174.892079 189.229009,210.623662 167.908758,262.702166 C157.243563,288.741418 161.917189,318.580389 192.49345,356.872212 C220.261481,391.628466 220.200652,470.538677 220.200652,470.538677 L199.255508,663.247429 L260.174856,529.312408 L263.88537,440.059646 L336.139021,389.119026 L474.735859,443.879685 L561.355082,449.203356 L506.721305,373.076896 L512.043764,254.208676 C512.043764,254.208676 540.034831,48.5361766 366.786248,111.31282 L320.151368,109.971743 L254.842258,92.5986955 L196.132999,145.90652 Z" id="Path" fill="#1FE0DF" fill-rule="nonzero"></path>
                                    <path d="M230.409636,11.9918187 C230.409636,11.9918187 196.092447,20.1195603 188.428105,37.8888352 C180.763764,55.6581102 213.10404,41.1399318 213.10404,41.1399318 C213.10404,41.1399318 286.523563,3.90471591 230.409636,11.9918187 Z" id="Path" fill="#0A0C1C" fill-rule="nonzero"></path>
                                    <path d="M245.859975,194.317381 C251.770439,194.317381 288.743789,143.183727 284.313476,115.021102 C283.55333,109.569383 282.024104,104.253548 279.771644,99.2329645 L257.356487,93.2692342 L237.830665,108.041404 L196.132999,145.90652 C196.132999,145.90652 201.830565,154.034262 223.718545,152.368075 L229.892597,167.282481 C235.083262,179.342017 242.321807,194.317381 245.859975,194.317381 Z" id="Path" fill="#19C2C2" fill-rule="nonzero"></path>
                                    <path d="M176.110414,58.1980294 C176.110414,58.1980294 181.929636,77.5014156 183.014404,77.1153478 C184.099172,76.7292801 180.469762,91.9992745 180.469762,91.9992745 C180.469762,91.9992745 191.003162,149.909433 200.451794,148.73091 C209.900427,147.552388 237.861079,133.836824 256.748206,132.637982 C275.635332,131.43914 282.174354,102.057355 282.174354,102.057355 L282.904291,81.9411944 C282.904291,81.9411944 294.522459,72.6857287 294.522459,63.8366501 C294.522459,54.9875715 294.157491,33.2560225 282.539322,37.6856417 C270.921154,42.1152608 269.826248,49.7553379 269.826248,49.7553379 L263.652196,52.5695684 C263.652196,52.5695684 262.922258,9.11663017 233.8667,9.11663017 C204.811142,9.11663017 188.103689,13.1398622 176.110414,58.1980294 Z" id="Path" fill="#1FE0DF" fill-rule="nonzero"></path>
                                    <path d="M279.508055,85.4869216 C279.508055,85.4869216 272.228959,126.765689 322.290489,114.767111 L345.70931,110.327332 C345.70931,110.327332 311.39212,127.436228 289.950213,24.1021536 C289.950213,24.1021536 283.086775,-7.24044968 226.972848,1.64926763 C226.972848,1.64926763 192.665797,10.5389849 184.991317,30.096363 C177.316838,49.6537411 209.707804,33.6725693 209.707804,33.6725693 C209.707804,33.6725693 249.803664,2.17757083 251.425747,30.6246662 C253.047829,59.0717616 262.141631,67.8700418 262.141631,67.8700418 C262.141631,67.8700418 271.428055,46.5347203 281.920903,59.4273503 C288.926274,68.022437 279.508055,85.4869216 279.508055,85.4869216 Z" id="Path" fill="#03807F" fill-rule="nonzero"></path>
                                    <path d="M366.786248,111.302661 C366.786248,111.302661 443.155935,38.6000126 518.369887,147.460951 L590.927679,209.821048 C620.571242,232.558405 634.095358,268.87925 639.306299,305.951911 L661.538971,417.586441 L660.332547,472.02199 C660.089235,483.33987 654.12808,497.217989 642.844467,497.898687 C623.126023,499.087369 605.120903,504.136729 592.154379,490.228131 C572.658971,469.238238 590.501882,441.268648 590.501882,441.268648 L607.209335,406.370158 C607.209335,406.370158 541.170289,315.430889 539.771242,276.326293 C539.771242,276.326293 486.718996,254.503307 435.886976,224.887849 C389.049335,197.619276 340.863338,180.540859 366.786248,111.302661 Z" id="Path" fill="#1FE0DF" fill-rule="nonzero"></path>
                                    <polygon id="Path" fill="#19C2C2" fill-rule="nonzero" points="504.247629 158.677234 482.825997 196.318837 414.962108 211.040209 496.269009 209.668653"></polygon>
                                    <path d="M385.440201,136.823769 L386.241104,194.947281 C400.261982,205.726698 429.723061,227.590323 447.444316,237.912555 C498.245922,267.528013 539.811794,276.346612 539.811794,276.346612 C540.044969,282.767528 542.021882,290.57016 545.154529,299.165247 L540.318695,265.71959 C429.398645,239.263792 385.440201,136.823769 385.440201,136.823769 Z" id="Path" fill="#19C2C2" fill-rule="nonzero"></path>
                                    <path d="M394.584693,118.140123 C394.584693,118.140123 378.13069,157.762863 405.006575,198.452369 C413.329887,211.040209 427.310213,215.022802 445.477541,226.655633 C465.337917,239.395867 489.932748,259.562826 511.96266,267.842963 L506.721305,373.056577 L559.753275,446.897109 L336.139021,389.078388 L276.152371,390.277229 L171.193476,255.702149 C171.193476,255.702149 166.306951,232.995271 188.215207,217.044578 C210.123463,201.093885 259.688231,204.924084 259.688231,204.924084 L306.475182,184.472654 L394.584693,118.140123 Z" id="Path" fill="#003876" fill-rule="nonzero"></path>
                                    <path d="M324.054504,106.822243 C324.054504,106.822243 305.552622,155.68013 294.05611,196.003887 C294.05611,196.003887 381.60803,165.667092 385.440201,136.864408 L414.465345,77.0543898 C414.465345,77.0543898 331.303187,93.1981164 324.054504,106.822243 Z" id="Path" fill="#025D94" fill-rule="nonzero"></path>
                                    <path d="M231.859373,173.195413 L259.302986,222.358089 C259.302986,222.358089 201.719046,234.641139 186.795885,233.767406 L186.795885,221.443718 L231.859373,173.195413 Z" id="Path" fill="#025D94" fill-rule="nonzero"></path>
                                    <path d="M218.183187,449.833256 C219.653199,462.309339 220.21079,470.548837 220.21079,470.548837 L203.229611,626.337323 L216.185997,625.951255 L260.144442,529.312408 L263.104743,457.910199 L241.561455,467.29774 L218.183187,449.833256 Z" id="Path" fill="#003876" fill-rule="nonzero"></path>
                                    <path d="M177.093802,334.683477 C181.689961,342.426979 186.836481,349.828812 192.49345,356.831573 C196.712482,362.279417 200.23412,368.235304 202.976161,374.560209 L202.742986,353.956384 L177.093802,334.683477 Z" id="Path" fill="#19C2C2" fill-rule="nonzero"></path>
                                    <path d="M229.720251,329.57316 C233.856562,336.684934 246.863639,365.335223 253.037691,373.056577 C257.092898,378.136415 257.315935,401.087126 260.266098,407.680756 L278.747704,391.577668 L229.720251,329.57316 Z" id="Path" fill="#19C2C2" fill-rule="nonzero"></path>
                                    <polyline id="Path" fill="url(#linearGradient-7)" fill-rule="nonzero" points="491.605521 416.479036 516.839046 421.629992 600.751418 500.814514 544.48542 560.502616 472.323011 490.055417 466.098269 466.36305 491.605521 416.479036"></polyline>
                                    <path d="M442.304341,312.799533 C437.233524,302.084325 436.354529,289.853601 439.840803,278.520783 L454.652447,230.302957 L447.718043,228.159265 L432.886123,276.356772 C428.856006,289.435047 429.868975,303.552649 435.724768,315.918554 L489.182535,429.026237 L498.30675,431.393442 L442.304341,312.799533 Z" id="Path" fill="#2DA2EA" fill-rule="nonzero"></path>
                                    <path d="M277.885972,364.349734 L242.76788,348.73431 L252.27734,360.925923 L274.935809,370.973843 C280.202123,373.342118 284.564889,377.350755 287.375157,382.40348 L301.051343,407.000058 L309.263137,406.837503 L293.721556,378.867912 C290.136845,372.449032 284.58406,367.358198 277.885972,364.349734 Z" id="Path" fill="#2DA2EA" fill-rule="nonzero"></path>
                                    <polygon id="Path" fill="#2DA2EA" fill-rule="nonzero" points="287.800954 197.81231 402.664693 406.278721 412.326223 408.778001 294.157491 194.286902"></polygon>
                                    <polygon id="Path" fill="#2DA2EA" fill-rule="nonzero" points="258.542635 217.93863 359.273977 396.698145 368.97606 399.095829 264.868758 214.362423"></polygon>
                                    <path d="M198.566123,218.659967 C198.566123,218.659967 293.417415,217.003939 327.237842,138.479796 L377.552823,151.687376 C377.552823,151.687376 337.396136,225.568547 310.743287,245.085286 C284.090439,264.602026 236.512723,277.321941 191.11468,251.699236 L198.566123,218.659967 Z" id="Path" fill="#1079B7" fill-rule="nonzero"></path>
                                    <path d="M393.672271,161.166355 C393.672271,184.117065 375.72798,205.167916 352.826198,205.167916 C329.924417,205.167916 315.629812,187.286884 315.629812,164.336174 C315.629812,141.385399 334.192457,122.778546 357.094304,122.772936 C379.996085,122.772936 393.672271,138.215645 393.672271,161.166355 Z" id="Path" stroke="#013876" stroke-width="0.25" fill="#2FA8EF" fill-rule="nonzero"></path>
                                    <path d="M223.18123,223.160704 C239.148607,233.320381 245.829561,255.234804 235.661129,271.236295 C225.492698,287.237786 206.706951,289.279881 190.739573,279.089725 C183.073367,274.196936 177.660902,266.4524 175.693068,257.560125 C173.725233,248.66785 175.363255,239.356388 180.246725,231.674513 C190.405019,215.683181 207.213852,212.980707 223.18123,223.160704 Z" id="Path" fill="#2FA8EF" fill-rule="nonzero"></path>
                                    <path d="M210.80271,288.060824 C203.143192,287.927426 195.679086,285.616115 189.279699,281.395972 C172.065246,270.384668 166.994648,247.486413 177.945395,230.211519 C188.701832,213.295657 207.031368,209.628014 224.641104,220.864617 L224.641104,220.864617 C233.058773,226.296068 239.192118,234.63716 241.875734,244.302991 C244.687748,253.890958 243.270787,264.226553 237.982735,272.699288 C232.670414,281.081022 225.006073,286.252297 215.821029,287.684812 C214.160395,287.939289 212.482642,288.064965 210.80271,288.060824 Z M204.486725,219.879128 C195.859272,219.879128 188.103689,224.390025 182.537917,233.147666 C173.171816,247.885746 177.496767,267.441907 192.199448,276.834277 C199.549511,281.517888 207.629511,283.468546 214.959297,282.330662 C222.542535,281.15214 228.90921,276.824117 233.359799,269.81394 C237.819779,262.637749 238.997163,253.890222 236.593827,245.786304 C234.293213,237.413349 228.999603,230.181011 221.721355,225.46695 L221.721355,225.46695 C215.851443,221.71803 209.991669,219.879128 204.486725,219.879128 Z" id="Shape" fill="#1079B7" fill-rule="nonzero"></path>
                                    <path d="M113.923814,715.996472 C113.923814,715.996472 160.751317,761.65406 258.20808,719.796191 C355.664843,677.938322 408.818469,646.22997 410.045169,658.919407 C411.27187,671.608843 398.487829,703.865817 398.487829,703.865817 L379.225596,730.971835 L437.468507,746.211351 L473.123915,717.957289 L481.416813,654.804738 C483.109862,643.09063 484.24532,598.11374 473.123915,594.141307 C456.000803,588.0455 421.511267,595.065837 410.704141,595.837973 C392.982886,597.107932 292.342785,571.373471 253.108657,619.570978 C213.874529,667.768485 113.923814,715.996472 113.923814,715.996472" id="Path" fill="#0C3270" fill-rule="nonzero"></path>
                                    <path d="M191.287026,721.330302 C191.287026,721.330302 238.003011,679.198122 268.33596,679.198122 C298.668908,679.198122 430.676035,604.290824 430.676035,590.25015 C430.676035,576.209477 389.799548,462.664928 389.799548,462.664928 C389.799548,462.664928 260.15458,503.628745 222.785847,551.623059 C185.417114,599.617372 87.3419322,671.009422 106.026299,706.121266 C124.710665,741.233109 191.287026,721.330302 191.287026,721.330302 Z" id="Path" fill="#055CBF" fill-rule="nonzero"></path>
                                    <path d="M191.287026,721.330302 C191.287026,721.330302 238.003011,679.198122 268.33596,679.198122 C298.668908,679.198122 430.676035,604.290824 430.676035,590.25015 C430.676035,576.209477 389.799548,462.664928 389.799548,462.664928 C389.799548,462.664928 260.15458,503.628745 222.785847,551.623059 C185.417114,599.617372 87.3419322,671.009422 106.026299,706.121266 C124.710665,741.233109 191.287026,721.330302 191.287026,721.330302 Z" id="Path" fill="url(#linearGradient-8)" fill-rule="nonzero"></path>
                                    <path d="M263.88537,523.59251 L241.054555,483.96977 C241.054555,483.96977 208.29862,399.471737 276.152371,390.277229 C344.006123,381.082722 419.280903,392.116131 419.280903,392.116131 C419.280903,392.116131 560.199348,418.897039 561.993777,454.750539 C563.788206,490.604039 626.086324,577.215285 471.045621,601.994737 C471.045621,601.994737 345.881656,569.554888 330.289385,518.075805 L263.88537,523.59251 Z" id="Path" fill="#055CBF" fill-rule="nonzero"></path>
                                    <path d="M263.88537,523.59251 L241.054555,483.96977 C241.054555,483.96977 208.29862,399.471737 276.152371,390.277229 C344.006123,381.082722 419.280903,392.116131 419.280903,392.116131 C419.280903,392.116131 560.199348,418.897039 561.993777,454.750539 C563.788206,490.604039 626.086324,577.215285 471.045621,601.994737 C471.045621,601.994737 345.881656,569.554888 330.289385,518.075805 L263.88537,523.59251 Z" id="Path" fill="url(#linearGradient-9)" fill-rule="nonzero"></path>
                                    <path d="M325.788105,733.67431 C325.788105,733.67431 339.231117,697.394103 305.096412,630.045605 C270.961706,562.697107 259.475332,544.826235 252.753827,497.400863 L289.017516,512.112075 L348.203262,465.976982 C348.203262,465.976982 395.122008,514.936465 395.122008,569.879998 C395.122008,624.823531 396.135809,711.912282 407.530941,722.275152 C418.926073,732.638022 429.256713,773.073537 429.256713,773.073537 C429.256713,773.073537 288.541029,800.037319 270.951568,794.855884 L245.930941,789.552533 L256.62655,769.375414 L325.788105,733.67431 Z" id="Path" fill="#0C3270" fill-rule="nonzero"></path>
                                    <path d="M381.111267,429.371666 C348.365471,426.222166 331.870916,433.293302 325.666449,435.944977 C324.885822,436.280247 324.216713,436.564717 323.851744,436.696793 C322.335277,437.211856 321.112946,438.355382 320.49606,439.836133 C319.482258,442.061103 317.505345,446.653277 330.127177,480.048135 L336.868959,474.785422 C331.455257,460.165647 327.744743,448.11627 327.896813,443.889845 L328.910615,443.473298 C364.160502,428.376018 417.750063,441.085774 468.713877,461.32385 L472.464944,453.988563 C437.701681,440.130764 407.12542,431.870947 381.111267,429.371666 Z" id="Path" fill="#013876" fill-rule="nonzero"></path>
                                    <polyline id="Path" fill="#003876" fill-rule="nonzero" points="440.256462 395.458665 555.150615 612.195053 610.909711 497.055434 540.75463 402.763472 440.256462 395.458665"></polyline>
                                    <path d="M242.524567,612.134094 C231.169987,595.075997 237.080452,554.356012 214.492949,561.620181 C172.75473,609.065872 88.5990464,673.376627 106.016161,706.121266 C124.710665,741.233109 179.121405,709.585716 179.121405,709.585716 C179.121405,709.585716 253.240452,628.237182 242.524567,612.134094 Z" id="Path" fill="url(#linearGradient-10)" fill-rule="nonzero"></path>
                                    <path d="M645.348557,303.066563 C642.90596,285.781367 637.314953,269.09304 628.854003,253.832768 L596.949661,242.657124 L568.72542,266.024381 L552.504592,316.477336 C572.040552,357.8577 607.249887,406.339679 607.249887,406.339679 L600.427001,420.563226 L575.396236,441.349925 L570.965922,465.286124 L582.472572,466.170016 L583.101129,465.631553 C582.686181,474.698146 585.981713,483.541701 592.225345,490.116375 C605.181731,504.024972 623.186851,498.975613 642.915433,497.786931 C654.199046,497.106232 660.150063,483.228114 660.403513,471.910234 L661.609937,417.474685 L645.348557,303.066563 Z" id="Path" fill="#1FE0DF" fill-rule="nonzero"></path>
                                    <path d="M551.146098,316.111588 C569.516186,355.002831 601.390113,400.02036 606.509812,407.162612 C612.126274,404.185827 619.547302,400.94489 626.370188,400.162595 L565.724567,270.890866 L551.146098,316.111588 Z" id="Path" fill="#013876" fill-rule="nonzero"></path>
                                    <path d="M634.470464,400.701058 C643.949511,403.545767 656.003614,416.082809 662.755533,423.824483 L662.856913,419.598057 L646.260979,302.365545 C643.754146,284.663253 638.025854,267.572519 629.360903,251.943068 L596.686073,240.482953 L567.782585,264.45979 L565.704291,270.890866 L626.349912,400.182914 C629.063817,399.801973 631.826685,399.978262 634.470464,400.701058 L634.470464,400.701058 Z" id="Path" fill="#003876" fill-rule="nonzero"></path>
                                    <path d="M551.146098,316.111588 C569.516186,355.002831 601.390113,400.02036 606.509812,407.162612 C612.126274,404.185827 619.547302,400.94489 626.370188,400.162595 L565.724567,270.890866 L551.146098,316.111588 Z" id="Path" fill="url(#linearGradient-11)" fill-rule="nonzero"></path>
                                    <path d="M352.826198,207.900869 C329.326274,207.900869 312.912823,189.979199 312.912823,164.336174 C312.923993,139.882988 332.693263,120.057844 357.094304,120.029823 C380.969335,120.029823 396.399398,136.16339 396.399398,161.146036 C396.399398,186.49443 376.447779,207.900869 352.826198,207.900869 Z M357.094304,125.505889 C335.705559,125.528298 318.373702,142.901728 318.356939,164.336174 C318.356939,186.768741 332.550163,202.445122 352.826198,202.445122 C373.497616,202.445122 390.955282,183.537964 390.955282,161.166355 C390.955282,139.170655 377.97862,125.505889 357.094304,125.505889 Z" id="Shape" fill="#1079B7" fill-rule="nonzero"></path>
                                    <path d="M559.074028,474.704145 L582.198846,456.315129 C582.198846,456.315129 595.682409,456.122096 598.500778,461.293371 C601.319147,466.464647 602.191016,476.075701 602.191016,476.075701 L580.749109,504.278964 L559.074028,474.704145 Z" id="Path" fill="#013876" fill-rule="nonzero"></path>
                                    <polygon id="Path" fill="#19C2C2" fill-rule="nonzero" points="440.063839 520.798599 432.957089 493.743379 462.083614 436.778071 518.217817 421.111849 542.376713 430.367315 624.089134 505.843554 632.250238 529.342887 592.823488 596.274839 545.935157 605.530304 522.485922 601.26324"></polygon>
                                    <g style="mix-blend-mode: overlay;" transform="translate(439.445420, 429.899969)" fill-rule="nonzero" id="Path">
                                        <polygon fill="url(#linearGradient-12)" points="0.618419072 90.8986295 83.0405019 171.363271 127.911368 94.5967519 40.2884818 18.3991749"></polygon>
                                        <polygon fill="url(#linearGradient-13)" points="102.931292 0.467345139 40.2884818 18.3991749 127.911368 94.5967519 184.643714 75.943585"></polygon>
                                    </g>
                                    <polyline id="Path" fill="#49E8E3" fill-rule="nonzero" points="479.733902 448.299144 542.376713 430.367315 624.089134 505.843554 567.356788 524.496721 479.733902 448.299144"></polyline>
                                    <polygon id="Path" fill="url(#linearGradient-14)" fill-rule="nonzero" style="mix-blend-mode: overlay;" points="567.356788 524.496721 585.777566 542.042483 632.250238 529.342887 624.089134 505.843554"></polygon>
                                    <polygon id="Path" fill="url(#linearGradient-15)" fill-rule="nonzero" style="mix-blend-mode: overlay;" points="522.485922 601.26324 567.356788 524.496721 585.777566 542.042483 545.935157 605.530304"></polygon>
                                    <polyline id="Path" fill="url(#linearGradient-16)" fill-rule="nonzero" style="mix-blend-mode: overlay;" points="545.935157 605.530304 585.777566 542.042483 632.250238 529.342887 592.823488 596.274839 545.935157 605.530304"></polyline>
                                    <polyline id="Path" fill="url(#linearGradient-17)" fill-rule="nonzero" style="mix-blend-mode: soft-light;" points="479.926524 448.390581 462.083614 436.778071 518.217817 421.111849 542.376713 430.367315 479.926524 448.12643"></polyline>
                                    <polygon id="Path" fill="url(#linearGradient-18)" fill-rule="nonzero" style="mix-blend-mode: overlay;" points="432.957089 493.743379 462.083614 436.778071 480.048181 448.380422 440.063839 520.798599"></polygon>
                                    <ellipse id="Oval" fill="#49E8E3" fill-rule="nonzero" transform="translate(500.887118, 524.783521) rotate(-49.310000) translate(-500.887118, -524.783521) " cx="500.887118" cy="524.783521" rx="28.634495" ry="34.1860085"></ellipse>
                                    <ellipse id="Oval" fill="#1FE0DF" fill-rule="nonzero" transform="translate(497.936226, 527.733611) rotate(-49.310000) translate(-497.936226, -527.733611) " cx="497.936226" cy="527.733611" rx="28.634495" ry="34.1860085"></ellipse>
                                    <ellipse id="Oval" fill="url(#linearGradient-19)" fill-rule="nonzero" style="mix-blend-mode: overlay;" transform="translate(497.936226, 527.733611) rotate(-49.310000) translate(-497.936226, -527.733611) " cx="497.936226" cy="527.733611" rx="28.634495" ry="34.1860085"></ellipse>
                                </g>
                            </g>
                        </g>
                    </g>
                </g>
            </g>
        </g>
    </g>
</svg>