<svg width="664" height="410" viewBox="0 0 664 410" fill="none" xmlns="http://www.w3.org/2000/svg">
<rect width="664" height="410" rx="48" fill="#4462B7"/>
<mask id="mask0" mask-type="alpha" maskUnits="userSpaceOnUse" x="0" y="0" width="664" height="410">
<rect width="664" height="410" rx="48" fill="white"/>
</mask>
<g mask="url(#mask0)">
<path d="M-110 111.369L-110.391 110.449L-111.737 111.02L-110.716 112.067L-110 111.369ZM242 -38L242.778 -37.3711L241.609 -38.9205L242 -38ZM-256 535L-256.731 534.317L-255.617 535.924L-256 535ZM18.84 241L19.547 240.293L18.8156 239.562L18.1095 240.317L18.84 241ZM-110.716 112.067L-106.504 116.388L-105.072 114.992L-109.284 110.671L-110.716 112.067ZM-98.0812 125.03L-89.658 133.672L-88.2257 132.276L-96.649 123.634L-98.0812 125.03ZM-81.2347 142.314L-72.8114 150.956L-71.3792 149.56L-79.8025 140.918L-81.2347 142.314ZM-64.3882 159.598L-55.9649 168.241L-54.5327 166.845L-62.9559 158.202L-64.3882 159.598ZM-47.5416 176.883L-39.1184 185.525L-37.6862 184.129L-46.1094 175.487L-47.5416 176.883ZM-30.6951 194.167L-22.2719 202.809L-20.8396 201.413L-29.2629 192.771L-30.6951 194.167ZM-13.8486 211.451L-5.42534 220.093L-3.9931 218.697L-12.4164 210.055L-13.8486 211.451ZM2.99792 228.735L11.4212 237.377L12.8534 235.981L4.43015 227.339L2.99792 228.735ZM17.1265 241.629L20.8873 236.979L19.3323 235.721L15.5714 240.371L17.1265 241.629ZM28.409 227.679L35.9307 218.379L34.3757 217.121L26.854 226.421L28.409 227.679ZM43.4524 209.079L50.9741 199.779L49.4191 198.521L41.8974 207.821L43.4524 209.079ZM58.4958 190.479L66.0175 181.179L64.4625 179.921L56.9408 189.221L58.4958 190.479ZM73.5392 171.879L81.0609 162.579L79.5059 161.321L71.9842 170.621L73.5392 171.879ZM88.5826 153.279L96.1043 143.979L94.5493 142.721L87.0276 152.021L88.5826 153.279ZM103.626 134.679L111.148 125.379L109.593 124.121L102.071 133.421L103.626 134.679ZM118.669 116.079L126.191 106.779L124.636 105.521L117.114 114.821L118.669 116.079ZM133.713 97.4789L141.235 88.1789L139.679 86.9212L132.158 96.2212L133.713 97.4789ZM148.756 78.8789L156.278 69.5789L154.723 68.3212L147.201 77.6212L148.756 78.8789ZM163.8 60.2789L171.321 50.9789L169.766 49.7212L162.245 59.0212L163.8 60.2789ZM178.843 41.6789L186.365 32.3789L184.81 31.1212L177.288 40.4212L178.843 41.6789ZM193.886 23.0789L201.408 13.7789L199.853 12.5212L192.331 21.8212L193.886 23.0789ZM208.93 4.47888L216.452 -4.82113L214.897 -6.07883L207.375 3.22118L208.93 4.47888ZM223.973 -14.1211L231.495 -23.4211L229.94 -24.6788L222.418 -15.3788L223.973 -14.1211ZM239.017 -32.7212L242.778 -37.3711L241.222 -38.6289L237.462 -33.9789L239.017 -32.7212ZM241.609 -38.9205L236.109 -36.5867L236.891 -34.7456L242.391 -37.0795L241.609 -38.9205ZM225.109 -31.9189L214.109 -27.2511L214.891 -25.41L225.891 -30.0778L225.109 -31.9189ZM203.109 -22.5833L192.109 -17.9155L192.891 -16.0744L203.891 -20.7422L203.109 -22.5833ZM181.109 -13.2477L170.109 -8.57994L170.891 -6.73884L181.891 -11.4066L181.109 -13.2477ZM159.109 -3.91215L148.109 0.755638L148.891 2.59673L159.891 -2.07105L159.109 -3.91215ZM137.109 5.42342L126.109 10.0912L126.891 11.9323L137.891 7.26452L137.109 5.42342ZM115.109 14.759L104.109 19.4268L104.891 21.2679L115.891 16.6001L115.109 14.759ZM93.1094 24.0946L82.1094 28.7624L82.8906 30.6035L93.8906 25.9357L93.1094 24.0946ZM71.1094 33.4301L60.1094 38.0979L60.8906 39.939L71.8906 35.2712L71.1094 33.4301ZM49.1094 42.7657L38.1094 47.4335L38.8906 49.2746L49.8906 44.6068L49.1094 42.7657ZM27.1094 52.1013L16.1094 56.7691L16.8906 58.6102L27.8906 53.9424L27.1094 52.1013ZM5.10938 61.4369L-5.89062 66.1047L-5.10938 67.9457L5.89062 63.278L5.10938 61.4369ZM-16.8906 70.7724L-27.8906 75.4402L-27.1094 77.2813L-16.1094 72.6135L-16.8906 70.7724ZM-38.8906 80.108L-49.8906 84.7758L-49.1094 86.6169L-38.1094 81.9491L-38.8906 80.108ZM-60.8906 89.4436L-71.8906 94.1114L-71.1094 95.9525L-60.1094 91.2847L-60.8906 89.4436ZM-82.8906 98.7792L-93.8906 103.447L-93.1094 105.288L-82.1094 100.62L-82.8906 98.7792ZM-104.891 108.115L-110.391 110.449L-109.609 112.29L-104.109 109.956L-104.891 108.115ZM-255.269 535.683L-251.228 531.359L-252.689 529.994L-256.731 534.317L-255.269 535.683ZM-243.144 522.712L-235.061 514.065L-236.522 512.699L-244.605 521.346L-243.144 522.712ZM-226.977 505.418L-218.894 496.771L-220.355 495.405L-228.438 504.052L-226.977 505.418ZM-210.81 488.124L-202.727 479.477L-204.188 478.111L-212.271 486.758L-210.81 488.124ZM-194.643 470.83L-186.559 462.183L-188.021 460.817L-196.104 469.464L-194.643 470.83ZM-178.476 453.536L-170.392 444.889L-171.853 443.523L-179.937 452.17L-178.476 453.536ZM-162.309 436.242L-154.225 427.595L-155.686 426.229L-163.77 434.876L-162.309 436.242ZM-146.142 418.948L-138.058 410.301L-139.519 408.935L-147.603 417.582L-146.142 418.948ZM-129.975 401.654L-121.891 393.006L-123.352 391.641L-131.436 400.288L-129.975 401.654ZM-113.808 384.359L-105.724 375.712L-107.185 374.347L-115.269 382.994L-113.808 384.359ZM-97.6407 367.065L-89.5571 358.418L-91.0182 357.052L-99.1017 365.699L-97.6407 367.065ZM-81.4736 349.771L-73.3901 341.124L-74.8511 339.758L-82.9346 348.405L-81.4736 349.771ZM-65.3065 332.477L-57.223 323.83L-58.684 322.464L-66.7676 331.111L-65.3065 332.477ZM-49.1395 315.183L-41.0559 306.536L-42.517 305.17L-50.6005 313.817L-49.1395 315.183ZM-32.9724 297.889L-24.8889 289.242L-26.3499 287.876L-34.4334 296.523L-32.9724 297.889ZM-16.8053 280.595L-8.72177 271.948L-10.1828 270.582L-18.2663 279.229L-16.8053 280.595ZM-0.638245 263.3L7.44531 254.653L5.98428 253.288L-2.09926 261.935L-0.638245 263.3ZM15.5288 246.006L19.5705 241.683L18.1095 240.317L14.0678 244.641L15.5288 246.006ZM18.133 241.707L22.3717 245.944L23.7856 244.53L19.547 240.293L18.133 241.707ZM30.849 254.419L39.3264 262.893L40.7403 261.479L32.263 253.004L30.849 254.419ZM47.8037 271.368L56.281 279.842L57.695 278.428L49.2177 269.953L47.8037 271.368ZM64.7583 288.317L73.2357 296.791L74.6497 295.377L66.1723 286.902L64.7583 288.317ZM81.713 305.266L90.1903 313.74L91.6043 312.326L83.127 303.851L81.713 305.266ZM98.6677 322.214L107.145 330.689L108.559 329.274L100.082 320.8L98.6677 322.214ZM115.622 339.163L124.1 347.638L125.514 346.223L117.036 337.749L115.622 339.163ZM132.577 356.112L141.054 364.587L142.468 363.172L133.991 354.698L132.577 356.112ZM145.617 367.193L140.033 369.511L140.8 371.358L146.383 369.04L145.617 367.193ZM128.867 374.147L117.7 378.782L118.467 380.629L129.633 375.994L128.867 374.147ZM106.533 383.418L95.3666 388.053L96.1334 389.901L107.3 385.265L106.533 383.418ZM84.1999 392.689L73.0333 397.325L73.8001 399.172L84.9667 394.536L84.1999 392.689ZM61.8666 401.96L50.6999 406.596L51.4667 408.443L62.6334 403.808L61.8666 401.96ZM39.5333 411.232L28.3666 415.867L29.1334 417.715L40.3001 413.079L39.5333 411.232ZM17.1999 420.503L6.03326 425.139L6.80008 426.986L17.9667 422.35L17.1999 420.503ZM-5.13339 429.774L-16.3 434.41L-15.5332 436.257L-4.36658 431.621L-5.13339 429.774ZM-27.4667 439.046L-38.6334 443.681L-37.8666 445.528L-26.6999 440.893L-27.4667 439.046ZM-49.8 448.317L-60.9667 452.953L-60.1999 454.8L-49.0332 450.164L-49.8 448.317ZM-72.1333 457.588L-83.3 462.224L-82.5332 464.071L-71.3665 459.435L-72.1333 457.588ZM-94.4667 466.859L-105.633 471.495L-104.867 473.342L-93.6998 468.707L-94.4667 466.859ZM-116.8 476.131L-127.967 480.766L-127.2 482.614L-116.033 477.978L-116.8 476.131ZM-139.133 485.402L-150.3 490.038L-149.533 491.885L-138.366 487.249L-139.133 485.402ZM-161.467 494.673L-172.633 499.309L-171.866 501.156L-160.7 496.521L-161.467 494.673ZM-183.8 503.945L-194.967 508.58L-194.2 510.427L-183.033 505.792L-183.8 503.945ZM-206.133 513.216L-217.3 517.852L-216.533 519.699L-205.366 515.063L-206.133 513.216ZM-228.467 522.487L-239.633 527.123L-238.866 528.97L-227.7 524.334L-228.467 522.487ZM-250.8 531.759L-256.383 534.076L-255.617 535.924L-250.033 533.606L-250.8 531.759Z" fill="#6A8BE9"/>
<path d="M550 111.369L549.609 110.449L548.263 111.02L549.284 112.067L550 111.369ZM902 -38L902.778 -37.3711L901.609 -38.9205L902 -38ZM404 535L403.269 534.317L404.383 535.924L404 535ZM678.84 241L679.547 240.293L678.816 239.562L678.109 240.317L678.84 241ZM549.284 112.067L553.496 116.388L554.928 114.992L550.716 110.671L549.284 112.067ZM561.919 125.03L570.342 133.672L571.774 132.276L563.351 123.634L561.919 125.03ZM578.765 142.314L587.189 150.956L588.621 149.56L580.198 140.918L578.765 142.314ZM595.612 159.598L604.035 168.241L605.467 166.845L597.044 158.202L595.612 159.598ZM612.458 176.883L620.882 185.525L622.314 184.129L613.891 175.487L612.458 176.883ZM629.305 194.167L637.728 202.809L639.16 201.413L630.737 192.771L629.305 194.167ZM646.151 211.451L654.575 220.093L656.007 218.697L647.584 210.055L646.151 211.451ZM662.998 228.735L671.421 237.377L672.853 235.981L664.43 227.339L662.998 228.735ZM677.126 241.629L680.887 236.979L679.332 235.721L675.571 240.371L677.126 241.629ZM688.409 227.679L695.931 218.379L694.376 217.121L686.854 226.421L688.409 227.679ZM703.452 209.079L710.974 199.779L709.419 198.521L701.897 207.821L703.452 209.079ZM718.496 190.479L726.018 181.179L724.462 179.921L716.941 189.221L718.496 190.479ZM733.539 171.879L741.061 162.579L739.506 161.321L731.984 170.621L733.539 171.879ZM748.583 153.279L756.104 143.979L754.549 142.721L747.028 152.021L748.583 153.279ZM763.626 134.679L771.148 125.379L769.593 124.121L762.071 133.421L763.626 134.679ZM778.669 116.079L786.191 106.779L784.636 105.521L777.114 114.821L778.669 116.079ZM793.713 97.4789L801.235 88.1789L799.679 86.9212L792.158 96.2212L793.713 97.4789ZM808.756 78.8789L816.278 69.5789L814.723 68.3212L807.201 77.6212L808.756 78.8789ZM823.8 60.2789L831.321 50.9789L829.766 49.7212L822.245 59.0212L823.8 60.2789ZM838.843 41.6789L846.365 32.3789L844.81 31.1212L837.288 40.4212L838.843 41.6789ZM853.886 23.0789L861.408 13.7789L859.853 12.5212L852.331 21.8212L853.886 23.0789ZM868.93 4.47888L876.452 -4.82113L874.897 -6.07883L867.375 3.22118L868.93 4.47888ZM883.973 -14.1211L891.495 -23.4211L889.94 -24.6788L882.418 -15.3788L883.973 -14.1211ZM899.017 -32.7212L902.778 -37.3711L901.222 -38.6289L897.462 -33.9789L899.017 -32.7212ZM901.609 -38.9205L896.109 -36.5867L896.891 -34.7456L902.391 -37.0795L901.609 -38.9205ZM885.109 -31.9189L874.109 -27.2511L874.891 -25.41L885.891 -30.0778L885.109 -31.9189ZM863.109 -22.5833L852.109 -17.9155L852.891 -16.0744L863.891 -20.7422L863.109 -22.5833ZM841.109 -13.2477L830.109 -8.57994L830.891 -6.73884L841.891 -11.4066L841.109 -13.2477ZM819.109 -3.91215L808.109 0.755638L808.891 2.59673L819.891 -2.07105L819.109 -3.91215ZM797.109 5.42342L786.109 10.0912L786.891 11.9323L797.891 7.26452L797.109 5.42342ZM775.109 14.759L764.109 19.4268L764.891 21.2679L775.891 16.6001L775.109 14.759ZM753.109 24.0946L742.109 28.7624L742.891 30.6035L753.891 25.9357L753.109 24.0946ZM731.109 33.4301L720.109 38.0979L720.891 39.939L731.891 35.2712L731.109 33.4301ZM709.109 42.7657L698.109 47.4335L698.891 49.2746L709.891 44.6068L709.109 42.7657ZM687.109 52.1013L676.109 56.7691L676.891 58.6102L687.891 53.9424L687.109 52.1013ZM665.109 61.4369L654.109 66.1047L654.891 67.9457L665.891 63.278L665.109 61.4369ZM643.109 70.7724L632.109 75.4402L632.891 77.2813L643.891 72.6135L643.109 70.7724ZM621.109 80.108L610.109 84.7758L610.891 86.6169L621.891 81.9491L621.109 80.108ZM599.109 89.4436L588.109 94.1114L588.891 95.9525L599.891 91.2847L599.109 89.4436ZM577.109 98.7792L566.109 103.447L566.891 105.288L577.891 100.62L577.109 98.7792ZM555.109 108.115L549.609 110.449L550.391 112.29L555.891 109.956L555.109 108.115ZM404.731 535.683L408.772 531.359L407.311 529.994L403.269 534.317L404.731 535.683ZM416.856 522.712L424.939 514.065L423.478 512.699L415.395 521.346L416.856 522.712ZM433.023 505.418L441.106 496.771L439.645 495.405L431.562 504.052L433.023 505.418ZM449.19 488.124L457.273 479.477L455.812 478.111L447.729 486.758L449.19 488.124ZM465.357 470.83L473.441 462.183L471.979 460.817L463.896 469.464L465.357 470.83ZM481.524 453.536L489.608 444.889L488.147 443.523L480.063 452.17L481.524 453.536ZM497.691 436.242L505.775 427.595L504.314 426.229L496.23 434.876L497.691 436.242ZM513.858 418.948L521.942 410.301L520.481 408.935L512.397 417.582L513.858 418.948ZM530.025 401.654L538.109 393.006L536.648 391.641L528.564 400.288L530.025 401.654ZM546.192 384.359L554.276 375.712L552.815 374.347L544.731 382.994L546.192 384.359ZM562.359 367.065L570.443 358.418L568.982 357.052L560.898 365.699L562.359 367.065ZM578.526 349.771L586.61 341.124L585.149 339.758L577.065 348.405L578.526 349.771ZM594.693 332.477L602.777 323.83L601.316 322.464L593.232 331.111L594.693 332.477ZM610.861 315.183L618.944 306.536L617.483 305.17L609.4 313.817L610.861 315.183ZM627.028 297.889L635.111 289.242L633.65 287.876L625.567 296.523L627.028 297.889ZM643.195 280.595L651.278 271.948L649.817 270.582L641.734 279.229L643.195 280.595ZM659.362 263.3L667.445 254.653L665.984 253.288L657.901 261.935L659.362 263.3ZM675.529 246.006L679.57 241.683L678.109 240.317L674.068 244.641L675.529 246.006ZM678.133 241.707L682.372 245.944L683.786 244.53L679.547 240.293L678.133 241.707ZM690.849 254.419L699.326 262.893L700.74 261.479L692.263 253.004L690.849 254.419ZM707.804 271.368L716.281 279.842L717.695 278.428L709.218 269.953L707.804 271.368ZM724.758 288.317L733.236 296.791L734.65 295.377L726.172 286.902L724.758 288.317ZM741.713 305.266L750.19 313.74L751.604 312.326L743.127 303.851L741.713 305.266ZM758.668 322.214L767.145 330.689L768.559 329.274L760.082 320.8L758.668 322.214ZM775.622 339.163L784.1 347.638L785.514 346.223L777.036 337.749L775.622 339.163ZM792.577 356.112L801.054 364.587L802.468 363.172L793.991 354.698L792.577 356.112ZM805.617 367.193L800.033 369.511L800.8 371.358L806.383 369.04L805.617 367.193ZM788.867 374.147L777.7 378.782L778.467 380.629L789.633 375.994L788.867 374.147ZM766.533 383.418L755.367 388.053L756.133 389.901L767.3 385.265L766.533 383.418ZM744.2 392.689L733.033 397.325L733.8 399.172L744.967 394.536L744.2 392.689ZM721.867 401.96L710.7 406.596L711.467 408.443L722.633 403.808L721.867 401.96ZM699.533 411.232L688.367 415.867L689.133 417.715L700.3 413.079L699.533 411.232ZM677.2 420.503L666.033 425.139L666.8 426.986L677.967 422.35L677.2 420.503ZM654.867 429.774L643.7 434.41L644.467 436.257L655.633 431.621L654.867 429.774ZM632.533 439.046L621.367 443.681L622.133 445.528L633.3 440.893L632.533 439.046ZM610.2 448.317L599.033 452.953L599.8 454.8L610.967 450.164L610.2 448.317ZM587.867 457.588L576.7 462.224L577.467 464.071L588.633 459.435L587.867 457.588ZM565.533 466.859L554.367 471.495L555.133 473.342L566.3 468.707L565.533 466.859ZM543.2 476.131L532.033 480.766L532.8 482.614L543.967 477.978L543.2 476.131ZM520.867 485.402L509.7 490.038L510.467 491.885L521.634 487.249L520.867 485.402ZM498.533 494.673L487.367 499.309L488.134 501.156L499.3 496.521L498.533 494.673ZM476.2 503.945L465.033 508.58L465.8 510.427L476.967 505.792L476.2 503.945ZM453.867 513.216L442.7 517.852L443.467 519.699L454.634 515.063L453.867 513.216ZM431.533 522.487L420.367 527.123L421.134 528.97L432.3 524.334L431.533 522.487ZM409.2 531.759L403.617 534.076L404.383 535.924L409.967 533.606L409.2 531.759Z" fill="#6A8BE9"/>
</g>
</svg>
